# MagicaVoxel @ Ephtracy

# group
g StandardTile

# material
mtllib StandardTile.mtl
usemtl palette

# normals
vn -1 0 0
vn 1 0 0
vn 0 0 1
vn 0 0 -1
vn 0 -1 0
vn 0 1 0

# texcoords
vt 0.419922 0.5
vt 0.560547 0.5
vt 0.853516 0.5
vt 0.857422 0.5
vt 0.861328 0.5
vt 0.865234 0.5
vt 0.869141 0.5
vt 0.900391 0.5

# verts
v -20 35 20
v -20 35 16
v -20 35 15
v -20 35 13
v -20 35 8
v -20 35 7
v -20 35 4
v -20 35 3
v -20 35 -3
v -20 35 -5
v -20 35 -9
v -20 35 -10
v -20 35 -12
v -20 35 -13
v -20 35 -15
v -20 35 -17
v -20 35 -20
v -20 36 18
v -20 36 17
v -20 36 16
v -20 36 15
v -20 36 13
v -20 36 11
v -20 36 10
v -20 36 8
v -20 36 7
v -20 36 5
v -20 36 4
v -20 36 3
v -20 36 2
v -20 36 1
v -20 36 -2
v -20 36 -3
v -20 36 -4
v -20 36 -5
v -20 36 -7
v -20 36 -8
v -20 36 -9
v -20 36 -10
v -20 36 -12
v -20 36 -13
v -20 36 -15
v -20 36 -17
v -20 36 -18
v -20 36 -19
v -20 37 20
v -20 37 18
v -20 37 17
v -20 37 16
v -20 37 14
v -20 37 13
v -20 37 12
v -20 37 11
v -20 37 10
v -20 37 8
v -20 37 5
v -20 37 4
v -20 37 3
v -20 37 2
v -20 37 1
v -20 37 -0
v -20 37 -2
v -20 37 -3
v -20 37 -4
v -20 37 -7
v -20 37 -8
v -20 37 -9
v -20 37 -10
v -20 37 -11
v -20 37 -13
v -20 37 -14
v -20 37 -15
v -20 37 -18
v -20 37 -19
v -20 37 -20
v -20 38 19
v -20 38 18
v -20 38 15
v -20 38 14
v -20 38 13
v -20 38 12
v -20 38 11
v -20 38 10
v -20 38 9
v -20 38 8
v -20 38 7
v -20 38 6
v -20 38 4
v -20 38 3
v -20 38 2
v -20 38 1
v -20 38 -0
v -20 38 -2
v -20 38 -3
v -20 38 -4
v -20 38 -6
v -20 38 -7
v -20 38 -8
v -20 38 -9
v -20 38 -10
v -20 38 -11
v -20 38 -12
v -20 38 -13
v -20 38 -14
v -20 38 -15
v -20 38 -16
v -20 38 -18
v -20 38 -19
v -20 39 19
v -20 39 18
v -20 39 17
v -20 39 16
v -20 39 15
v -20 39 14
v -20 39 12
v -20 39 10
v -20 39 9
v -20 39 8
v -20 39 6
v -20 39 5
v -20 39 4
v -20 39 3
v -20 39 2
v -20 39 1
v -20 39 -0
v -20 39 -1
v -20 39 -2
v -20 39 -3
v -20 39 -4
v -20 39 -6
v -20 39 -7
v -20 39 -9
v -20 39 -10
v -20 39 -12
v -20 39 -13
v -20 39 -14
v -20 39 -15
v -20 39 -16
v -20 39 -17
v -20 39 -18
v -20 39 -19
v -20 39 -20
v -20 40 20
v -20 40 19
v -20 40 18
v -20 40 17
v -20 40 16
v -20 40 15
v -20 40 14
v -20 40 12
v -20 40 10
v -20 40 9
v -20 40 8
v -20 40 7
v -20 40 6
v -20 40 5
v -20 40 4
v -20 40 3
v -20 40 2
v -20 40 1
v -20 40 -0
v -20 40 -1
v -20 40 -3
v -20 40 -4
v -20 40 -6
v -20 40 -10
v -20 40 -12
v -20 40 -13
v -20 40 -14
v -20 40 -15
v -20 40 -16
v -20 40 -17
v -20 40 -18
v -20 40 -19
v -20 40 -20
v 20 35 20
v 20 35 19
v 20 35 16
v 20 35 13
v 20 35 12
v 20 35 10
v 20 35 9
v 20 35 8
v 20 35 7
v 20 35 5
v 20 35 4
v 20 35 2
v 20 35 1
v 20 35 -0
v 20 35 -1
v 20 35 -3
v 20 35 -6
v 20 35 -7
v 20 35 -10
v 20 35 -12
v 20 35 -13
v 20 35 -14
v 20 35 -15
v 20 35 -17
v 20 35 -18
v 20 35 -20
v 20 36 19
v 20 36 17
v 20 36 16
v 20 36 15
v 20 36 13
v 20 36 12
v 20 36 11
v 20 36 10
v 20 36 9
v 20 36 8
v 20 36 7
v 20 36 5
v 20 36 4
v 20 36 3
v 20 36 2
v 20 36 1
v 20 36 -1
v 20 36 -2
v 20 36 -3
v 20 36 -6
v 20 36 -7
v 20 36 -9
v 20 36 -10
v 20 36 -11
v 20 36 -12
v 20 36 -13
v 20 36 -14
v 20 36 -16
v 20 36 -17
v 20 36 -18
v 20 36 -19
v 20 36 -20
v 20 37 20
v 20 37 19
v 20 37 18
v 20 37 17
v 20 37 16
v 20 37 15
v 20 37 14
v 20 37 13
v 20 37 10
v 20 37 8
v 20 37 7
v 20 37 4
v 20 37 3
v 20 37 1
v 20 37 -0
v 20 37 -1
v 20 37 -2
v 20 37 -3
v 20 37 -5
v 20 37 -6
v 20 37 -7
v 20 37 -8
v 20 37 -9
v 20 37 -10
v 20 37 -11
v 20 37 -12
v 20 37 -13
v 20 37 -14
v 20 37 -15
v 20 37 -16
v 20 37 -17
v 20 37 -19
v 20 38 18
v 20 38 17
v 20 38 16
v 20 38 15
v 20 38 14
v 20 38 13
v 20 38 12
v 20 38 11
v 20 38 9
v 20 38 8
v 20 38 7
v 20 38 5
v 20 38 4
v 20 38 3
v 20 38 2
v 20 38 1
v 20 38 -0
v 20 38 -1
v 20 38 -5
v 20 38 -6
v 20 38 -8
v 20 38 -10
v 20 38 -11
v 20 38 -13
v 20 38 -15
v 20 38 -16
v 20 38 -17
v 20 38 -18
v 20 39 20
v 20 39 19
v 20 39 18
v 20 39 17
v 20 39 15
v 20 39 14
v 20 39 12
v 20 39 10
v 20 39 9
v 20 39 8
v 20 39 7
v 20 39 6
v 20 39 5
v 20 39 3
v 20 39 2
v 20 39 1
v 20 39 -0
v 20 39 -4
v 20 39 -5
v 20 39 -6
v 20 39 -7
v 20 39 -8
v 20 39 -9
v 20 39 -10
v 20 39 -11
v 20 39 -12
v 20 39 -13
v 20 39 -15
v 20 39 -16
v 20 39 -17
v 20 39 -19
v 20 39 -20
v 20 40 20
v 20 40 19
v 20 40 18
v 20 40 16
v 20 40 14
v 20 40 12
v 20 40 10
v 20 40 8
v 20 40 7
v 20 40 6
v 20 40 2
v 20 40 1
v 20 40 -4
v 20 40 -6
v 20 40 -7
v 20 40 -8
v 20 40 -9
v 20 40 -10
v 20 40 -12
v 20 40 -13
v 20 40 -15
v 20 40 -16
v 20 40 -17
v 20 40 -18
v 20 40 -20
v -20 35 20
v -20 37 20
v -20 40 20
v -19 38 20
v -19 39 20
v -19 40 20
v -18 35 20
v -18 37 20
v -18 38 20
v -18 39 20
v -17 36 20
v -17 37 20
v -17 38 20
v -17 39 20
v -17 40 20
v -16 35 20
v -16 36 20
v -16 37 20
v -16 38 20
v -16 39 20
v -16 40 20
v -15 35 20
v -15 36 20
v -15 38 20
v -15 39 20
v -15 40 20
v -14 35 20
v -14 36 20
v -14 37 20
v -14 38 20
v -13 36 20
v -13 37 20
v -13 38 20
v -13 39 20
v -12 35 20
v -12 36 20
v -12 37 20
v -12 38 20
v -12 39 20
v -12 40 20
v -11 35 20
v -11 36 20
v -11 37 20
v -11 38 20
v -11 39 20
v -11 40 20
v -10 37 20
v -10 38 20
v -10 39 20
v -10 40 20
v -9 35 20
v -9 36 20
v -9 37 20
v -9 38 20
v -9 39 20
v -8 35 20
v -8 36 20
v -8 37 20
v -8 38 20
v -7 38 20
v -7 39 20
v -7 40 20
v -6 35 20
v -6 37 20
v -6 38 20
v -6 39 20
v -6 40 20
v -5 35 20
v -5 37 20
v -5 38 20
v -5 39 20
v -5 40 20
v -4 37 20
v -4 38 20
v -4 39 20
v -4 40 20
v -3 35 20
v -3 36 20
v -3 38 20
v -3 40 20
v -2 35 20
v -2 36 20
v -2 38 20
v -2 40 20
v -1 37 20
v -1 38 20
v -1 40 20
v 1 37 20
v 1 38 20
v 1 40 20
v 2 35 20
v 2 36 20
v 2 37 20
v 2 38 20
v 2 39 20
v 2 40 20
v 3 35 20
v 3 36 20
v 3 39 20
v 3 40 20
v 4 36 20
v 4 37 20
v 4 38 20
v 4 40 20
v 5 35 20
v 5 36 20
v 5 37 20
v 5 38 20
v 6 35 20
v 6 37 20
v 6 38 20
v 6 39 20
v 6 40 20
v 7 36 20
v 7 37 20
v 7 38 20
v 7 39 20
v 7 40 20
v 8 35 20
v 8 36 20
v 8 37 20
v 8 38 20
v 8 39 20
v 9 35 20
v 9 36 20
v 9 37 20
v 9 38 20
v 9 39 20
v 9 40 20
v 10 36 20
v 10 37 20
v 10 38 20
v 10 39 20
v 10 40 20
v 11 35 20
v 11 36 20
v 11 38 20
v 11 39 20
v 11 40 20
v 12 35 20
v 12 36 20
v 12 37 20
v 12 38 20
v 12 39 20
v 12 40 20
v 13 36 20
v 13 37 20
v 13 38 20
v 13 39 20
v 13 40 20
v 14 35 20
v 14 36 20
v 14 37 20
v 14 38 20
v 14 40 20
v 15 35 20
v 15 36 20
v 15 37 20
v 15 38 20
v 15 39 20
v 15 40 20
v 16 35 20
v 16 36 20
v 16 37 20
v 16 38 20
v 16 39 20
v 16 40 20
v 17 36 20
v 17 37 20
v 17 38 20
v 17 39 20
v 17 40 20
v 18 35 20
v 18 37 20
v 18 39 20
v 19 39 20
v 19 40 20
v 20 35 20
v 20 37 20
v 20 39 20
v 20 40 20
v -20 35 -20
v -20 37 -20
v -20 39 -20
v -20 40 -20
v -19 35 -20
v -19 37 -20
v -19 39 -20
v -19 40 -20
v -18 35 -20
v -18 37 -20
v -18 39 -20
v -17 35 -20
v -17 36 -20
v -17 37 -20
v -17 39 -20
v -17 40 -20
v -16 36 -20
v -16 37 -20
v -16 40 -20
v -15 35 -20
v -15 36 -20
v -15 37 -20
v -15 38 -20
v -15 40 -20
v -14 35 -20
v -14 36 -20
v -14 37 -20
v -14 38 -20
v -14 39 -20
v -14 40 -20
v -13 35 -20
v -13 36 -20
v -13 37 -20
v -13 38 -20
v -13 39 -20
v -13 40 -20
v -12 35 -20
v -12 36 -20
v -12 39 -20
v -12 40 -20
v -11 35 -20
v -11 37 -20
v -11 38 -20
v -11 39 -20
v -11 40 -20
v -10 35 -20
v -10 37 -20
v -10 38 -20
v -10 39 -20
v -10 40 -20
v -9 35 -20
v -9 36 -20
v -9 37 -20
v -8 38 -20
v -8 39 -20
v -8 40 -20
v -7 37 -20
v -7 38 -20
v -7 39 -20
v -7 40 -20
v -6 35 -20
v -6 36 -20
v -6 37 -20
v -6 38 -20
v -6 39 -20
v -6 40 -20
v -5 37 -20
v -5 38 -20
v -5 39 -20
v -5 40 -20
v -4 35 -20
v -4 36 -20
v -4 39 -20
v -4 40 -20
v -3 35 -20
v -3 36 -20
v -3 37 -20
v -3 38 -20
v -3 39 -20
v -3 40 -20
v -2 35 -20
v -2 36 -20
v -2 38 -20
v -2 39 -20
v -2 40 -20
v -1 36 -20
v -1 37 -20
v -1 38 -20
v -1 39 -20
v -1 40 -20
v 1 36 -20
v 1 37 -20
v 1 38 -20
v 1 39 -20
v 1 40 -20
v 2 38 -20
v 2 39 -20
v 2 40 -20
v 3 35 -20
v 3 36 -20
v 3 37 -20
v 4 36 -20
v 4 37 -20
v 4 38 -20
v 4 39 -20
v 5 35 -20
v 5 36 -20
v 6 35 -20
v 6 36 -20
v 6 38 -20
v 6 39 -20
v 6 40 -20
v 7 35 -20
v 7 36 -20
v 7 39 -20
v 7 40 -20
v 8 35 -20
v 8 36 -20
v 8 37 -20
v 8 38 -20
v 9 35 -20
v 9 36 -20
v 9 37 -20
v 9 38 -20
v 9 39 -20
v 9 40 -20
v 10 38 -20
v 10 39 -20
v 10 40 -20
v 11 36 -20
v 11 37 -20
v 11 38 -20
v 11 39 -20
v 11 40 -20
v 12 35 -20
v 12 36 -20
v 12 37 -20
v 12 38 -20
v 13 39 -20
v 13 40 -20
v 14 36 -20
v 14 37 -20
v 14 38 -20
v 14 39 -20
v 14 40 -20
v 15 35 -20
v 15 36 -20
v 15 38 -20
v 15 39 -20
v 15 40 -20
v 16 35 -20
v 16 36 -20
v 16 38 -20
v 16 39 -20
v 16 40 -20
v 17 35 -20
v 17 38 -20
v 17 39 -20
v 17 40 -20
v 18 37 -20
v 18 38 -20
v 18 39 -20
v 19 35 -20
v 19 36 -20
v 19 37 -20
v 19 39 -20
v 19 40 -20
v 20 35 -20
v 20 36 -20
v 20 39 -20
v 20 40 -20
v -20 35 20
v -18 35 20
v -16 35 20
v -15 35 20
v -14 35 20
v -12 35 20
v -11 35 20
v -9 35 20
v -8 35 20
v -6 35 20
v -5 35 20
v -3 35 20
v -2 35 20
v 2 35 20
v 3 35 20
v 5 35 20
v 6 35 20
v 8 35 20
v 9 35 20
v 11 35 20
v 12 35 20
v 14 35 20
v 15 35 20
v 16 35 20
v 18 35 20
v 20 35 20
v -19 35 19
v -18 35 19
v -16 35 19
v -15 35 19
v -14 35 19
v -12 35 19
v -11 35 19
v -9 35 19
v -8 35 19
v -6 35 19
v -5 35 19
v -3 35 19
v -2 35 19
v 2 35 19
v 3 35 19
v 5 35 19
v 6 35 19
v 8 35 19
v 9 35 19
v 11 35 19
v 12 35 19
v 14 35 19
v 15 35 19
v 16 35 19
v 18 35 19
v 19 35 19
v 20 35 19
v -20 35 16
v -19 35 16
v 19 35 16
v 20 35 16
v -20 35 15
v -19 35 15
v -20 35 13
v -19 35 13
v 19 35 13
v 20 35 13
v 19 35 12
v 20 35 12
v 19 35 10
v 20 35 10
v 19 35 9
v 20 35 9
v -20 35 8
v -19 35 8
v 19 35 8
v 20 35 8
v -20 35 7
v -19 35 7
v 19 35 7
v 20 35 7
v 19 35 5
v 20 35 5
v -20 35 4
v -19 35 4
v 19 35 4
v 20 35 4
v -20 35 3
v -19 35 3
v 19 35 2
v 20 35 2
v 19 35 1
v 20 35 1
v 19 35 -0
v 20 35 -0
v 19 35 -1
v 20 35 -1
v -20 35 -3
v -19 35 -3
v 19 35 -3
v 20 35 -3
v -20 35 -5
v -19 35 -5
v 19 35 -6
v 20 35 -6
v 19 35 -7
v 20 35 -7
v -20 35 -9
v -19 35 -9
v -20 35 -10
v -19 35 -10
v 19 35 -10
v 20 35 -10
v -20 35 -12
v -19 35 -12
v 19 35 -12
v 20 35 -12
v -20 35 -13
v -19 35 -13
v 19 35 -13
v 20 35 -13
v 19 35 -14
v 20 35 -14
v -20 35 -15
v -19 35 -15
v 19 35 -15
v 20 35 -15
v -20 35 -17
v -19 35 -17
v 19 35 -17
v 20 35 -17
v 19 35 -18
v 20 35 -18
v -19 35 -19
v -18 35 -19
v -17 35 -19
v -15 35 -19
v -14 35 -19
v -13 35 -19
v -12 35 -19
v -11 35 -19
v -10 35 -19
v -9 35 -19
v -6 35 -19
v -4 35 -19
v -3 35 -19
v -2 35 -19
v 3 35 -19
v 5 35 -19
v 6 35 -19
v 7 35 -19
v 8 35 -19
v 9 35 -19
v 12 35 -19
v 15 35 -19
v 16 35 -19
v 17 35 -19
v 19 35 -19
v -20 35 -20
v -19 35 -20
v -18 35 -20
v -17 35 -20
v -15 35 -20
v -14 35 -20
v -13 35 -20
v -12 35 -20
v -11 35 -20
v -10 35 -20
v -9 35 -20
v -6 35 -20
v -4 35 -20
v -3 35 -20
v -2 35 -20
v 3 35 -20
v 5 35 -20
v 6 35 -20
v 7 35 -20
v 8 35 -20
v 9 35 -20
v 12 35 -20
v 15 35 -20
v 16 35 -20
v 17 35 -20
v 19 35 -20
v 20 35 -20
v -20 40 20
v -19 40 20
v -17 40 20
v -16 40 20
v -15 40 20
v -12 40 20
v -11 40 20
v -10 40 20
v -7 40 20
v -6 40 20
v -5 40 20
v -4 40 20
v -3 40 20
v -2 40 20
v -1 40 20
v 1 40 20
v 2 40 20
v 3 40 20
v 4 40 20
v 6 40 20
v 7 40 20
v 9 40 20
v 10 40 20
v 11 40 20
v 12 40 20
v 13 40 20
v 14 40 20
v 15 40 20
v 16 40 20
v 17 40 20
v 19 40 20
v 20 40 20
v -20 40 19
v -19 40 19
v -17 40 19
v -16 40 19
v -15 40 19
v -12 40 19
v -11 40 19
v -10 40 19
v -7 40 19
v -6 40 19
v -5 40 19
v -4 40 19
v -3 40 19
v -2 40 19
v -1 40 19
v 1 40 19
v 2 40 19
v 3 40 19
v 4 40 19
v 6 40 19
v 7 40 19
v 9 40 19
v 10 40 19
v 11 40 19
v 12 40 19
v 13 40 19
v 14 40 19
v 15 40 19
v 16 40 19
v 17 40 19
v 19 40 19
v 20 40 19
v -20 40 18
v -19 40 18
v 19 40 18
v 20 40 18
v -20 40 17
v -19 40 17
v -20 40 16
v -19 40 16
v 19 40 16
v 20 40 16
v -20 40 15
v -19 40 15
v -20 40 14
v -19 40 14
v 19 40 14
v 20 40 14
v -20 40 12
v -19 40 12
v 19 40 12
v 20 40 12
v -20 40 10
v -19 40 10
v 19 40 10
v 20 40 10
v -20 40 9
v -19 40 9
v -20 40 8
v -19 40 8
v 19 40 8
v 20 40 8
v -20 40 7
v -19 40 7
v 19 40 7
v 20 40 7
v -20 40 6
v -19 40 6
v 19 40 6
v 20 40 6
v -20 40 5
v -19 40 5
v -20 40 4
v -19 40 4
v -20 40 3
v -19 40 3
v -20 40 2
v -19 40 2
v 19 40 2
v 20 40 2
v -20 40 1
v -19 40 1
v 19 40 1
v 20 40 1
v -20 40 -0
v -19 40 -0
v -20 40 -1
v -19 40 -1
v -20 40 -3
v -19 40 -3
v -20 40 -4
v -19 40 -4
v 19 40 -4
v 20 40 -4
v -20 40 -6
v -19 40 -6
v 19 40 -6
v 20 40 -6
v 19 40 -7
v 20 40 -7
v 19 40 -8
v 20 40 -8
v 19 40 -9
v 20 40 -9
v -20 40 -10
v -19 40 -10
v 19 40 -10
v 20 40 -10
v -20 40 -12
v -19 40 -12
v 19 40 -12
v 20 40 -12
v -20 40 -13
v -19 40 -13
v 19 40 -13
v 20 40 -13
v -20 40 -14
v -19 40 -14
v -20 40 -15
v -19 40 -15
v 19 40 -15
v 20 40 -15
v -20 40 -16
v -19 40 -16
v 19 40 -16
v 20 40 -16
v -20 40 -17
v -19 40 -17
v 19 40 -17
v 20 40 -17
v -20 40 -18
v -19 40 -18
v 19 40 -18
v 20 40 -18
v -20 40 -19
v -19 40 -19
v -17 40 -19
v -16 40 -19
v -15 40 -19
v -14 40 -19
v -13 40 -19
v -12 40 -19
v -11 40 -19
v -10 40 -19
v -8 40 -19
v -7 40 -19
v -6 40 -19
v -5 40 -19
v -4 40 -19
v -3 40 -19
v -2 40 -19
v -1 40 -19
v 1 40 -19
v 2 40 -19
v 6 40 -19
v 7 40 -19
v 9 40 -19
v 10 40 -19
v 11 40 -19
v 13 40 -19
v 14 40 -19
v 15 40 -19
v 16 40 -19
v 17 40 -19
v 19 40 -19
v -20 40 -20
v -19 40 -20
v -17 40 -20
v -16 40 -20
v -15 40 -20
v -14 40 -20
v -13 40 -20
v -12 40 -20
v -11 40 -20
v -10 40 -20
v -8 40 -20
v -7 40 -20
v -6 40 -20
v -5 40 -20
v -4 40 -20
v -3 40 -20
v -2 40 -20
v -1 40 -20
v 1 40 -20
v 2 40 -20
v 6 40 -20
v 7 40 -20
v 9 40 -20
v 10 40 -20
v 11 40 -20
v 13 40 -20
v 14 40 -20
v 15 40 -20
v 16 40 -20
v 17 40 -20
v 19 40 -20
v 20 40 -20

# faces
f 18/6/1 2/6/1 1/6/1
f 19/6/1 2/6/1 18/6/1
f 20/5/1 3/5/1 2/5/1
f 20/6/1 2/6/1 19/6/1
f 21/7/1 4/7/1 3/7/1
f 21/5/1 3/5/1 20/5/1
f 22/6/1 5/6/1 4/6/1
f 22/7/1 4/7/1 21/7/1
f 23/6/1 5/6/1 22/6/1
f 24/6/1 5/6/1 23/6/1
f 25/7/1 6/7/1 5/7/1
f 25/6/1 5/6/1 24/6/1
f 26/6/1 7/6/1 6/6/1
f 26/7/1 6/7/1 25/7/1
f 27/6/1 7/6/1 26/6/1
f 28/5/1 8/5/1 7/5/1
f 28/6/1 7/6/1 27/6/1
f 29/6/1 9/6/1 8/6/1
f 29/5/1 8/5/1 28/5/1
f 30/6/1 9/6/1 29/6/1
f 31/6/1 9/6/1 30/6/1
f 32/6/1 9/6/1 31/6/1
f 33/5/1 10/5/1 9/5/1
f 33/6/1 9/6/1 32/6/1
f 34/5/1 10/5/1 33/5/1
f 35/6/1 11/6/1 10/6/1
f 35/5/1 10/5/1 34/5/1
f 36/6/1 11/6/1 35/6/1
f 37/6/1 11/6/1 36/6/1
f 38/5/1 12/5/1 11/5/1
f 38/6/1 11/6/1 37/6/1
f 39/6/1 13/6/1 12/6/1
f 39/5/1 12/5/1 38/5/1
f 40/2/1 14/2/1 13/2/1
f 40/6/1 13/6/1 39/6/1
f 41/6/1 15/6/1 14/6/1
f 41/2/1 14/2/1 40/2/1
f 42/7/1 16/7/1 15/7/1
f 42/6/1 15/6/1 41/6/1
f 43/6/1 17/6/1 16/6/1
f 43/7/1 16/7/1 42/7/1
f 44/6/1 17/6/1 43/6/1
f 45/6/1 17/6/1 44/6/1
f 46/6/1 18/6/1 1/6/1
f 47/3/1 19/3/1 18/3/1
f 47/6/1 18/6/1 46/6/1
f 48/7/1 20/7/1 19/7/1
f 48/3/1 19/3/1 47/3/1
f 49/6/1 21/6/1 20/6/1
f 49/7/1 20/7/1 48/7/1
f 49/6/1 22/6/1 21/6/1
f 49/6/1 23/6/1 22/6/1
f 50/6/1 23/6/1 49/6/1
f 51/6/1 23/6/1 50/6/1
f 52/6/1 23/6/1 51/6/1
f 53/5/1 24/5/1 23/5/1
f 53/6/1 23/6/1 52/6/1
f 54/6/1 25/6/1 24/6/1
f 54/5/1 24/5/1 53/5/1
f 54/6/1 27/6/1 26/6/1
f 54/6/1 26/6/1 25/6/1
f 55/6/1 27/6/1 54/6/1
f 56/5/1 28/5/1 27/5/1
f 56/6/1 27/6/1 55/6/1
f 57/6/1 29/6/1 28/6/1
f 57/5/1 28/5/1 56/5/1
f 57/6/1 30/6/1 29/6/1
f 58/6/1 30/6/1 57/6/1
f 59/7/1 31/7/1 30/7/1
f 59/6/1 30/6/1 58/6/1
f 60/6/1 32/6/1 31/6/1
f 60/7/1 31/7/1 59/7/1
f 61/6/1 32/6/1 60/6/1
f 62/7/1 33/7/1 32/7/1
f 62/6/1 32/6/1 61/6/1
f 63/3/1 34/3/1 33/3/1
f 63/7/1 33/7/1 62/7/1
f 64/6/1 35/6/1 34/6/1
f 64/3/1 34/3/1 63/3/1
f 64/6/1 36/6/1 35/6/1
f 65/7/1 37/7/1 36/7/1
f 65/6/1 36/6/1 64/6/1
f 66/6/1 38/6/1 37/6/1
f 66/7/1 37/7/1 65/7/1
f 66/6/1 39/6/1 38/6/1
f 66/6/1 40/6/1 39/6/1
f 66/6/1 41/6/1 40/6/1
f 67/6/1 41/6/1 66/6/1
f 68/6/1 41/6/1 67/6/1
f 69/6/1 41/6/1 68/6/1
f 70/7/1 42/7/1 41/7/1
f 70/6/1 41/6/1 69/6/1
f 71/7/1 42/7/1 70/7/1
f 72/6/1 43/6/1 42/6/1
f 72/7/1 42/7/1 71/7/1
f 72/6/1 44/6/1 43/6/1
f 73/5/1 45/5/1 44/5/1
f 73/6/1 44/6/1 72/6/1
f 74/6/1 17/6/1 45/6/1
f 74/5/1 45/5/1 73/5/1
f 75/6/1 17/6/1 74/6/1
f 76/2/1 47/2/1 46/2/1
f 77/5/1 48/5/1 47/5/1
f 77/2/1 47/2/1 76/2/1
f 77/5/1 49/5/1 48/5/1
f 77/5/1 50/5/1 49/5/1
f 78/5/1 50/5/1 77/5/1
f 79/7/1 51/7/1 50/7/1
f 79/5/1 50/5/1 78/5/1
f 80/2/1 52/2/1 51/2/1
f 80/7/1 51/7/1 79/7/1
f 81/7/1 53/7/1 52/7/1
f 81/2/1 52/2/1 80/2/1
f 82/2/1 54/2/1 53/2/1
f 82/7/1 53/7/1 81/7/1
f 83/3/1 55/3/1 54/3/1
f 83/2/1 54/2/1 82/2/1
f 84/3/1 55/3/1 83/3/1
f 85/5/1 57/5/1 56/5/1
f 85/3/1 55/3/1 84/3/1
f 85/5/1 56/5/1 55/5/1
f 86/5/1 57/5/1 85/5/1
f 87/5/1 57/5/1 86/5/1
f 88/7/1 58/7/1 57/7/1
f 88/5/1 57/5/1 87/5/1
f 89/4/1 59/4/1 58/4/1
f 89/7/1 58/7/1 88/7/1
f 90/7/1 60/7/1 59/7/1
f 90/4/1 59/4/1 89/4/1
f 91/4/1 61/4/1 60/4/1
f 91/7/1 60/7/1 90/7/1
f 92/5/1 62/5/1 61/5/1
f 92/4/1 61/4/1 91/4/1
f 93/3/1 64/3/1 63/3/1
f 93/5/1 62/5/1 92/5/1
f 93/3/1 63/3/1 62/3/1
f 94/3/1 64/3/1 93/3/1
f 95/5/1 65/5/1 64/5/1
f 95/3/1 64/3/1 94/3/1
f 95/5/1 66/5/1 65/5/1
f 96/5/1 66/5/1 95/5/1
f 97/5/1 66/5/1 96/5/1
f 98/7/1 67/7/1 66/7/1
f 98/5/1 66/5/1 97/5/1
f 99/8/1 68/8/1 67/8/1
f 99/7/1 67/7/1 98/7/1
f 100/5/1 69/5/1 68/5/1
f 100/8/1 68/8/1 99/8/1
f 101/7/1 70/7/1 69/7/1
f 101/5/1 69/5/1 100/5/1
f 102/7/1 70/7/1 101/7/1
f 103/8/1 71/8/1 70/8/1
f 103/7/1 70/7/1 102/7/1
f 104/5/1 73/5/1 72/5/1
f 104/8/1 71/8/1 103/8/1
f 104/5/1 72/5/1 71/5/1
f 105/5/1 73/5/1 104/5/1
f 106/5/1 73/5/1 105/5/1
f 107/8/1 74/8/1 73/8/1
f 107/5/1 73/5/1 106/5/1
f 108/2/1 75/2/1 74/2/1
f 108/8/1 74/8/1 107/8/1
f 109/2/1 76/2/1 46/2/1
f 109/7/1 78/7/1 77/7/1
f 109/7/1 77/7/1 76/7/1
f 110/7/1 78/7/1 109/7/1
f 111/7/1 78/7/1 110/7/1
f 112/7/1 78/7/1 111/7/1
f 113/8/1 79/8/1 78/8/1
f 113/7/1 78/7/1 112/7/1
f 114/5/1 80/5/1 79/5/1
f 114/8/1 79/8/1 113/8/1
f 114/5/1 81/5/1 80/5/1
f 115/3/1 82/3/1 81/3/1
f 115/5/1 81/5/1 114/5/1
f 115/3/1 83/3/1 82/3/1
f 116/5/1 84/5/1 83/5/1
f 116/3/1 83/3/1 115/3/1
f 117/3/1 85/3/1 84/3/1
f 117/5/1 84/5/1 116/5/1
f 118/2/1 86/2/1 85/2/1
f 118/3/1 85/3/1 117/3/1
f 119/4/1 88/4/1 87/4/1
f 119/8/1 87/8/1 86/8/1
f 120/4/1 88/4/1 119/4/1
f 121/7/1 91/7/1 90/7/1
f 121/4/1 88/4/1 120/4/1
f 121/7/1 90/7/1 89/7/1
f 121/7/1 89/7/1 88/7/1
f 122/7/1 91/7/1 121/7/1
f 123/7/1 91/7/1 122/7/1
f 124/5/1 92/5/1 91/5/1
f 124/7/1 91/7/1 123/7/1
f 124/5/1 93/5/1 92/5/1
f 125/5/1 93/5/1 124/5/1
f 126/5/1 93/5/1 125/5/1
f 127/8/1 94/8/1 93/8/1
f 127/5/1 93/5/1 126/5/1
f 128/3/1 95/3/1 94/3/1
f 128/8/1 94/8/1 127/8/1
f 128/3/1 96/3/1 95/3/1
f 129/3/1 96/3/1 128/3/1
f 130/5/1 97/5/1 96/5/1
f 130/3/1 96/3/1 129/3/1
f 131/7/1 99/7/1 98/7/1
f 131/5/1 97/5/1 130/5/1
f 131/7/1 98/7/1 97/7/1
f 132/5/1 100/5/1 99/5/1
f 132/7/1 99/7/1 131/7/1
f 133/8/1 102/8/1 101/8/1
f 133/5/1 100/5/1 132/5/1
f 133/8/1 101/8/1 100/8/1
f 134/5/1 103/5/1 102/5/1
f 134/8/1 102/8/1 133/8/1
f 134/5/1 104/5/1 103/5/1
f 135/5/1 104/5/1 134/5/1
f 136/8/1 105/8/1 104/8/1
f 136/5/1 104/5/1 135/5/1
f 137/2/1 106/2/1 105/2/1
f 137/8/1 105/8/1 136/8/1
f 138/8/1 107/8/1 106/8/1
f 138/2/1 106/2/1 137/2/1
f 139/8/1 107/8/1 138/8/1
f 140/5/1 108/5/1 107/5/1
f 140/8/1 107/8/1 139/8/1
f 141/2/1 75/2/1 108/2/1
f 141/5/1 108/5/1 140/5/1
f 142/2/1 75/2/1 141/2/1
f 143/2/1 109/2/1 46/2/1
f 144/3/1 110/3/1 109/3/1
f 144/2/1 109/2/1 143/2/1
f 145/7/1 111/7/1 110/7/1
f 145/3/1 110/3/1 144/3/1
f 146/3/1 112/3/1 111/3/1
f 146/7/1 111/7/1 145/7/1
f 147/8/1 113/8/1 112/8/1
f 147/3/1 112/3/1 146/3/1
f 148/7/1 114/7/1 113/7/1
f 148/8/1 113/8/1 147/8/1
f 149/8/1 115/8/1 114/8/1
f 149/7/1 114/7/1 148/7/1
f 150/5/1 116/5/1 115/5/1
f 150/8/1 115/8/1 149/8/1
f 151/8/1 117/8/1 116/8/1
f 151/5/1 116/5/1 150/5/1
f 152/7/1 118/7/1 117/7/1
f 152/8/1 117/8/1 151/8/1
f 153/2/1 86/2/1 118/2/1
f 153/7/1 118/7/1 152/7/1
f 154/8/1 119/8/1 86/8/1
f 154/2/1 86/2/1 153/2/1
f 155/5/1 120/5/1 119/5/1
f 155/8/1 119/8/1 154/8/1
f 156/8/1 121/8/1 120/8/1
f 156/5/1 120/5/1 155/5/1
f 157/7/1 122/7/1 121/7/1
f 157/8/1 121/8/1 156/8/1
f 158/8/1 123/8/1 122/8/1
f 158/7/1 122/7/1 157/7/1
f 159/7/1 124/7/1 123/7/1
f 159/8/1 123/8/1 158/8/1
f 160/8/1 125/8/1 124/8/1
f 160/7/1 124/7/1 159/7/1
f 161/7/1 126/7/1 125/7/1
f 161/8/1 125/8/1 160/8/1
f 162/8/1 128/8/1 127/8/1
f 162/7/1 126/7/1 161/7/1
f 162/8/1 127/8/1 126/8/1
f 163/7/1 129/7/1 128/7/1
f 163/8/1 128/8/1 162/8/1
f 164/8/1 130/8/1 129/8/1
f 164/7/1 129/7/1 163/7/1
f 165/2/1 132/2/1 131/2/1
f 165/8/1 130/8/1 164/8/1
f 165/2/1 133/2/1 132/2/1
f 165/2/1 131/2/1 130/2/1
f 166/5/1 134/5/1 133/5/1
f 166/2/1 133/2/1 165/2/1
f 167/2/1 135/2/1 134/2/1
f 167/5/1 134/5/1 166/5/1
f 168/8/1 136/8/1 135/8/1
f 168/2/1 135/2/1 167/2/1
f 169/2/1 137/2/1 136/2/1
f 169/8/1 136/8/1 168/8/1
f 170/7/1 138/7/1 137/7/1
f 170/2/1 137/2/1 169/2/1
f 171/8/1 139/8/1 138/8/1
f 171/7/1 138/7/1 170/7/1
f 172/5/1 140/5/1 139/5/1
f 172/8/1 139/8/1 171/8/1
f 173/8/1 141/8/1 140/8/1
f 173/5/1 140/5/1 172/5/1
f 174/5/1 142/5/1 141/5/1
f 174/8/1 141/8/1 173/8/1
f 175/5/1 142/5/1 174/5/1
f 176/6/2 177/6/2 202/6/2
f 177/5/2 178/5/2 202/5/2
f 202/5/2 178/5/2 203/5/2
f 178/2/2 179/2/2 204/2/2
f 203/5/2 178/5/2 204/5/2
f 204/2/2 179/2/2 205/2/2
f 179/6/2 180/6/2 206/6/2
f 205/2/2 179/2/2 206/2/2
f 180/1/2 181/1/2 207/1/2
f 206/6/2 180/6/2 207/6/2
f 207/1/2 181/1/2 208/1/2
f 181/6/2 182/6/2 209/6/2
f 208/1/2 181/1/2 209/1/2
f 182/1/2 183/1/2 210/1/2
f 209/6/2 182/6/2 210/6/2
f 183/6/2 184/6/2 211/6/2
f 210/1/2 183/1/2 211/1/2
f 184/1/2 185/1/2 212/1/2
f 211/6/2 184/6/2 212/6/2
f 185/7/2 186/7/2 213/7/2
f 212/1/2 185/1/2 213/1/2
f 186/1/2 187/1/2 214/1/2
f 213/7/2 186/7/2 214/7/2
f 214/1/2 187/1/2 215/1/2
f 187/2/2 188/2/2 216/2/2
f 215/1/2 187/1/2 216/1/2
f 188/1/2 189/1/2 217/1/2
f 216/2/2 188/2/2 217/2/2
f 189/2/2 190/2/2 218/2/2
f 190/1/2 191/1/2 218/1/2
f 218/1/2 191/1/2 219/1/2
f 191/2/2 192/2/2 220/2/2
f 219/1/2 191/1/2 220/1/2
f 192/6/2 193/6/2 221/6/2
f 220/2/2 192/2/2 221/2/2
f 193/1/2 194/1/2 222/1/2
f 221/6/2 193/6/2 222/6/2
f 222/1/2 194/1/2 223/1/2
f 194/2/2 195/2/2 224/2/2
f 223/1/2 194/1/2 224/1/2
f 224/2/2 195/2/2 225/2/2
f 195/4/2 196/4/2 226/4/2
f 225/2/2 195/2/2 226/2/2
f 196/2/2 197/2/2 227/2/2
f 226/4/2 196/4/2 227/4/2
f 197/7/2 198/7/2 228/7/2
f 227/2/2 197/2/2 228/2/2
f 198/2/2 199/2/2 229/2/2
f 199/7/2 200/7/2 230/7/2
f 229/2/2 199/2/2 230/2/2
f 200/2/2 201/2/2 231/2/2
f 230/7/2 200/7/2 231/7/2
f 231/2/2 201/2/2 232/2/2
f 232/2/2 201/2/2 233/2/2
f 176/6/2 202/6/2 234/6/2
f 202/7/2 203/7/2 235/7/2
f 234/6/2 202/6/2 235/6/2
f 235/7/2 203/7/2 236/7/2
f 203/2/2 204/2/2 237/2/2
f 236/7/2 203/7/2 237/7/2
f 204/4/2 205/4/2 238/4/2
f 237/2/2 204/2/2 238/2/2
f 205/5/2 206/5/2 239/5/2
f 238/4/2 205/4/2 239/4/2
f 239/5/2 206/5/2 240/5/2
f 206/7/2 207/7/2 241/7/2
f 240/5/2 206/5/2 241/5/2
f 208/7/2 209/7/2 242/7/2
f 209/1/2 210/1/2 242/1/2
f 210/1/2 211/1/2 242/1/2
f 211/2/2 212/2/2 243/2/2
f 242/1/2 211/1/2 243/1/2
f 212/1/2 213/1/2 244/1/2
f 243/2/2 212/2/2 244/2/2
f 213/1/2 214/1/2 244/1/2
f 214/2/2 215/2/2 245/2/2
f 244/1/2 214/1/2 245/1/2
f 215/1/2 216/1/2 246/1/2
f 245/2/2 215/2/2 246/2/2
f 216/1/2 217/1/2 246/1/2
f 217/1/2 189/1/2 247/1/2
f 246/1/2 217/1/2 247/1/2
f 218/2/2 219/2/2 248/2/2
f 247/1/2 189/1/2 248/1/2
f 189/2/2 218/2/2 248/2/2
f 248/2/2 219/2/2 249/2/2
f 219/1/2 220/1/2 250/1/2
f 249/2/2 219/2/2 250/2/2
f 220/6/2 221/6/2 251/6/2
f 250/1/2 220/1/2 251/1/2
f 251/6/2 221/6/2 252/6/2
f 221/1/2 222/1/2 253/1/2
f 252/6/2 221/6/2 253/6/2
f 222/7/2 223/7/2 254/7/2
f 253/1/2 222/1/2 254/1/2
f 254/7/2 223/7/2 255/7/2
f 224/2/2 225/2/2 256/2/2
f 255/7/2 223/7/2 256/7/2
f 223/2/2 224/2/2 256/2/2
f 256/2/2 225/2/2 257/2/2
f 225/4/2 226/4/2 258/4/2
f 257/2/2 225/2/2 258/2/2
f 226/2/2 227/2/2 259/2/2
f 258/4/2 226/4/2 259/4/2
f 227/6/2 228/6/2 260/6/2
f 259/2/2 227/2/2 260/2/2
f 228/7/2 198/7/2 261/7/2
f 260/6/2 228/6/2 261/6/2
f 198/2/2 229/2/2 262/2/2
f 261/7/2 198/7/2 262/7/2
f 229/4/2 230/4/2 263/4/2
f 262/2/2 229/2/2 263/2/2
f 231/4/2 232/4/2 263/4/2
f 230/4/2 231/4/2 263/4/2
f 263/4/2 232/4/2 264/4/2
f 232/7/2 233/7/2 265/7/2
f 264/4/2 232/4/2 265/4/2
f 236/5/2 237/5/2 266/5/2
f 235/7/2 236/7/2 266/7/2
f 237/7/2 238/7/2 267/7/2
f 266/5/2 237/5/2 267/5/2
f 238/5/2 239/5/2 268/5/2
f 267/7/2 238/7/2 268/7/2
f 239/5/2 240/5/2 268/5/2
f 268/5/2 240/5/2 269/5/2
f 240/4/2 241/4/2 270/4/2
f 269/5/2 240/5/2 270/5/2
f 241/7/2 207/7/2 271/7/2
f 270/4/2 241/4/2 271/4/2
f 207/5/2 208/5/2 272/5/2
f 271/7/2 207/7/2 272/7/2
f 208/7/2 242/7/2 273/7/2
f 272/5/2 208/5/2 273/5/2
f 242/7/2 243/7/2 273/7/2
f 273/7/2 243/7/2 274/7/2
f 243/5/2 244/5/2 275/5/2
f 274/7/2 243/7/2 275/7/2
f 244/2/2 245/2/2 276/2/2
f 275/5/2 244/5/2 276/5/2
f 276/2/2 245/2/2 277/2/2
f 245/1/2 246/1/2 278/1/2
f 277/2/2 245/2/2 278/2/2
f 246/1/2 247/1/2 278/1/2
f 278/1/2 247/1/2 279/1/2
f 279/1/2 247/1/2 280/1/2
f 247/2/2 248/2/2 281/2/2
f 280/1/2 247/1/2 281/1/2
f 248/4/2 249/4/2 282/4/2
f 281/2/2 248/2/2 282/2/2
f 249/2/2 250/2/2 283/2/2
f 282/4/2 249/4/2 283/4/2
f 251/2/2 252/2/2 283/2/2
f 250/2/2 251/2/2 283/2/2
f 252/1/2 253/1/2 284/1/2
f 283/2/2 252/2/2 284/2/2
f 254/5/2 255/5/2 285/5/2
f 284/1/2 253/1/2 285/1/2
f 253/5/2 254/5/2 285/5/2
f 256/2/2 257/2/2 286/2/2
f 285/5/2 255/5/2 286/5/2
f 255/2/2 256/2/2 286/2/2
f 257/7/2 258/7/2 287/7/2
f 286/2/2 257/2/2 287/2/2
f 261/2/2 262/2/2 288/2/2
f 287/7/2 258/7/2 288/7/2
f 260/2/2 261/2/2 288/2/2
f 259/2/2 260/2/2 288/2/2
f 258/2/2 259/2/2 288/2/2
f 288/2/2 262/2/2 289/2/2
f 262/4/2 263/4/2 290/4/2
f 289/2/2 262/2/2 290/2/2
f 263/5/2 264/5/2 291/5/2
f 290/4/2 263/4/2 291/4/2
f 264/2/2 265/2/2 292/2/2
f 291/5/2 264/5/2 292/5/2
f 292/2/2 265/2/2 293/2/2
f 234/2/2 235/2/2 294/2/2
f 235/7/2 266/7/2 295/7/2
f 294/2/2 235/2/2 295/2/2
f 266/2/2 267/2/2 296/2/2
f 295/7/2 266/7/2 296/7/2
f 267/5/2 268/5/2 297/5/2
f 296/2/2 267/2/2 297/2/2
f 270/5/2 271/5/2 298/5/2
f 269/5/2 270/5/2 298/5/2
f 268/7/2 269/7/2 298/7/2
f 271/5/2 272/5/2 298/5/2
f 273/5/2 274/5/2 298/5/2
f 272/5/2 273/5/2 298/5/2
f 298/5/2 274/5/2 299/5/2
f 299/5/2 274/5/2 300/5/2
f 300/5/2 274/5/2 301/5/2
f 274/2/2 275/2/2 302/2/2
f 301/5/2 274/5/2 302/5/2
f 276/7/2 277/7/2 303/7/2
f 302/2/2 275/2/2 303/2/2
f 275/7/2 276/7/2 303/7/2
f 303/7/2 277/7/2 304/7/2
f 304/7/2 277/7/2 305/7/2
f 277/2/2 278/2/2 306/2/2
f 305/7/2 277/7/2 306/7/2
f 278/2/2 279/2/2 306/2/2
f 279/6/2 280/6/2 307/6/2
f 306/2/2 279/2/2 307/2/2
f 280/2/2 281/2/2 308/2/2
f 307/6/2 280/6/2 308/6/2
f 281/2/2 282/2/2 308/2/2
f 308/2/2 282/2/2 309/2/2
f 282/7/2 283/7/2 310/7/2
f 309/2/2 282/2/2 310/2/2
f 283/7/2 284/7/2 310/7/2
f 310/7/2 284/7/2 311/7/2
f 284/1/2 285/1/2 312/1/2
f 311/7/2 284/7/2 312/7/2
f 285/7/2 286/7/2 313/7/2
f 312/1/2 285/1/2 313/1/2
f 313/7/2 286/7/2 314/7/2
f 286/2/2 287/2/2 315/2/2
f 314/7/2 286/7/2 315/7/2
f 287/2/2 288/2/2 315/2/2
f 315/2/2 288/2/2 316/2/2
f 316/2/2 288/2/2 317/2/2
f 288/6/2 289/6/2 318/6/2
f 317/2/2 288/2/2 318/2/2
f 318/6/2 289/6/2 319/6/2
f 289/7/2 290/7/2 320/7/2
f 319/6/2 289/6/2 320/6/2
f 291/2/2 292/2/2 321/2/2
f 320/7/2 290/7/2 321/7/2
f 290/2/2 291/2/2 321/2/2
f 321/2/2 292/2/2 322/2/2
f 292/7/2 293/7/2 323/7/2
f 322/2/2 292/2/2 323/2/2
f 265/7/2 233/7/2 324/7/2
f 293/2/2 265/2/2 324/2/2
f 324/7/2 233/7/2 325/7/2
f 294/5/2 295/5/2 326/5/2
f 295/7/2 296/7/2 327/7/2
f 326/5/2 295/5/2 327/5/2
f 296/5/2 297/5/2 328/5/2
f 327/7/2 296/7/2 328/7/2
f 297/5/2 268/5/2 329/5/2
f 328/5/2 297/5/2 329/5/2
f 268/7/2 298/7/2 329/7/2
f 298/7/2 299/7/2 329/7/2
f 299/8/2 300/8/2 330/8/2
f 329/7/2 299/7/2 330/7/2
f 300/5/2 301/5/2 331/5/2
f 330/8/2 300/8/2 331/8/2
f 301/8/2 302/8/2 332/8/2
f 331/5/2 301/5/2 332/5/2
f 302/8/2 303/8/2 332/8/2
f 303/2/2 304/2/2 333/2/2
f 332/8/2 303/8/2 333/8/2
f 304/8/2 305/8/2 334/8/2
f 333/2/2 304/2/2 334/2/2
f 306/2/2 307/2/2 335/2/2
f 334/8/2 305/8/2 335/8/2
f 307/2/2 308/2/2 335/2/2
f 305/2/2 306/2/2 335/2/2
f 308/4/2 309/4/2 336/4/2
f 335/2/2 308/2/2 336/2/2
f 310/2/2 311/2/2 337/2/2
f 336/4/2 309/4/2 337/4/2
f 309/2/2 310/2/2 337/2/2
f 312/7/2 313/7/2 338/7/2
f 337/2/2 311/2/2 338/2/2
f 311/7/2 312/7/2 338/7/2
f 313/8/2 314/8/2 339/8/2
f 338/7/2 313/7/2 339/7/2
f 314/6/2 315/6/2 340/6/2
f 339/8/2 314/8/2 340/8/2
f 315/8/2 316/8/2 341/8/2
f 340/6/2 315/6/2 341/6/2
f 316/6/2 317/6/2 342/6/2
f 341/8/2 316/8/2 342/8/2
f 318/5/2 319/5/2 343/5/2
f 342/6/2 317/6/2 343/6/2
f 317/5/2 318/5/2 343/5/2
f 319/6/2 320/6/2 344/6/2
f 343/5/2 319/5/2 344/5/2
f 320/8/2 321/8/2 345/8/2
f 344/6/2 320/6/2 345/6/2
f 321/2/2 322/2/2 346/2/2
f 345/8/2 321/8/2 346/8/2
f 322/6/2 323/6/2 347/6/2
f 346/2/2 322/2/2 347/2/2
f 323/7/2 293/7/2 348/7/2
f 347/6/2 323/6/2 348/6/2
f 293/2/2 324/2/2 349/2/2
f 348/7/2 293/7/2 349/7/2
f 324/2/2 325/2/2 349/2/2
f 349/2/2 325/2/2 350/2/2
f 354/2/3 353/2/3 352/2/3
f 355/2/3 353/2/3 354/2/3
f 356/2/3 353/2/3 355/2/3
f 357/6/3 352/6/3 351/6/3
f 358/2/3 354/2/3 352/2/3
f 358/6/3 352/6/3 357/6/3
f 359/6/3 355/6/3 354/6/3
f 359/2/3 354/2/3 358/2/3
f 360/8/3 356/8/3 355/8/3
f 360/6/3 355/6/3 359/6/3
f 361/7/3 358/7/3 357/7/3
f 362/2/3 359/2/3 358/2/3
f 362/7/3 358/7/3 361/7/3
f 362/2/3 360/2/3 359/2/3
f 363/2/3 360/2/3 362/2/3
f 364/8/3 356/8/3 360/8/3
f 364/2/3 360/2/3 363/2/3
f 365/8/3 356/8/3 364/8/3
f 366/7/3 361/7/3 357/7/3
f 367/6/3 362/6/3 361/6/3
f 367/7/3 361/7/3 366/7/3
f 368/2/3 363/2/3 362/2/3
f 368/6/3 362/6/3 367/6/3
f 369/6/3 364/6/3 363/6/3
f 369/2/3 363/2/3 368/2/3
f 370/2/3 365/2/3 364/2/3
f 370/6/3 364/6/3 369/6/3
f 371/2/3 365/2/3 370/2/3
f 372/6/3 367/6/3 366/6/3
f 372/6/3 368/6/3 367/6/3
f 372/6/3 369/6/3 368/6/3
f 373/6/3 369/6/3 372/6/3
f 374/8/3 370/8/3 369/8/3
f 374/6/3 369/6/3 373/6/3
f 375/7/3 371/7/3 370/7/3
f 375/8/3 370/8/3 374/8/3
f 376/7/3 371/7/3 375/7/3
f 377/7/3 373/7/3 372/7/3
f 378/6/3 374/6/3 373/6/3
f 378/7/3 373/7/3 377/7/3
f 379/6/3 374/6/3 378/6/3
f 380/7/3 375/7/3 374/7/3
f 380/6/3 374/6/3 379/6/3
f 381/7/3 379/7/3 378/7/3
f 381/6/3 378/6/3 377/6/3
f 382/8/3 380/8/3 379/8/3
f 382/7/3 379/7/3 381/7/3
f 383/7/3 375/7/3 380/7/3
f 383/8/3 380/8/3 382/8/3
f 384/8/3 376/8/3 375/8/3
f 384/7/3 375/7/3 383/7/3
f 385/6/3 382/6/3 381/6/3
f 385/6/3 381/6/3 377/6/3
f 386/6/3 382/6/3 385/6/3
f 387/8/3 383/8/3 382/8/3
f 387/6/3 382/6/3 386/6/3
f 388/6/3 384/6/3 383/6/3
f 388/8/3 383/8/3 387/8/3
f 389/8/3 376/8/3 384/8/3
f 389/6/3 384/6/3 388/6/3
f 390/8/3 376/8/3 389/8/3
f 391/7/3 386/7/3 385/7/3
f 392/6/3 387/6/3 386/6/3
f 392/7/3 386/7/3 391/7/3
f 393/7/3 388/7/3 387/7/3
f 393/6/3 387/6/3 392/6/3
f 394/6/3 389/6/3 388/6/3
f 394/7/3 388/7/3 393/7/3
f 395/7/3 390/7/3 389/7/3
f 395/6/3 389/6/3 394/6/3
f 396/7/3 390/7/3 395/7/3
f 397/6/3 392/6/3 391/6/3
f 397/6/3 393/6/3 392/6/3
f 397/8/3 394/8/3 393/8/3
f 398/2/3 395/2/3 394/2/3
f 398/8/3 394/8/3 397/8/3
f 399/8/3 396/8/3 395/8/3
f 399/2/3 395/2/3 398/2/3
f 400/8/3 396/8/3 399/8/3
f 401/6/3 397/6/3 391/6/3
f 402/6/3 397/6/3 401/6/3
f 403/7/3 398/7/3 397/7/3
f 403/6/3 397/6/3 402/6/3
f 404/2/3 399/2/3 398/2/3
f 404/7/3 398/7/3 403/7/3
f 404/2/3 400/2/3 399/2/3
f 405/2/3 400/2/3 404/2/3
f 406/7/3 402/7/3 401/7/3
f 407/6/3 403/6/3 402/6/3
f 407/7/3 402/7/3 406/7/3
f 408/8/3 404/8/3 403/8/3
f 408/6/3 403/6/3 407/6/3
f 409/7/3 405/7/3 404/7/3
f 409/8/3 404/8/3 408/8/3
f 410/6/3 407/6/3 406/6/3
f 410/7/3 405/7/3 409/7/3
f 410/6/3 409/6/3 408/6/3
f 410/6/3 408/6/3 407/6/3
f 411/2/3 400/2/3 405/2/3
f 411/7/3 405/7/3 410/7/3
f 412/2/3 400/2/3 411/2/3
f 413/6/3 410/6/3 406/6/3
f 414/6/3 410/6/3 413/6/3
f 415/8/3 411/8/3 410/8/3
f 415/6/3 410/6/3 414/6/3
f 416/7/3 412/7/3 411/7/3
f 416/8/3 411/8/3 415/8/3
f 417/7/3 412/7/3 416/7/3
f 418/7/3 414/7/3 413/7/3
f 419/8/3 415/8/3 414/8/3
f 419/7/3 414/7/3 418/7/3
f 420/7/3 416/7/3 415/7/3
f 420/8/3 415/8/3 419/8/3
f 421/2/3 417/2/3 416/2/3
f 421/7/3 416/7/3 420/7/3
f 422/2/3 417/2/3 421/2/3
f 423/6/3 419/6/3 418/6/3
f 423/7/3 420/7/3 419/7/3
f 423/7/3 421/7/3 420/7/3
f 424/7/3 421/7/3 423/7/3
f 425/8/3 422/8/3 421/8/3
f 425/7/3 421/7/3 424/7/3
f 426/8/3 422/8/3 425/8/3
f 427/6/3 424/6/3 423/6/3
f 427/6/3 423/6/3 418/6/3
f 428/6/3 424/6/3 427/6/3
f 429/2/3 426/2/3 425/2/3
f 429/6/3 424/6/3 428/6/3
f 429/2/3 425/2/3 424/2/3
f 430/2/3 426/2/3 429/2/3
f 431/7/3 428/7/3 427/7/3
f 432/6/3 429/6/3 428/6/3
f 432/7/3 428/7/3 431/7/3
f 433/8/3 430/8/3 429/8/3
f 433/6/3 429/6/3 432/6/3
f 434/8/3 430/8/3 433/8/3
f 435/6/3 432/6/3 431/6/3
f 435/6/3 433/6/3 432/6/3
f 436/7/3 434/7/3 433/7/3
f 436/6/3 433/6/3 435/6/3
f 437/7/3 434/7/3 436/7/3
f 438/6/3 435/6/3 431/6/3
f 438/7/3 436/7/3 435/7/3
f 439/8/3 437/8/3 436/8/3
f 439/7/3 436/7/3 438/7/3
f 440/8/3 437/8/3 439/8/3
f 441/6/3 438/6/3 431/6/3
f 442/6/3 438/6/3 441/6/3
f 443/8/3 439/8/3 438/8/3
f 443/6/3 438/6/3 442/6/3
f 444/7/3 440/7/3 439/7/3
f 444/8/3 439/8/3 443/8/3
f 445/7/3 440/7/3 444/7/3
f 446/7/3 440/7/3 445/7/3
f 447/7/3 442/7/3 441/7/3
f 448/6/3 443/6/3 442/6/3
f 448/7/3 442/7/3 447/7/3
f 449/7/3 445/7/3 444/7/3
f 449/8/3 446/8/3 445/8/3
f 450/8/3 446/8/3 449/8/3
f 451/6/3 443/6/3 448/6/3
f 451/6/3 448/6/3 447/6/3
f 452/2/3 444/2/3 443/2/3
f 452/6/3 443/6/3 451/6/3
f 453/7/3 450/7/3 449/7/3
f 453/2/3 444/2/3 452/2/3
f 453/7/3 449/7/3 444/7/3
f 454/7/3 450/7/3 453/7/3
f 455/6/3 451/6/3 447/6/3
f 456/2/3 452/2/3 451/2/3
f 456/6/3 451/6/3 455/6/3
f 457/8/3 453/8/3 452/8/3
f 457/2/3 452/2/3 456/2/3
f 457/8/3 454/8/3 453/8/3
f 458/8/3 454/8/3 457/8/3
f 459/7/3 456/7/3 455/7/3
f 459/7/3 457/7/3 456/7/3
f 460/6/3 458/6/3 457/6/3
f 460/7/3 457/7/3 459/7/3
f 461/8/3 454/8/3 458/8/3
f 461/6/3 458/6/3 460/6/3
f 462/8/3 454/8/3 461/8/3
f 463/8/3 454/8/3 462/8/3
f 464/6/3 460/6/3 459/6/3
f 465/8/3 461/8/3 460/8/3
f 465/6/3 460/6/3 464/6/3
f 466/6/3 462/6/3 461/6/3
f 466/8/3 461/8/3 465/8/3
f 467/7/3 463/7/3 462/7/3
f 467/6/3 462/6/3 466/6/3
f 468/7/3 463/7/3 467/7/3
f 469/6/3 464/6/3 459/6/3
f 470/2/3 465/2/3 464/2/3
f 470/6/3 464/6/3 469/6/3
f 470/2/3 466/2/3 465/2/3
f 471/2/3 466/2/3 470/2/3
f 472/7/3 467/7/3 466/7/3
f 472/2/3 466/2/3 471/2/3
f 473/8/3 468/8/3 467/8/3
f 473/7/3 467/7/3 472/7/3
f 474/7/3 470/7/3 469/7/3
f 475/6/3 471/6/3 470/6/3
f 475/7/3 470/7/3 474/7/3
f 476/8/3 472/8/3 471/8/3
f 476/6/3 471/6/3 475/6/3
f 477/2/3 473/2/3 472/2/3
f 477/8/3 472/8/3 476/8/3
f 478/8/3 468/8/3 473/8/3
f 478/2/3 473/2/3 477/2/3
f 479/8/3 468/8/3 478/8/3
f 480/6/3 475/6/3 474/6/3
f 480/2/3 476/2/3 475/2/3
f 481/7/3 477/7/3 476/7/3
f 481/2/3 476/2/3 480/2/3
f 482/2/3 479/2/3 478/2/3
f 482/7/3 477/7/3 481/7/3
f 482/2/3 478/2/3 477/2/3
f 483/2/3 479/2/3 482/2/3
f 484/2/3 479/2/3 483/2/3
f 485/6/3 480/6/3 474/6/3
f 485/6/3 481/6/3 480/6/3
f 486/6/3 481/6/3 485/6/3
f 487/7/3 482/7/3 481/7/3
f 487/6/3 483/6/3 482/6/3
f 488/8/3 484/8/3 483/8/3
f 488/6/3 483/6/3 487/6/3
f 489/8/3 484/8/3 488/8/3
f 490/7/3 486/7/3 485/7/3
f 491/6/3 481/6/3 486/6/3
f 491/7/3 486/7/3 490/7/3
f 492/7/3 487/7/3 481/7/3
f 492/6/3 481/6/3 491/6/3
f 493/8/3 488/8/3 487/8/3
f 493/7/3 487/7/3 492/7/3
f 494/7/3 489/7/3 488/7/3
f 494/8/3 488/8/3 493/8/3
f 495/7/3 489/7/3 494/7/3
f 496/6/3 491/6/3 490/6/3
f 496/6/3 492/6/3 491/6/3
f 497/2/3 493/2/3 492/2/3
f 497/6/3 492/6/3 496/6/3
f 498/7/3 494/7/3 493/7/3
f 498/2/3 493/2/3 497/2/3
f 499/8/3 495/8/3 494/8/3
f 499/7/3 494/7/3 498/7/3
f 500/8/3 495/8/3 499/8/3
f 501/6/3 496/6/3 490/6/3
f 502/7/3 497/7/3 496/7/3
f 502/6/3 496/6/3 501/6/3
f 503/2/3 498/2/3 497/2/3
f 503/7/3 497/7/3 502/7/3
f 503/2/3 499/2/3 498/2/3
f 503/2/3 500/2/3 499/2/3
f 504/2/3 500/2/3 503/2/3
f 505/2/3 500/2/3 504/2/3
f 506/7/3 502/7/3 501/7/3
f 507/6/3 503/6/3 502/6/3
f 507/7/3 502/7/3 506/7/3
f 507/6/3 504/6/3 503/6/3
f 508/6/3 504/6/3 507/6/3
f 509/8/3 505/8/3 504/8/3
f 509/6/3 504/6/3 508/6/3
f 510/8/3 505/8/3 509/8/3
f 511/8/3 505/8/3 510/8/3
f 512/6/3 508/6/3 507/6/3
f 512/6/3 507/6/3 506/6/3
f 513/6/3 508/6/3 512/6/3
f 514/8/3 509/8/3 508/8/3
f 514/6/3 508/6/3 513/6/3
f 515/6/3 510/6/3 509/6/3
f 515/8/3 509/8/3 514/8/3
f 516/7/3 511/7/3 510/7/3
f 516/6/3 510/6/3 515/6/3
f 517/7/3 511/7/3 516/7/3
f 518/7/3 513/7/3 512/7/3
f 518/6/3 514/6/3 513/6/3
f 519/2/3 515/2/3 514/2/3
f 519/6/3 514/6/3 518/6/3
f 520/6/3 516/6/3 515/6/3
f 520/2/3 515/2/3 519/2/3
f 521/8/3 517/8/3 516/8/3
f 521/6/3 516/6/3 520/6/3
f 522/8/3 517/8/3 521/8/3
f 523/7/3 518/7/3 512/7/3
f 523/7/3 519/7/3 518/7/3
f 524/8/3 520/8/3 519/8/3
f 524/7/3 519/7/3 523/7/3
f 524/8/3 521/8/3 520/8/3
f 525/2/3 522/2/3 521/2/3
f 525/8/3 521/8/3 524/8/3
f 526/2/3 525/2/3 524/2/3
f 526/2/3 522/2/3 525/2/3
f 527/2/3 522/2/3 526/2/3
f 528/6/3 524/6/3 523/6/3
f 529/2/3 526/2/3 524/2/3
f 529/6/3 524/6/3 528/6/3
f 530/5/3 527/5/3 526/5/3
f 530/2/3 526/2/3 529/2/3
f 531/5/3 527/5/3 530/5/3
f 532/6/4 533/6/4 536/6/4
f 533/2/4 534/2/4 537/2/4
f 536/6/4 533/6/4 537/6/4
f 534/5/4 535/5/4 538/5/4
f 537/2/4 534/2/4 538/2/4
f 538/5/4 535/5/4 539/5/4
f 536/5/4 537/5/4 540/5/4
f 537/2/4 538/2/4 541/2/4
f 540/5/4 537/5/4 541/5/4
f 538/8/4 539/8/4 542/8/4
f 541/2/4 538/2/4 542/2/4
f 540/7/4 541/7/4 543/7/4
f 541/7/4 542/7/4 543/7/4
f 543/7/4 542/7/4 544/7/4
f 544/7/4 542/7/4 545/7/4
f 542/8/4 539/8/4 546/8/4
f 545/7/4 542/7/4 546/7/4
f 546/8/4 539/8/4 547/8/4
f 544/7/4 545/7/4 548/7/4
f 543/3/4 544/3/4 548/3/4
f 546/3/4 547/3/4 549/3/4
f 548/7/4 545/7/4 549/7/4
f 545/3/4 546/3/4 549/3/4
f 549/3/4 547/3/4 550/3/4
f 543/3/4 548/3/4 551/3/4
f 548/2/4 549/2/4 552/2/4
f 551/3/4 548/3/4 552/3/4
f 549/7/4 550/7/4 553/7/4
f 552/2/4 549/2/4 553/2/4
f 553/7/4 550/7/4 554/7/4
f 554/7/4 550/7/4 555/7/4
f 551/7/4 552/7/4 556/7/4
f 552/3/4 553/3/4 557/3/4
f 556/7/4 552/7/4 557/7/4
f 553/3/4 554/3/4 557/3/4
f 557/3/4 554/3/4 558/3/4
f 554/8/4 555/8/4 559/8/4
f 558/3/4 554/3/4 559/3/4
f 559/8/4 555/8/4 560/8/4
f 560/8/4 555/8/4 561/8/4
f 556/3/4 557/3/4 562/3/4
f 557/2/4 558/2/4 563/2/4
f 562/3/4 557/3/4 563/3/4
f 558/7/4 559/7/4 564/7/4
f 563/2/4 558/2/4 564/2/4
f 559/8/4 560/8/4 565/8/4
f 564/7/4 559/7/4 565/7/4
f 560/2/4 561/2/4 566/2/4
f 565/8/4 560/8/4 566/8/4
f 566/2/4 561/2/4 567/2/4
f 562/2/4 563/2/4 568/2/4
f 563/3/4 564/3/4 569/3/4
f 568/2/4 563/2/4 569/2/4
f 565/5/4 566/5/4 570/5/4
f 566/8/4 567/8/4 570/8/4
f 570/8/4 567/8/4 571/8/4
f 568/3/4 569/3/4 572/3/4
f 564/7/4 565/7/4 573/7/4
f 572/3/4 569/3/4 573/3/4
f 569/3/4 564/3/4 573/3/4
f 565/5/4 570/5/4 574/5/4
f 573/7/4 565/7/4 574/7/4
f 570/7/4 571/7/4 575/7/4
f 574/5/4 570/5/4 575/5/4
f 575/7/4 571/7/4 576/7/4
f 572/2/4 573/2/4 577/2/4
f 573/7/4 574/7/4 578/7/4
f 577/2/4 573/2/4 578/2/4
f 574/2/4 575/2/4 579/2/4
f 578/7/4 574/7/4 579/7/4
f 575/8/4 576/8/4 580/8/4
f 579/2/4 575/2/4 580/2/4
f 580/8/4 576/8/4 581/8/4
f 577/7/4 578/7/4 582/7/4
f 582/7/4 578/7/4 583/7/4
f 578/5/4 579/5/4 584/5/4
f 583/7/4 578/7/4 584/7/4
f 579/2/4 580/2/4 585/2/4
f 584/5/4 579/5/4 585/5/4
f 580/2/4 581/2/4 585/2/4
f 585/2/4 581/2/4 586/2/4
f 586/2/4 581/2/4 587/2/4
f 583/2/4 584/2/4 588/2/4
f 584/5/4 585/5/4 588/5/4
f 585/7/4 586/7/4 589/7/4
f 588/5/4 585/5/4 589/5/4
f 586/8/4 587/8/4 590/8/4
f 589/7/4 586/7/4 590/7/4
f 590/8/4 587/8/4 591/8/4
f 582/5/4 583/5/4 592/5/4
f 588/2/4 589/2/4 593/2/4
f 592/5/4 583/5/4 593/5/4
f 583/2/4 588/2/4 593/2/4
f 589/2/4 590/2/4 593/2/4
f 593/2/4 590/2/4 594/2/4
f 594/2/4 590/2/4 595/2/4
f 590/7/4 591/7/4 596/7/4
f 595/2/4 590/2/4 596/2/4
f 596/7/4 591/7/4 597/7/4
f 594/7/4 595/7/4 598/7/4
f 593/5/4 594/5/4 598/5/4
f 596/2/4 597/2/4 599/2/4
f 598/7/4 595/7/4 599/7/4
f 595/2/4 596/2/4 599/2/4
f 599/2/4 597/2/4 600/2/4
f 600/2/4 597/2/4 601/2/4
f 592/7/4 593/7/4 602/7/4
f 593/5/4 598/5/4 603/5/4
f 602/7/4 593/7/4 603/7/4
f 598/5/4 599/5/4 603/5/4
f 600/8/4 601/8/4 604/8/4
f 599/7/4 600/7/4 604/7/4
f 604/8/4 601/8/4 605/8/4
f 602/3/4 603/3/4 606/3/4
f 603/5/4 599/5/4 607/5/4
f 606/3/4 603/3/4 607/3/4
f 607/5/4 599/5/4 608/5/4
f 599/7/4 604/7/4 609/7/4
f 608/5/4 599/5/4 609/5/4
f 604/2/4 605/2/4 610/2/4
f 609/7/4 604/7/4 610/7/4
f 610/2/4 605/2/4 611/2/4
f 606/7/4 607/7/4 612/7/4
f 607/5/4 608/5/4 613/5/4
f 612/7/4 607/7/4 613/7/4
f 608/2/4 609/2/4 614/2/4
f 609/5/4 610/5/4 614/5/4
f 610/8/4 611/8/4 615/8/4
f 614/5/4 610/5/4 615/5/4
f 615/8/4 611/8/4 616/8/4
f 613/5/4 608/5/4 617/5/4
f 612/2/4 613/2/4 617/2/4
f 608/2/4 614/2/4 618/2/4
f 617/5/4 608/5/4 618/5/4
f 614/3/4 615/3/4 619/3/4
f 618/2/4 614/2/4 619/2/4
f 615/7/4 616/7/4 620/7/4
f 619/3/4 615/3/4 620/3/4
f 620/7/4 616/7/4 621/7/4
f 612/2/4 617/2/4 622/2/4
f 617/7/4 618/7/4 622/7/4
f 618/2/4 619/2/4 623/2/4
f 622/7/4 618/7/4 623/7/4
f 619/7/4 620/7/4 624/7/4
f 623/2/4 619/2/4 624/2/4
f 620/8/4 621/8/4 625/8/4
f 624/7/4 620/7/4 625/7/4
f 625/8/4 621/8/4 626/8/4
f 623/7/4 624/7/4 627/7/4
f 624/3/4 625/3/4 627/3/4
f 625/7/4 626/7/4 628/7/4
f 627/3/4 625/3/4 628/3/4
f 628/7/4 626/7/4 629/7/4
f 612/2/4 622/2/4 630/2/4
f 622/5/4 623/5/4 631/5/4
f 630/2/4 622/2/4 631/2/4
f 623/7/4 627/7/4 632/7/4
f 631/5/4 623/5/4 632/5/4
f 630/5/4 631/5/4 633/5/4
f 631/2/4 632/2/4 633/2/4
f 632/7/4 627/7/4 634/7/4
f 633/2/4 632/2/4 634/2/4
f 627/2/4 628/2/4 635/2/4
f 634/7/4 627/7/4 635/7/4
f 628/8/4 629/8/4 636/8/4
f 635/2/4 628/2/4 636/2/4
f 630/5/4 633/5/4 637/5/4
f 633/7/4 634/7/4 638/7/4
f 637/5/4 633/5/4 638/5/4
f 637/3/4 638/3/4 639/3/4
f 638/7/4 634/7/4 640/7/4
f 639/3/4 638/3/4 640/3/4
f 634/2/4 635/2/4 641/2/4
f 635/7/4 636/7/4 641/7/4
f 636/8/4 629/8/4 642/8/4
f 641/7/4 636/7/4 642/7/4
f 642/8/4 629/8/4 643/8/4
f 639/7/4 640/7/4 644/7/4
f 640/7/4 634/7/4 645/7/4
f 644/7/4 640/7/4 645/7/4
f 641/2/4 642/2/4 646/2/4
f 642/7/4 643/7/4 646/7/4
f 646/7/4 643/7/4 647/7/4
f 644/2/4 645/2/4 648/2/4
f 645/7/4 634/7/4 649/7/4
f 648/2/4 645/2/4 649/2/4
f 634/2/4 641/2/4 650/2/4
f 649/7/4 634/7/4 650/7/4
f 641/2/4 646/2/4 650/2/4
f 650/2/4 646/2/4 651/2/4
f 648/7/4 649/7/4 652/7/4
f 649/3/4 650/3/4 653/3/4
f 652/7/4 649/7/4 653/7/4
f 650/7/4 651/7/4 654/7/4
f 653/3/4 650/3/4 654/3/4
f 651/2/4 646/2/4 655/2/4
f 654/7/4 651/7/4 655/7/4
f 646/8/4 647/8/4 656/8/4
f 655/2/4 646/2/4 656/2/4
f 656/8/4 647/8/4 657/8/4
f 654/7/4 655/7/4 658/7/4
f 655/8/4 656/8/4 658/8/4
f 656/2/4 657/2/4 659/2/4
f 658/8/4 656/8/4 659/8/4
f 659/2/4 657/2/4 660/2/4
f 653/5/4 654/5/4 661/5/4
f 652/3/4 653/3/4 661/3/4
f 654/7/4 658/7/4 662/7/4
f 661/5/4 654/5/4 662/5/4
f 658/7/4 659/7/4 662/7/4
f 662/7/4 659/7/4 663/7/4
f 659/8/4 660/8/4 664/8/4
f 663/7/4 659/7/4 664/7/4
f 664/8/4 660/8/4 665/8/4
f 652/3/4 661/3/4 666/3/4
f 661/7/4 662/7/4 667/7/4
f 666/3/4 661/3/4 667/3/4
f 662/2/4 663/2/4 668/2/4
f 667/7/4 662/7/4 668/7/4
f 663/7/4 664/7/4 669/7/4
f 668/2/4 663/2/4 669/2/4
f 664/7/4 665/7/4 669/7/4
f 669/7/4 665/7/4 670/7/4
f 670/7/4 665/7/4 671/7/4
f 666/7/4 667/7/4 672/7/4
f 667/2/4 668/2/4 672/2/4
f 668/3/4 669/3/4 673/3/4
f 672/2/4 668/2/4 673/2/4
f 669/7/4 670/7/4 674/7/4
f 673/3/4 669/3/4 674/3/4
f 670/8/4 671/8/4 675/8/4
f 674/7/4 670/7/4 675/7/4
f 675/8/4 671/8/4 676/8/4
f 673/7/4 674/7/4 677/7/4
f 666/7/4 672/7/4 677/7/4
f 672/7/4 673/7/4 677/7/4
f 674/7/4 675/7/4 677/7/4
f 677/7/4 675/7/4 678/7/4
f 678/7/4 675/7/4 679/7/4
f 675/2/4 676/2/4 680/2/4
f 679/7/4 675/7/4 680/7/4
f 680/2/4 676/2/4 681/2/4
f 677/2/4 678/2/4 682/2/4
f 678/7/4 679/7/4 683/7/4
f 682/2/4 678/2/4 683/2/4
f 679/5/4 680/5/4 684/5/4
f 683/7/4 679/7/4 684/7/4
f 680/7/4 681/7/4 685/7/4
f 684/5/4 680/5/4 685/5/4
f 685/7/4 681/7/4 686/7/4
f 682/7/4 683/7/4 687/7/4
f 683/7/4 684/7/4 687/7/4
f 684/2/4 685/2/4 688/2/4
f 687/7/4 684/7/4 688/7/4
f 685/8/4 686/8/4 689/8/4
f 688/2/4 685/2/4 689/2/4
f 689/8/4 686/8/4 690/8/4
f 687/3/4 688/3/4 691/3/4
f 688/7/4 689/7/4 692/7/4
f 691/3/4 688/3/4 692/3/4
f 689/7/4 690/7/4 692/7/4
f 692/7/4 690/7/4 693/7/4
f 687/3/4 691/3/4 694/3/4
f 694/3/4 691/3/4 695/3/4
f 691/5/4 692/5/4 696/5/4
f 695/3/4 691/3/4 696/3/4
f 692/5/4 693/5/4 696/5/4
f 693/7/4 690/7/4 697/7/4
f 696/5/4 693/5/4 697/5/4
f 697/7/4 690/7/4 698/7/4
f 694/2/4 695/2/4 699/2/4
f 695/7/4 696/7/4 700/7/4
f 699/2/4 695/2/4 700/2/4
f 696/7/4 697/7/4 700/7/4
f 697/2/4 698/2/4 701/2/4
f 700/7/4 697/7/4 701/7/4
f 701/2/4 698/2/4 702/2/4
f 729/6/5 704/6/5 703/6/5
f 730/7/5 705/7/5 704/7/5
f 730/6/5 704/6/5 729/6/5
f 731/6/5 706/6/5 705/6/5
f 731/7/5 705/7/5 730/7/5
f 732/7/5 707/7/5 706/7/5
f 732/6/5 706/6/5 731/6/5
f 733/6/5 708/6/5 707/6/5
f 733/7/5 707/7/5 732/7/5
f 734/7/5 709/7/5 708/7/5
f 734/6/5 708/6/5 733/6/5
f 735/6/5 710/6/5 709/6/5
f 735/7/5 709/7/5 734/7/5
f 736/7/5 711/7/5 710/7/5
f 736/6/5 710/6/5 735/6/5
f 737/6/5 712/6/5 711/6/5
f 737/7/5 711/7/5 736/7/5
f 738/7/5 713/7/5 712/7/5
f 738/6/5 712/6/5 737/6/5
f 739/6/5 714/6/5 713/6/5
f 739/7/5 713/7/5 738/7/5
f 740/7/5 715/7/5 714/7/5
f 740/6/5 714/6/5 739/6/5
f 741/6/5 716/6/5 715/6/5
f 741/7/5 715/7/5 740/7/5
f 742/7/5 717/7/5 716/7/5
f 742/6/5 716/6/5 741/6/5
f 743/6/5 718/6/5 717/6/5
f 743/7/5 717/7/5 742/7/5
f 744/7/5 719/7/5 718/7/5
f 744/6/5 718/6/5 743/6/5
f 745/6/5 720/6/5 719/6/5
f 745/7/5 719/7/5 744/7/5
f 746/7/5 721/7/5 720/7/5
f 746/6/5 720/6/5 745/6/5
f 747/6/5 722/6/5 721/6/5
f 747/7/5 721/7/5 746/7/5
f 748/7/5 723/7/5 722/7/5
f 748/6/5 722/6/5 747/6/5
f 749/6/5 724/6/5 723/6/5
f 749/7/5 723/7/5 748/7/5
f 750/7/5 725/7/5 724/7/5
f 750/6/5 724/6/5 749/6/5
f 751/6/5 726/6/5 725/6/5
f 751/7/5 725/7/5 750/7/5
f 752/7/5 727/7/5 726/7/5
f 752/6/5 726/6/5 751/6/5
f 753/6/5 728/6/5 727/6/5
f 753/7/5 727/7/5 752/7/5
f 754/6/5 728/6/5 753/6/5
f 755/6/5 728/6/5 754/6/5
f 756/6/5 729/6/5 703/6/5
f 757/8/5 752/8/5 751/8/5
f 757/6/5 729/6/5 756/6/5
f 757/8/5 730/8/5 729/8/5
f 757/8/5 731/8/5 730/8/5
f 757/8/5 754/8/5 753/8/5
f 757/8/5 753/8/5 752/8/5
f 757/8/5 751/8/5 750/8/5
f 757/8/5 750/8/5 749/8/5
f 757/8/5 749/8/5 748/8/5
f 757/8/5 748/8/5 747/8/5
f 757/8/5 747/8/5 746/8/5
f 757/8/5 746/8/5 745/8/5
f 757/8/5 745/8/5 744/8/5
f 757/8/5 744/8/5 743/8/5
f 757/8/5 743/8/5 742/8/5
f 757/8/5 742/8/5 741/8/5
f 757/8/5 741/8/5 740/8/5
f 757/8/5 740/8/5 739/8/5
f 757/8/5 739/8/5 738/8/5
f 757/8/5 738/8/5 737/8/5
f 757/8/5 737/8/5 736/8/5
f 757/8/5 736/8/5 735/8/5
f 757/8/5 735/8/5 734/8/5
f 757/8/5 734/8/5 733/8/5
f 757/8/5 733/8/5 732/8/5
f 757/8/5 732/8/5 731/8/5
f 758/5/5 755/5/5 754/5/5
f 758/8/5 754/8/5 757/8/5
f 759/5/5 755/5/5 758/5/5
f 760/5/5 757/5/5 756/5/5
f 761/8/5 758/8/5 757/8/5
f 761/5/5 757/5/5 760/5/5
f 762/7/5 761/7/5 760/7/5
f 763/8/5 758/8/5 761/8/5
f 763/7/5 761/7/5 762/7/5
f 764/2/5 759/2/5 758/2/5
f 764/8/5 758/8/5 763/8/5
f 765/2/5 759/2/5 764/2/5
f 766/8/5 764/8/5 763/8/5
f 766/6/5 765/6/5 764/6/5
f 767/6/5 765/6/5 766/6/5
f 768/8/5 766/8/5 763/8/5
f 768/1/5 767/1/5 766/1/5
f 769/1/5 767/1/5 768/1/5
f 770/8/5 768/8/5 763/8/5
f 770/6/5 769/6/5 768/6/5
f 771/6/5 769/6/5 770/6/5
f 772/6/5 763/6/5 762/6/5
f 773/8/5 770/8/5 763/8/5
f 773/6/5 763/6/5 772/6/5
f 774/1/5 771/1/5 770/1/5
f 774/8/5 770/8/5 773/8/5
f 775/1/5 771/1/5 774/1/5
f 776/7/5 773/7/5 772/7/5
f 777/8/5 774/8/5 773/8/5
f 777/7/5 773/7/5 776/7/5
f 778/6/5 775/6/5 774/6/5
f 778/8/5 774/8/5 777/8/5
f 779/6/5 775/6/5 778/6/5
f 780/8/5 778/8/5 777/8/5
f 780/1/5 779/1/5 778/1/5
f 781/1/5 779/1/5 780/1/5
f 782/6/5 777/6/5 776/6/5
f 783/8/5 780/8/5 777/8/5
f 783/6/5 777/6/5 782/6/5
f 784/7/5 781/7/5 780/7/5
f 784/8/5 780/8/5 783/8/5
f 785/7/5 781/7/5 784/7/5
f 786/5/5 783/5/5 782/5/5
f 787/8/5 784/8/5 783/8/5
f 787/5/5 783/5/5 786/5/5
f 788/1/5 785/1/5 784/1/5
f 788/8/5 784/8/5 787/8/5
f 789/1/5 785/1/5 788/1/5
f 790/8/5 788/8/5 787/8/5
f 790/2/5 789/2/5 788/2/5
f 791/2/5 789/2/5 790/2/5
f 792/8/5 790/8/5 787/8/5
f 792/1/5 791/1/5 790/1/5
f 793/1/5 791/1/5 792/1/5
f 794/8/5 792/8/5 787/8/5
f 794/2/5 793/2/5 792/2/5
f 795/2/5 793/2/5 794/2/5
f 796/6/5 787/6/5 786/6/5
f 797/8/5 794/8/5 787/8/5
f 797/6/5 787/6/5 796/6/5
f 798/1/5 795/1/5 794/1/5
f 798/8/5 794/8/5 797/8/5
f 799/1/5 795/1/5 798/1/5
f 800/5/5 797/5/5 796/5/5
f 801/8/5 798/8/5 797/8/5
f 801/5/5 797/5/5 800/5/5
f 802/2/5 799/2/5 798/2/5
f 802/8/5 798/8/5 801/8/5
f 803/2/5 799/2/5 802/2/5
f 804/8/5 802/8/5 801/8/5
f 804/6/5 803/6/5 802/6/5
f 805/6/5 803/6/5 804/6/5
f 806/6/5 801/6/5 800/6/5
f 807/8/5 804/8/5 801/8/5
f 807/6/5 801/6/5 806/6/5
f 808/5/5 807/5/5 806/5/5
f 809/8/5 804/8/5 807/8/5
f 809/5/5 807/5/5 808/5/5
f 810/1/5 805/1/5 804/1/5
f 810/8/5 804/8/5 809/8/5
f 811/1/5 805/1/5 810/1/5
f 812/6/5 809/6/5 808/6/5
f 813/8/5 810/8/5 809/8/5
f 813/6/5 809/6/5 812/6/5
f 814/2/5 811/2/5 810/2/5
f 814/8/5 810/8/5 813/8/5
f 815/2/5 811/2/5 814/2/5
f 816/2/5 813/2/5 812/2/5
f 817/8/5 814/8/5 813/8/5
f 817/2/5 813/2/5 816/2/5
f 818/4/5 815/4/5 814/4/5
f 818/8/5 814/8/5 817/8/5
f 819/4/5 815/4/5 818/4/5
f 820/8/5 818/8/5 817/8/5
f 820/2/5 819/2/5 818/2/5
f 821/2/5 819/2/5 820/2/5
f 822/6/5 817/6/5 816/6/5
f 823/8/5 820/8/5 817/8/5
f 823/6/5 817/6/5 822/6/5
f 824/7/5 821/7/5 820/7/5
f 824/8/5 820/8/5 823/8/5
f 825/7/5 821/7/5 824/7/5
f 826/7/5 823/7/5 822/7/5
f 827/8/5 824/8/5 823/8/5
f 827/7/5 823/7/5 826/7/5
f 828/2/5 825/2/5 824/2/5
f 828/8/5 824/8/5 827/8/5
f 829/2/5 825/2/5 828/2/5
f 830/8/5 828/8/5 827/8/5
f 830/7/5 829/7/5 828/7/5
f 831/7/5 829/7/5 830/7/5
f 832/6/5 827/6/5 826/6/5
f 832/8/5 830/8/5 827/8/5
f 833/8/5 830/8/5 832/8/5
f 834/8/5 830/8/5 833/8/5
f 835/8/5 830/8/5 834/8/5
f 836/8/5 830/8/5 835/8/5
f 837/8/5 830/8/5 836/8/5
f 838/8/5 830/8/5 837/8/5
f 839/8/5 830/8/5 838/8/5
f 840/8/5 830/8/5 839/8/5
f 841/8/5 830/8/5 840/8/5
f 842/8/5 830/8/5 841/8/5
f 843/8/5 830/8/5 842/8/5
f 844/8/5 830/8/5 843/8/5
f 845/8/5 830/8/5 844/8/5
f 846/8/5 830/8/5 845/8/5
f 847/8/5 830/8/5 846/8/5
f 848/8/5 830/8/5 847/8/5
f 849/8/5 830/8/5 848/8/5
f 850/8/5 830/8/5 849/8/5
f 851/8/5 830/8/5 850/8/5
f 852/8/5 830/8/5 851/8/5
f 853/8/5 830/8/5 852/8/5
f 854/8/5 830/8/5 853/8/5
f 855/8/5 830/8/5 854/8/5
f 856/2/5 831/2/5 830/2/5
f 856/8/5 830/8/5 855/8/5
f 857/6/5 832/6/5 826/6/5
f 858/5/5 833/5/5 832/5/5
f 858/6/5 832/6/5 857/6/5
f 859/7/5 834/7/5 833/7/5
f 859/5/5 833/5/5 858/5/5
f 860/3/5 835/3/5 834/3/5
f 860/7/5 834/7/5 859/7/5
f 861/7/5 836/7/5 835/7/5
f 861/3/5 835/3/5 860/3/5
f 862/3/5 837/3/5 836/3/5
f 862/7/5 836/7/5 861/7/5
f 863/2/5 838/2/5 837/2/5
f 863/3/5 837/3/5 862/3/5
f 864/3/5 839/3/5 838/3/5
f 864/2/5 838/2/5 863/2/5
f 865/2/5 840/2/5 839/2/5
f 865/3/5 839/3/5 864/3/5
f 866/7/5 841/7/5 840/7/5
f 866/2/5 840/2/5 865/2/5
f 867/5/5 842/5/5 841/5/5
f 867/7/5 841/7/5 866/7/5
f 868/7/5 843/7/5 842/7/5
f 868/5/5 842/5/5 867/5/5
f 869/3/5 844/3/5 843/3/5
f 869/7/5 843/7/5 868/7/5
f 870/7/5 845/7/5 844/7/5
f 870/3/5 844/3/5 869/3/5
f 871/2/5 846/2/5 845/2/5
f 871/7/5 845/7/5 870/7/5
f 872/5/5 847/5/5 846/5/5
f 872/2/5 846/2/5 871/2/5
f 873/3/5 848/3/5 847/3/5
f 873/5/5 847/5/5 872/5/5
f 874/7/5 849/7/5 848/7/5
f 874/3/5 848/3/5 873/3/5
f 875/2/5 850/2/5 849/2/5
f 875/7/5 849/7/5 874/7/5
f 876/7/5 851/7/5 850/7/5
f 876/2/5 850/2/5 875/2/5
f 877/3/5 852/3/5 851/3/5
f 877/7/5 851/7/5 876/7/5
f 878/7/5 853/7/5 852/7/5
f 878/3/5 852/3/5 877/3/5
f 879/2/5 854/2/5 853/2/5
f 879/7/5 853/7/5 878/7/5
f 880/7/5 855/7/5 854/7/5
f 880/2/5 854/2/5 879/2/5
f 881/3/5 856/3/5 855/3/5
f 881/7/5 855/7/5 880/7/5
f 882/2/5 831/2/5 856/2/5
f 882/3/5 856/3/5 881/3/5
f 883/2/5 831/2/5 882/2/5
f 884/2/6 885/2/6 916/2/6
f 885/8/6 886/8/6 917/8/6
f 916/2/6 885/2/6 917/2/6
f 886/2/6 887/2/6 918/2/6
f 917/8/6 886/8/6 918/8/6
f 887/7/6 888/7/6 919/7/6
f 918/2/6 887/2/6 919/2/6
f 888/8/6 889/8/6 920/8/6
f 919/7/6 888/7/6 920/7/6
f 889/7/6 890/7/6 921/7/6
f 920/8/6 889/8/6 921/8/6
f 890/8/6 891/8/6 922/8/6
f 921/7/6 890/7/6 922/7/6
f 891/2/6 892/2/6 923/2/6
f 922/8/6 891/8/6 923/8/6
f 892/7/6 893/7/6 924/7/6
f 923/2/6 892/2/6 924/2/6
f 893/2/6 894/2/6 925/2/6
f 924/7/6 893/7/6 925/7/6
f 894/8/6 895/8/6 926/8/6
f 925/2/6 894/2/6 926/2/6
f 895/2/6 896/2/6 927/2/6
f 926/8/6 895/8/6 927/8/6
f 896/8/6 897/8/6 928/8/6
f 927/2/6 896/2/6 928/2/6
f 897/7/6 898/7/6 929/7/6
f 928/8/6 897/8/6 929/8/6
f 898/8/6 899/8/6 930/8/6
f 929/7/6 898/7/6 930/7/6
f 899/7/6 900/7/6 931/7/6
f 930/8/6 899/8/6 931/8/6
f 900/8/6 901/8/6 932/8/6
f 931/7/6 900/7/6 932/7/6
f 901/7/6 902/7/6 933/7/6
f 932/8/6 901/8/6 933/8/6
f 902/8/6 903/8/6 934/8/6
f 933/7/6 902/7/6 934/7/6
f 903/7/6 904/7/6 935/7/6
f 934/8/6 903/8/6 935/8/6
f 904/8/6 905/8/6 936/8/6
f 935/7/6 904/7/6 936/7/6
f 905/2/6 906/2/6 937/2/6
f 936/8/6 905/8/6 937/8/6
f 906/8/6 907/8/6 938/8/6
f 937/2/6 906/2/6 938/2/6
f 907/7/6 908/7/6 939/7/6
f 938/8/6 907/8/6 939/8/6
f 908/8/6 909/8/6 940/8/6
f 939/7/6 908/7/6 940/7/6
f 909/2/6 910/2/6 941/2/6
f 940/8/6 909/8/6 941/8/6
f 910/8/6 911/8/6 942/8/6
f 941/2/6 910/2/6 942/2/6
f 911/7/6 912/7/6 943/7/6
f 942/8/6 911/8/6 943/8/6
f 912/8/6 913/8/6 944/8/6
f 943/7/6 912/7/6 944/7/6
f 913/2/6 914/2/6 945/2/6
f 944/8/6 913/8/6 945/8/6
f 914/5/6 915/5/6 946/5/6
f 945/2/6 914/2/6 946/2/6
f 946/5/6 915/5/6 947/5/6
f 916/3/6 917/3/6 948/3/6
f 944/8/6 945/8/6 949/8/6
f 948/3/6 917/3/6 949/3/6
f 917/8/6 918/8/6 949/8/6
f 918/8/6 919/8/6 949/8/6
f 945/8/6 946/8/6 949/8/6
f 943/8/6 944/8/6 949/8/6
f 942/8/6 943/8/6 949/8/6
f 941/8/6 942/8/6 949/8/6
f 940/8/6 941/8/6 949/8/6
f 939/8/6 940/8/6 949/8/6
f 938/8/6 939/8/6 949/8/6
f 937/8/6 938/8/6 949/8/6
f 936/8/6 937/8/6 949/8/6
f 935/8/6 936/8/6 949/8/6
f 934/8/6 935/8/6 949/8/6
f 933/8/6 934/8/6 949/8/6
f 932/8/6 933/8/6 949/8/6
f 931/8/6 932/8/6 949/8/6
f 930/8/6 931/8/6 949/8/6
f 929/8/6 930/8/6 949/8/6
f 928/8/6 929/8/6 949/8/6
f 927/8/6 928/8/6 949/8/6
f 926/8/6 927/8/6 949/8/6
f 925/8/6 926/8/6 949/8/6
f 924/8/6 925/8/6 949/8/6
f 923/8/6 924/8/6 949/8/6
f 922/8/6 923/8/6 949/8/6
f 921/8/6 922/8/6 949/8/6
f 920/8/6 921/8/6 949/8/6
f 919/8/6 920/8/6 949/8/6
f 946/7/6 947/7/6 950/7/6
f 949/8/6 946/8/6 950/8/6
f 950/7/6 947/7/6 951/7/6
f 948/7/6 949/7/6 952/7/6
f 949/8/6 950/8/6 953/8/6
f 952/7/6 949/7/6 953/7/6
f 952/3/6 953/3/6 954/3/6
f 953/8/6 950/8/6 955/8/6
f 954/3/6 953/3/6 955/3/6
f 950/5/6 951/5/6 956/5/6
f 955/8/6 950/8/6 956/8/6
f 956/5/6 951/5/6 957/5/6
f 954/8/6 955/8/6 958/8/6
f 955/8/6 956/8/6 958/8/6
f 958/8/6 956/8/6 959/8/6
f 958/7/6 959/7/6 960/7/6
f 959/8/6 956/8/6 961/8/6
f 960/7/6 959/7/6 961/7/6
f 956/7/6 957/7/6 962/7/6
f 961/8/6 956/8/6 962/8/6
f 962/7/6 957/7/6 963/7/6
f 960/8/6 961/8/6 964/8/6
f 961/8/6 962/8/6 964/8/6
f 962/8/6 963/8/6 964/8/6
f 964/8/6 963/8/6 965/8/6
f 965/8/6 963/8/6 966/8/6
f 966/8/6 963/8/6 967/8/6
f 964/5/6 965/5/6 968/5/6
f 965/8/6 966/8/6 969/8/6
f 968/5/6 965/5/6 969/5/6
f 966/5/6 967/5/6 970/5/6
f 969/8/6 966/8/6 970/8/6
f 970/5/6 967/5/6 971/5/6
f 968/8/6 969/8/6 972/8/6
f 969/8/6 970/8/6 972/8/6
f 970/8/6 971/8/6 972/8/6
f 972/8/6 971/8/6 973/8/6
f 972/7/6 973/7/6 974/7/6
f 973/8/6 971/8/6 975/8/6
f 974/7/6 973/7/6 975/7/6
f 975/8/6 971/8/6 976/8/6
f 976/8/6 971/8/6 977/8/6
f 974/2/6 975/2/6 978/2/6
f 975/8/6 976/8/6 979/8/6
f 978/2/6 975/2/6 979/2/6
f 976/2/6 977/2/6 980/2/6
f 979/8/6 976/8/6 980/8/6
f 980/2/6 977/2/6 981/2/6
f 978/8/6 979/8/6 982/8/6
f 979/8/6 980/8/6 982/8/6
f 980/8/6 981/8/6 982/8/6
f 982/8/6 981/8/6 983/8/6
f 983/8/6 981/8/6 984/8/6
f 984/8/6 981/8/6 985/8/6
f 982/5/6 983/5/6 986/5/6
f 983/8/6 984/8/6 987/8/6
f 986/5/6 983/5/6 987/5/6
f 986/8/6 987/8/6 988/8/6
f 987/8/6 984/8/6 989/8/6
f 988/8/6 987/8/6 989/8/6
f 988/7/6 989/7/6 990/7/6
f 989/8/6 984/8/6 991/8/6
f 990/7/6 989/7/6 991/7/6
f 990/8/6 991/8/6 992/8/6
f 991/8/6 984/8/6 993/8/6
f 992/8/6 991/8/6 993/8/6
f 984/2/6 985/2/6 994/2/6
f 993/8/6 984/8/6 994/8/6
f 994/2/6 985/2/6 995/2/6
f 992/7/6 993/7/6 996/7/6
f 993/8/6 994/8/6 997/8/6
f 996/7/6 993/7/6 997/7/6
f 994/4/6 995/4/6 998/4/6
f 997/8/6 994/8/6 998/8/6
f 998/4/6 995/4/6 999/4/6
f 996/8/6 997/8/6 1000/8/6
f 997/8/6 998/8/6 1000/8/6
f 1000/8/6 998/8/6 1001/8/6
f 1000/7/6 1001/7/6 1002/7/6
f 1001/8/6 998/8/6 1003/8/6
f 1002/7/6 1001/7/6 1003/7/6
f 1002/8/6 1003/8/6 1004/8/6
f 1003/8/6 998/8/6 1005/8/6
f 1004/8/6 1003/8/6 1005/8/6
f 1004/7/6 1005/7/6 1006/7/6
f 1005/8/6 998/8/6 1007/8/6
f 1006/7/6 1005/7/6 1007/7/6
f 998/2/6 999/2/6 1008/2/6
f 1007/8/6 998/8/6 1008/8/6
f 1008/2/6 999/2/6 1009/2/6
f 1006/8/6 1007/8/6 1010/8/6
f 1007/8/6 1008/8/6 1010/8/6
f 1010/8/6 1008/8/6 1011/8/6
f 1008/7/6 1009/7/6 1012/7/6
f 1011/8/6 1008/8/6 1012/8/6
f 1012/7/6 1009/7/6 1013/7/6
f 1011/8/6 1012/8/6 1014/8/6
f 1012/8/6 1013/8/6 1014/8/6
f 1014/8/6 1013/8/6 1015/8/6
f 1011/8/6 1014/8/6 1016/8/6
f 1014/6/6 1015/6/6 1016/6/6
f 1016/6/6 1015/6/6 1017/6/6
f 1011/8/6 1016/8/6 1018/8/6
f 1016/8/6 1017/8/6 1018/8/6
f 1018/8/6 1017/8/6 1019/8/6
f 1010/2/6 1011/2/6 1020/2/6
f 1011/8/6 1018/8/6 1021/8/6
f 1020/2/6 1011/2/6 1021/2/6
f 1018/6/6 1019/6/6 1022/6/6
f 1021/8/6 1018/8/6 1022/8/6
f 1022/6/6 1019/6/6 1023/6/6
f 1020/5/6 1021/5/6 1024/5/6
f 1021/8/6 1022/8/6 1025/8/6
f 1024/5/6 1021/5/6 1025/5/6
f 1022/5/6 1023/5/6 1026/5/6
f 1025/8/6 1022/8/6 1026/8/6
f 1026/5/6 1023/5/6 1027/5/6
f 1024/2/6 1025/2/6 1028/2/6
f 1025/8/6 1026/8/6 1029/8/6
f 1028/2/6 1025/2/6 1029/2/6
f 1026/6/6 1027/6/6 1030/6/6
f 1029/8/6 1026/8/6 1030/8/6
f 1030/6/6 1027/6/6 1031/6/6
f 1028/8/6 1029/8/6 1032/8/6
f 1029/8/6 1030/8/6 1032/8/6
f 1030/8/6 1031/8/6 1032/8/6
f 1032/8/6 1031/8/6 1033/8/6
f 1032/2/6 1033/2/6 1034/2/6
f 1033/8/6 1031/8/6 1035/8/6
f 1034/2/6 1033/2/6 1035/2/6
f 1035/8/6 1031/8/6 1036/8/6
f 1036/8/6 1031/8/6 1037/8/6
f 1034/7/6 1035/7/6 1038/7/6
f 1035/8/6 1036/8/6 1039/8/6
f 1038/7/6 1035/7/6 1039/7/6
f 1036/2/6 1037/2/6 1040/2/6
f 1039/8/6 1036/8/6 1040/8/6
f 1040/2/6 1037/2/6 1041/2/6
f 1038/8/6 1039/8/6 1042/8/6
f 1039/8/6 1040/8/6 1042/8/6
f 1042/8/6 1040/8/6 1043/8/6
f 1040/6/6 1041/6/6 1044/6/6
f 1043/8/6 1040/8/6 1044/8/6
f 1044/6/6 1041/6/6 1045/6/6
f 1042/5/6 1043/5/6 1046/5/6
f 1043/8/6 1044/8/6 1047/8/6
f 1046/5/6 1043/5/6 1047/5/6
f 1044/7/6 1045/7/6 1048/7/6
f 1047/8/6 1044/8/6 1048/8/6
f 1048/7/6 1045/7/6 1049/7/6
f 1046/8/6 1047/8/6 1050/8/6
f 1047/8/6 1048/8/6 1050/8/6
f 1050/8/6 1048/8/6 1051/8/6
f 1051/8/6 1048/8/6 1052/8/6
f 1052/8/6 1048/8/6 1053/8/6
f 1053/8/6 1048/8/6 1054/8/6
f 1054/8/6 1048/8/6 1055/8/6
f 1055/8/6 1048/8/6 1056/8/6
f 1056/8/6 1048/8/6 1057/8/6
f 1057/8/6 1048/8/6 1058/8/6
f 1058/8/6 1048/8/6 1059/8/6
f 1059/8/6 1048/8/6 1060/8/6
f 1060/8/6 1048/8/6 1061/8/6
f 1061/8/6 1048/8/6 1062/8/6
f 1062/8/6 1048/8/6 1063/8/6
f 1063/8/6 1048/8/6 1064/8/6
f 1064/8/6 1048/8/6 1065/8/6
f 1065/8/6 1048/8/6 1066/8/6
f 1066/8/6 1048/8/6 1067/8/6
f 1067/8/6 1048/8/6 1068/8/6
f 1068/8/6 1048/8/6 1069/8/6
f 1069/8/6 1048/8/6 1070/8/6
f 1070/8/6 1048/8/6 1071/8/6
f 1071/8/6 1048/8/6 1072/8/6
f 1072/8/6 1048/8/6 1073/8/6
f 1073/8/6 1048/8/6 1074/8/6
f 1074/8/6 1048/8/6 1075/8/6
f 1075/8/6 1048/8/6 1076/8/6
f 1076/8/6 1048/8/6 1077/8/6
f 1077/8/6 1048/8/6 1078/8/6
f 1078/8/6 1048/8/6 1079/8/6
f 1048/2/6 1049/2/6 1080/2/6
f 1079/8/6 1048/8/6 1080/8/6
f 1050/5/6 1051/5/6 1081/5/6
f 1051/8/6 1052/8/6 1082/8/6
f 1081/5/6 1051/5/6 1082/5/6
f 1052/3/6 1053/3/6 1083/3/6
f 1082/8/6 1052/8/6 1083/8/6
f 1053/7/6 1054/7/6 1084/7/6
f 1083/3/6 1053/3/6 1084/3/6
f 1054/8/6 1055/8/6 1085/8/6
f 1084/7/6 1054/7/6 1085/7/6
f 1055/2/6 1056/2/6 1086/2/6
f 1085/8/6 1055/8/6 1086/8/6
f 1056/8/6 1057/8/6 1087/8/6
f 1086/2/6 1056/2/6 1087/2/6
f 1057/7/6 1058/7/6 1088/7/6
f 1087/8/6 1057/8/6 1088/8/6
f 1058/8/6 1059/8/6 1089/8/6
f 1088/7/6 1058/7/6 1089/7/6
f 1059/2/6 1060/2/6 1090/2/6
f 1089/8/6 1059/8/6 1090/8/6
f 1060/8/6 1061/8/6 1091/8/6
f 1090/2/6 1060/2/6 1091/2/6
f 1061/7/6 1062/7/6 1092/7/6
f 1091/8/6 1061/8/6 1092/8/6
f 1062/2/6 1063/2/6 1093/2/6
f 1092/7/6 1062/7/6 1093/7/6
f 1063/8/6 1064/8/6 1094/8/6
f 1093/2/6 1063/2/6 1094/2/6
f 1064/2/6 1065/2/6 1095/2/6
f 1094/8/6 1064/8/6 1095/8/6
f 1065/8/6 1066/8/6 1096/8/6
f 1095/2/6 1065/2/6 1096/2/6
f 1066/7/6 1067/7/6 1097/7/6
f 1096/8/6 1066/8/6 1097/8/6
f 1067/8/6 1068/8/6 1098/8/6
f 1097/7/6 1067/7/6 1098/7/6
f 1068/7/6 1069/7/6 1099/7/6
f 1098/8/6 1068/8/6 1099/8/6
f 1069/8/6 1070/8/6 1100/8/6
f 1099/7/6 1069/7/6 1100/7/6
f 1070/7/6 1071/7/6 1101/7/6
f 1100/8/6 1070/8/6 1101/8/6
f 1071/8/6 1072/8/6 1102/8/6
f 1101/7/6 1071/7/6 1102/7/6
f 1072/2/6 1073/2/6 1103/2/6
f 1102/8/6 1072/8/6 1103/8/6
f 1073/8/6 1074/8/6 1104/8/6
f 1103/2/6 1073/2/6 1104/2/6
f 1074/7/6 1075/7/6 1105/7/6
f 1104/8/6 1074/8/6 1105/8/6
f 1075/8/6 1076/8/6 1106/8/6
f 1105/7/6 1075/7/6 1106/7/6
f 1076/2/6 1077/2/6 1107/2/6
f 1106/8/6 1076/8/6 1107/8/6
f 1077/7/6 1078/7/6 1108/7/6
f 1107/2/6 1077/2/6 1108/2/6
f 1078/8/6 1079/8/6 1109/8/6
f 1108/7/6 1078/7/6 1109/7/6
f 1079/7/6 1080/7/6 1110/7/6
f 1109/8/6 1079/8/6 1110/8/6
f 1080/2/6 1049/2/6 1111/2/6
f 1110/7/6 1080/7/6 1111/7/6
f 1111/2/6 1049/2/6 1112/2/6
