# MagicaVoxel @ Ephtracy

# group
g TileGrass-0

# material
mtllib TileGrass-0.mtl
usemtl palette

# normals
vn -1 0 0
vn 1 0 0
vn 0 0 1
vn 0 0 -1
vn 0 -1 0
vn 0 1 0

# texcoords
vt 0.419922 0.5
vt 0.533203 0.5
vt 0.537109 0.5
vt 0.560547 0.5
vt 0.853516 0.5
vt 0.857422 0.5
vt 0.861328 0.5
vt 0.865234 0.5
vt 0.869141 0.5
vt 0.896484 0.5
vt 0.900391 0.5
vt 0.904297 0.5

# verts
v -20 0 20
v -20 0 16
v -20 0 15
v -20 0 13
v -20 0 8
v -20 0 7
v -20 0 4
v -20 0 3
v -20 0 -3
v -20 0 -5
v -20 0 -9
v -20 0 -10
v -20 0 -12
v -20 0 -13
v -20 0 -15
v -20 0 -17
v -20 0 -20
v -20 1 18
v -20 1 17
v -20 1 16
v -20 1 15
v -20 1 13
v -20 1 11
v -20 1 10
v -20 1 8
v -20 1 7
v -20 1 5
v -20 1 4
v -20 1 3
v -20 1 2
v -20 1 1
v -20 1 -2
v -20 1 -3
v -20 1 -4
v -20 1 -5
v -20 1 -7
v -20 1 -8
v -20 1 -9
v -20 1 -10
v -20 1 -12
v -20 1 -13
v -20 1 -15
v -20 1 -17
v -20 1 -18
v -20 1 -19
v -20 2 20
v -20 2 18
v -20 2 17
v -20 2 16
v -20 2 14
v -20 2 13
v -20 2 12
v -20 2 11
v -20 2 10
v -20 2 8
v -20 2 5
v -20 2 4
v -20 2 3
v -20 2 2
v -20 2 1
v -20 2 -0
v -20 2 -2
v -20 2 -3
v -20 2 -4
v -20 2 -7
v -20 2 -8
v -20 2 -9
v -20 2 -10
v -20 2 -11
v -20 2 -13
v -20 2 -14
v -20 2 -15
v -20 2 -18
v -20 2 -19
v -20 2 -20
v -20 3 19
v -20 3 18
v -20 3 15
v -20 3 14
v -20 3 13
v -20 3 12
v -20 3 11
v -20 3 10
v -20 3 9
v -20 3 8
v -20 3 7
v -20 3 6
v -20 3 4
v -20 3 3
v -20 3 2
v -20 3 1
v -20 3 -0
v -20 3 -2
v -20 3 -3
v -20 3 -4
v -20 3 -6
v -20 3 -7
v -20 3 -8
v -20 3 -9
v -20 3 -10
v -20 3 -11
v -20 3 -12
v -20 3 -13
v -20 3 -14
v -20 3 -15
v -20 3 -16
v -20 3 -18
v -20 3 -19
v -20 4 19
v -20 4 18
v -20 4 17
v -20 4 16
v -20 4 15
v -20 4 14
v -20 4 12
v -20 4 10
v -20 4 9
v -20 4 8
v -20 4 6
v -20 4 5
v -20 4 4
v -20 4 3
v -20 4 2
v -20 4 1
v -20 4 -0
v -20 4 -1
v -20 4 -2
v -20 4 -3
v -20 4 -4
v -20 4 -6
v -20 4 -7
v -20 4 -9
v -20 4 -10
v -20 4 -12
v -20 4 -13
v -20 4 -14
v -20 4 -15
v -20 4 -16
v -20 4 -17
v -20 4 -18
v -20 4 -19
v -20 4 -20
v -20 5 20
v -20 5 19
v -20 5 18
v -20 5 17
v -20 5 16
v -20 5 15
v -20 5 14
v -20 5 12
v -20 5 10
v -20 5 9
v -20 5 8
v -20 5 7
v -20 5 6
v -20 5 5
v -20 5 4
v -20 5 3
v -20 5 2
v -20 5 1
v -20 5 -0
v -20 5 -1
v -20 5 -3
v -20 5 -4
v -20 5 -6
v -20 5 -10
v -20 5 -12
v -20 5 -13
v -20 5 -14
v -20 5 -15
v -20 5 -16
v -20 5 -17
v -20 5 -18
v -20 5 -19
v -20 5 -20
v 20 0 20
v 20 0 19
v 20 0 16
v 20 0 13
v 20 0 12
v 20 0 10
v 20 0 9
v 20 0 8
v 20 0 7
v 20 0 5
v 20 0 4
v 20 0 2
v 20 0 1
v 20 0 -0
v 20 0 -1
v 20 0 -3
v 20 0 -6
v 20 0 -7
v 20 0 -10
v 20 0 -12
v 20 0 -13
v 20 0 -14
v 20 0 -15
v 20 0 -17
v 20 0 -18
v 20 0 -20
v 20 1 19
v 20 1 17
v 20 1 16
v 20 1 15
v 20 1 13
v 20 1 12
v 20 1 11
v 20 1 10
v 20 1 9
v 20 1 8
v 20 1 7
v 20 1 5
v 20 1 4
v 20 1 3
v 20 1 2
v 20 1 1
v 20 1 -1
v 20 1 -2
v 20 1 -3
v 20 1 -6
v 20 1 -7
v 20 1 -9
v 20 1 -10
v 20 1 -11
v 20 1 -12
v 20 1 -13
v 20 1 -14
v 20 1 -16
v 20 1 -17
v 20 1 -18
v 20 1 -19
v 20 1 -20
v 20 2 20
v 20 2 19
v 20 2 18
v 20 2 17
v 20 2 16
v 20 2 15
v 20 2 14
v 20 2 13
v 20 2 10
v 20 2 8
v 20 2 7
v 20 2 4
v 20 2 3
v 20 2 1
v 20 2 -0
v 20 2 -1
v 20 2 -2
v 20 2 -3
v 20 2 -5
v 20 2 -6
v 20 2 -7
v 20 2 -8
v 20 2 -9
v 20 2 -10
v 20 2 -11
v 20 2 -12
v 20 2 -13
v 20 2 -14
v 20 2 -15
v 20 2 -16
v 20 2 -17
v 20 2 -19
v 20 3 18
v 20 3 17
v 20 3 16
v 20 3 15
v 20 3 14
v 20 3 13
v 20 3 12
v 20 3 11
v 20 3 9
v 20 3 8
v 20 3 7
v 20 3 5
v 20 3 4
v 20 3 3
v 20 3 2
v 20 3 1
v 20 3 -0
v 20 3 -1
v 20 3 -5
v 20 3 -6
v 20 3 -8
v 20 3 -10
v 20 3 -11
v 20 3 -13
v 20 3 -15
v 20 3 -16
v 20 3 -17
v 20 3 -18
v 20 4 20
v 20 4 19
v 20 4 18
v 20 4 17
v 20 4 15
v 20 4 14
v 20 4 13
v 20 4 12
v 20 4 10
v 20 4 9
v 20 4 8
v 20 4 7
v 20 4 6
v 20 4 5
v 20 4 3
v 20 4 2
v 20 4 1
v 20 4 -0
v 20 4 -4
v 20 4 -5
v 20 4 -6
v 20 4 -7
v 20 4 -8
v 20 4 -9
v 20 4 -10
v 20 4 -11
v 20 4 -12
v 20 4 -13
v 20 4 -15
v 20 4 -16
v 20 4 -17
v 20 4 -19
v 20 4 -20
v 20 5 20
v 20 5 19
v 20 5 18
v 20 5 16
v 20 5 15
v 20 5 14
v 20 5 13
v 20 5 12
v 20 5 10
v 20 5 9
v 20 5 8
v 20 5 7
v 20 5 6
v 20 5 2
v 20 5 1
v 20 5 -4
v 20 5 -6
v 20 5 -7
v 20 5 -8
v 20 5 -9
v 20 5 -10
v 20 5 -12
v 20 5 -13
v 20 5 -15
v 20 5 -16
v 20 5 -17
v 20 5 -18
v 20 5 -20
v -20 0 20
v -20 2 20
v -20 5 20
v -19 3 20
v -19 4 20
v -19 5 20
v -18 0 20
v -18 2 20
v -18 3 20
v -18 4 20
v -17 1 20
v -17 2 20
v -17 3 20
v -17 4 20
v -17 5 20
v -16 0 20
v -16 1 20
v -16 2 20
v -16 3 20
v -16 4 20
v -16 5 20
v -15 0 20
v -15 1 20
v -15 3 20
v -15 4 20
v -15 5 20
v -14 0 20
v -14 1 20
v -14 2 20
v -14 3 20
v -13 1 20
v -13 2 20
v -13 3 20
v -13 4 20
v -12 0 20
v -12 1 20
v -12 2 20
v -12 3 20
v -12 4 20
v -12 5 20
v -11 0 20
v -11 1 20
v -11 2 20
v -11 3 20
v -11 4 20
v -11 5 20
v -10 2 20
v -10 3 20
v -10 4 20
v -10 5 20
v -9 0 20
v -9 1 20
v -9 2 20
v -9 3 20
v -9 4 20
v -8 0 20
v -8 1 20
v -8 2 20
v -8 3 20
v -7 3 20
v -7 4 20
v -7 5 20
v -6 0 20
v -6 2 20
v -6 3 20
v -6 4 20
v -6 5 20
v -5 0 20
v -5 2 20
v -5 3 20
v -5 4 20
v -5 5 20
v -4 2 20
v -4 3 20
v -4 4 20
v -4 5 20
v -3 0 20
v -3 1 20
v -3 3 20
v -3 5 20
v -2 0 20
v -2 1 20
v -2 3 20
v -2 5 20
v -1 2 20
v -1 3 20
v -1 5 20
v 1 2 20
v 1 3 20
v 1 5 20
v 2 0 20
v 2 1 20
v 2 2 20
v 2 3 20
v 2 4 20
v 2 5 20
v 3 0 20
v 3 1 20
v 3 4 20
v 3 5 20
v 4 1 20
v 4 2 20
v 4 3 20
v 4 4 20
v 4 5 20
v 5 0 20
v 5 1 20
v 5 2 20
v 5 3 20
v 5 4 20
v 6 0 20
v 6 2 20
v 6 3 20
v 6 4 20
v 6 5 20
v 7 1 20
v 7 3 20
v 7 4 20
v 7 5 20
v 8 0 20
v 8 1 20
v 8 3 20
v 8 4 20
v 8 5 20
v 9 0 20
v 9 1 20
v 9 2 20
v 9 3 20
v 9 4 20
v 9 5 20
v 10 1 20
v 10 2 20
v 10 3 20
v 10 4 20
v 10 5 20
v 11 0 20
v 11 1 20
v 11 3 20
v 11 4 20
v 11 5 20
v 12 0 20
v 12 1 20
v 12 2 20
v 12 3 20
v 12 4 20
v 12 5 20
v 13 1 20
v 13 2 20
v 13 3 20
v 13 4 20
v 13 5 20
v 14 0 20
v 14 1 20
v 14 2 20
v 14 3 20
v 14 4 20
v 14 5 20
v 15 0 20
v 15 1 20
v 15 2 20
v 15 3 20
v 15 4 20
v 16 0 20
v 16 1 20
v 16 2 20
v 16 3 20
v 16 4 20
v 16 5 20
v 17 1 20
v 17 2 20
v 17 3 20
v 17 4 20
v 17 5 20
v 18 0 20
v 18 2 20
v 18 4 20
v 19 4 20
v 19 5 20
v 20 0 20
v 20 2 20
v 20 4 20
v 20 5 20
v -20 0 -20
v -20 2 -20
v -20 4 -20
v -20 5 -20
v -19 0 -20
v -19 2 -20
v -19 4 -20
v -19 5 -20
v -18 0 -20
v -18 2 -20
v -18 4 -20
v -17 0 -20
v -17 1 -20
v -17 2 -20
v -17 4 -20
v -17 5 -20
v -16 1 -20
v -16 2 -20
v -16 5 -20
v -15 0 -20
v -15 1 -20
v -15 2 -20
v -15 3 -20
v -15 5 -20
v -14 0 -20
v -14 1 -20
v -14 2 -20
v -14 3 -20
v -14 4 -20
v -14 5 -20
v -13 0 -20
v -13 1 -20
v -13 2 -20
v -13 3 -20
v -13 4 -20
v -13 5 -20
v -12 0 -20
v -12 1 -20
v -12 4 -20
v -12 5 -20
v -11 0 -20
v -11 2 -20
v -11 3 -20
v -11 4 -20
v -11 5 -20
v -10 0 -20
v -10 2 -20
v -10 3 -20
v -10 4 -20
v -10 5 -20
v -9 0 -20
v -9 1 -20
v -9 2 -20
v -8 3 -20
v -8 4 -20
v -8 5 -20
v -7 2 -20
v -7 3 -20
v -7 4 -20
v -7 5 -20
v -6 0 -20
v -6 1 -20
v -6 2 -20
v -6 3 -20
v -6 4 -20
v -6 5 -20
v -5 2 -20
v -5 3 -20
v -5 4 -20
v -5 5 -20
v -4 0 -20
v -4 1 -20
v -4 4 -20
v -4 5 -20
v -3 0 -20
v -3 1 -20
v -3 2 -20
v -3 3 -20
v -3 4 -20
v -3 5 -20
v -2 0 -20
v -2 1 -20
v -2 3 -20
v -2 4 -20
v -2 5 -20
v -1 1 -20
v -1 2 -20
v -1 3 -20
v -1 4 -20
v -1 5 -20
v 1 1 -20
v 1 2 -20
v 1 3 -20
v 1 4 -20
v 1 5 -20
v 2 3 -20
v 2 4 -20
v 2 5 -20
v 3 0 -20
v 3 1 -20
v 3 2 -20
v 4 1 -20
v 4 2 -20
v 4 3 -20
v 4 4 -20
v 5 0 -20
v 5 1 -20
v 6 0 -20
v 6 1 -20
v 6 3 -20
v 6 4 -20
v 6 5 -20
v 7 0 -20
v 7 1 -20
v 7 4 -20
v 7 5 -20
v 8 0 -20
v 8 1 -20
v 8 2 -20
v 8 3 -20
v 9 0 -20
v 9 1 -20
v 9 2 -20
v 9 3 -20
v 9 4 -20
v 9 5 -20
v 10 3 -20
v 10 4 -20
v 10 5 -20
v 11 1 -20
v 11 2 -20
v 11 3 -20
v 11 4 -20
v 11 5 -20
v 12 0 -20
v 12 1 -20
v 12 2 -20
v 12 3 -20
v 13 4 -20
v 13 5 -20
v 14 1 -20
v 14 2 -20
v 14 3 -20
v 14 4 -20
v 14 5 -20
v 15 0 -20
v 15 1 -20
v 15 3 -20
v 15 4 -20
v 15 5 -20
v 16 0 -20
v 16 1 -20
v 16 3 -20
v 16 4 -20
v 16 5 -20
v 17 0 -20
v 17 3 -20
v 17 4 -20
v 17 5 -20
v 18 2 -20
v 18 3 -20
v 18 4 -20
v 19 0 -20
v 19 1 -20
v 19 2 -20
v 19 4 -20
v 19 5 -20
v 20 0 -20
v 20 1 -20
v 20 4 -20
v 20 5 -20
v -20 0 20
v -18 0 20
v -16 0 20
v -15 0 20
v -14 0 20
v -12 0 20
v -11 0 20
v -9 0 20
v -8 0 20
v -6 0 20
v -5 0 20
v -3 0 20
v -2 0 20
v 2 0 20
v 3 0 20
v 5 0 20
v 6 0 20
v 8 0 20
v 9 0 20
v 11 0 20
v 12 0 20
v 14 0 20
v 15 0 20
v 16 0 20
v 18 0 20
v 20 0 20
v -19 0 19
v -18 0 19
v -16 0 19
v -15 0 19
v -14 0 19
v -12 0 19
v -11 0 19
v -9 0 19
v -8 0 19
v -6 0 19
v -5 0 19
v -3 0 19
v -2 0 19
v 2 0 19
v 3 0 19
v 5 0 19
v 6 0 19
v 8 0 19
v 9 0 19
v 11 0 19
v 12 0 19
v 14 0 19
v 15 0 19
v 16 0 19
v 18 0 19
v 19 0 19
v 20 0 19
v -20 0 16
v -19 0 16
v 19 0 16
v 20 0 16
v -20 0 15
v -19 0 15
v -20 0 13
v -19 0 13
v 19 0 13
v 20 0 13
v 19 0 12
v 20 0 12
v 19 0 10
v 20 0 10
v 19 0 9
v 20 0 9
v -20 0 8
v -19 0 8
v 19 0 8
v 20 0 8
v -20 0 7
v -19 0 7
v 19 0 7
v 20 0 7
v 19 0 5
v 20 0 5
v -20 0 4
v -19 0 4
v 19 0 4
v 20 0 4
v -20 0 3
v -19 0 3
v 19 0 2
v 20 0 2
v 19 0 1
v 20 0 1
v 19 0 -0
v 20 0 -0
v 19 0 -1
v 20 0 -1
v -20 0 -3
v -19 0 -3
v 19 0 -3
v 20 0 -3
v -20 0 -5
v -19 0 -5
v 19 0 -6
v 20 0 -6
v 19 0 -7
v 20 0 -7
v -20 0 -9
v -19 0 -9
v -20 0 -10
v -19 0 -10
v 19 0 -10
v 20 0 -10
v -20 0 -12
v -19 0 -12
v 19 0 -12
v 20 0 -12
v -20 0 -13
v -19 0 -13
v 19 0 -13
v 20 0 -13
v 19 0 -14
v 20 0 -14
v -20 0 -15
v -19 0 -15
v 19 0 -15
v 20 0 -15
v -20 0 -17
v -19 0 -17
v 19 0 -17
v 20 0 -17
v 19 0 -18
v 20 0 -18
v -19 0 -19
v -18 0 -19
v -17 0 -19
v -15 0 -19
v -14 0 -19
v -13 0 -19
v -12 0 -19
v -11 0 -19
v -10 0 -19
v -9 0 -19
v -6 0 -19
v -4 0 -19
v -3 0 -19
v -2 0 -19
v 3 0 -19
v 5 0 -19
v 6 0 -19
v 7 0 -19
v 8 0 -19
v 9 0 -19
v 12 0 -19
v 15 0 -19
v 16 0 -19
v 17 0 -19
v 19 0 -19
v -20 0 -20
v -19 0 -20
v -18 0 -20
v -17 0 -20
v -15 0 -20
v -14 0 -20
v -13 0 -20
v -12 0 -20
v -11 0 -20
v -10 0 -20
v -9 0 -20
v -6 0 -20
v -4 0 -20
v -3 0 -20
v -2 0 -20
v 3 0 -20
v 5 0 -20
v 6 0 -20
v 7 0 -20
v 8 0 -20
v 9 0 -20
v 12 0 -20
v 15 0 -20
v 16 0 -20
v 17 0 -20
v 19 0 -20
v 20 0 -20
v -20 5 20
v -19 5 20
v -17 5 20
v -16 5 20
v -15 5 20
v -12 5 20
v -11 5 20
v -10 5 20
v -7 5 20
v -6 5 20
v -5 5 20
v -4 5 20
v -3 5 20
v -2 5 20
v -1 5 20
v 1 5 20
v 2 5 20
v 3 5 20
v 4 5 20
v 6 5 20
v 7 5 20
v 8 5 20
v 9 5 20
v 10 5 20
v 11 5 20
v 12 5 20
v 13 5 20
v 14 5 20
v 16 5 20
v 17 5 20
v 19 5 20
v 20 5 20
v -20 5 19
v -19 5 19
v -17 5 19
v -16 5 19
v -15 5 19
v -12 5 19
v -11 5 19
v -10 5 19
v -7 5 19
v -6 5 19
v -5 5 19
v -4 5 19
v -3 5 19
v -2 5 19
v -1 5 19
v 1 5 19
v 2 5 19
v 3 5 19
v 4 5 19
v 6 5 19
v 7 5 19
v 8 5 19
v 9 5 19
v 10 5 19
v 11 5 19
v 12 5 19
v 13 5 19
v 14 5 19
v 16 5 19
v 17 5 19
v 18 5 19
v 19 5 19
v 20 5 19
v -20 5 18
v -19 5 18
v 11 5 18
v 12 5 18
v 13 5 18
v 14 5 18
v 15 5 18
v 18 5 18
v 19 5 18
v 20 5 18
v -20 5 17
v -19 5 17
v -11 5 17
v -10 5 17
v -1 5 17
v 0 5 17
v 3 5 17
v 4 5 17
v 11 5 17
v 12 5 17
v 13 5 17
v 14 5 17
v 15 5 17
v 17 5 17
v -20 5 16
v -19 5 16
v -11 5 16
v -10 5 16
v -9 5 16
v -3 5 16
v -2 5 16
v -1 5 16
v 0 5 16
v 1 5 16
v 3 5 16
v 4 5 16
v 5 5 16
v 7 5 16
v 8 5 16
v 9 5 16
v 10 5 16
v 12 5 16
v 13 5 16
v 14 5 16
v 15 5 16
v 19 5 16
v 20 5 16
v -20 5 15
v -19 5 15
v -18 5 15
v -17 5 15
v -10 5 15
v -9 5 15
v -8 5 15
v -3 5 15
v -2 5 15
v 0 5 15
v 1 5 15
v 2 5 15
v 4 5 15
v 5 5 15
v 7 5 15
v 8 5 15
v 9 5 15
v 10 5 15
v 11 5 15
v 14 5 15
v 15 5 15
v 17 5 15
v 18 5 15
v 19 5 15
v 20 5 15
v -20 5 14
v -19 5 14
v -18 5 14
v -17 5 14
v -15 5 14
v -9 5 14
v -8 5 14
v -7 5 14
v -2 5 14
v 0 5 14
v 1 5 14
v 2 5 14
v 3 5 14
v 10 5 14
v 11 5 14
v 12 5 14
v 13 5 14
v 14 5 14
v 16 5 14
v 17 5 14
v 18 5 14
v 19 5 14
v 20 5 14
v -17 5 13
v -15 5 13
v -14 5 13
v -11 5 13
v -10 5 13
v -8 5 13
v -7 5 13
v 0 5 13
v 1 5 13
v 2 5 13
v 3 5 13
v 4 5 13
v 8 5 13
v 9 5 13
v 10 5 13
v 11 5 13
v 12 5 13
v 14 5 13
v 15 5 13
v 16 5 13
v 17 5 13
v 18 5 13
v 19 5 13
v 20 5 13
v -20 5 12
v -19 5 12
v -15 5 12
v -14 5 12
v -11 5 12
v -10 5 12
v -8 5 12
v -3 5 12
v -2 5 12
v 3 5 12
v 4 5 12
v 19 5 12
v 20 5 12
v -10 5 11
v -8 5 11
v -3 5 11
v -2 5 11
v -1 5 11
v 9 5 11
v 10 5 11
v 11 5 11
v -20 5 10
v -19 5 10
v -11 5 10
v -10 5 10
v -2 5 10
v -1 5 10
v 0 5 10
v 14 5 10
v 15 5 10
v 19 5 10
v 20 5 10
v -20 5 9
v -19 5 9
v -11 5 9
v -10 5 9
v -9 5 9
v -1 5 9
v 0 5 9
v 1 5 9
v 10 5 9
v 11 5 9
v 19 5 9
v 20 5 9
v -20 5 8
v -19 5 8
v -10 5 8
v -9 5 8
v -8 5 8
v 0 5 8
v 1 5 8
v 2 5 8
v 6 5 8
v 7 5 8
v 14 5 8
v 15 5 8
v 16 5 8
v 19 5 8
v 20 5 8
v -20 5 7
v -19 5 7
v -5 5 7
v -4 5 7
v 1 5 7
v 2 5 7
v 3 5 7
v 19 5 7
v 20 5 7
v -20 5 6
v -19 5 6
v -16 5 6
v -15 5 6
v -9 5 6
v -8 5 6
v -7 5 6
v -5 5 6
v -4 5 6
v -3 5 6
v 2 5 6
v 3 5 6
v 6 5 6
v 7 5 6
v 8 5 6
v 11 5 6
v 12 5 6
v 15 5 6
v 16 5 6
v 17 5 6
v 19 5 6
v 20 5 6
v -20 5 5
v -19 5 5
v -16 5 5
v -15 5 5
v -14 5 5
v -8 5 5
v -7 5 5
v -20 5 4
v -19 5 4
v -4 5 4
v -3 5 4
v -2 5 4
v 7 5 4
v 8 5 4
v 16 5 4
v 17 5 4
v -20 5 3
v -19 5 3
v -15 5 3
v -14 5 3
v -13 5 3
v -11 5 3
v -10 5 3
v -3 5 3
v -2 5 3
v 3 5 3
v 4 5 3
v 11 5 3
v 12 5 3
v -20 5 2
v -19 5 2
v -11 5 2
v -10 5 2
v -9 5 2
v -1 5 2
v 0 5 2
v 13 5 2
v 14 5 2
v 19 5 2
v 20 5 2
v -20 5 1
v -19 5 1
v -14 5 1
v -13 5 1
v -12 5 1
v 3 5 1
v 4 5 1
v 5 5 1
v 19 5 1
v 20 5 1
v -20 5 -0
v -19 5 -0
v -13 5 -0
v -12 5 -0
v -10 5 -0
v -9 5 -0
v -8 5 -0
v -1 5 -0
v 0 5 -0
v 1 5 -0
v 8 5 -0
v 9 5 -0
v 13 5 -0
v 14 5 -0
v 15 5 -0
v -20 5 -1
v -19 5 -1
v 4 5 -1
v 5 5 -1
v 6 5 -1
v -9 5 -2
v -8 5 -2
v 0 5 -2
v 1 5 -2
v 2 5 -2
v -20 5 -3
v -19 5 -3
v -17 5 -3
v -16 5 -3
v 5 5 -3
v 6 5 -3
v -20 5 -4
v -19 5 -4
v 8 5 -4
v 9 5 -4
v 10 5 -4
v 14 5 -4
v 15 5 -4
v 16 5 -4
v 19 5 -4
v 20 5 -4
v 1 5 -5
v 2 5 -5
v 3 5 -5
v -20 5 -6
v -19 5 -6
v -4 5 -6
v -3 5 -6
v 15 5 -6
v 16 5 -6
v 19 5 -6
v 20 5 -6
v -9 5 -7
v -8 5 -7
v 2 5 -7
v 3 5 -7
v 4 5 -7
v 19 5 -7
v 20 5 -7
v -17 5 -8
v -16 5 -8
v -13 5 -8
v -12 5 -8
v -9 5 -8
v -8 5 -8
v -7 5 -8
v -4 5 -8
v -3 5 -8
v -2 5 -8
v 9 5 -8
v 10 5 -8
v 19 5 -8
v 20 5 -8
v 3 5 -9
v 4 5 -9
v 19 5 -9
v 20 5 -9
v -20 5 -10
v -19 5 -10
v -13 5 -10
v -12 5 -10
v -11 5 -10
v -8 5 -10
v -7 5 -10
v -6 5 -10
v -3 5 -10
v -2 5 -10
v -1 5 -10
v 19 5 -10
v 20 5 -10
v -20 5 -12
v -19 5 -12
v -7 5 -12
v -6 5 -12
v 19 5 -12
v 20 5 -12
v -20 5 -13
v -19 5 -13
v -2 5 -13
v -1 5 -13
v 0 5 -13
v 9 5 -13
v 10 5 -13
v 19 5 -13
v 20 5 -13
v -20 5 -14
v -19 5 -14
v -12 5 -14
v -11 5 -14
v -10 5 -14
v 9 5 -14
v 10 5 -14
v 11 5 -14
v -20 5 -15
v -19 5 -15
v -1 5 -15
v 0 5 -15
v 10 5 -15
v 11 5 -15
v 13 5 -15
v 19 5 -15
v 20 5 -15
v -20 5 -16
v -19 5 -16
v -11 5 -16
v -10 5 -16
v 11 5 -16
v 13 5 -16
v 14 5 -16
v 19 5 -16
v 20 5 -16
v -20 5 -17
v -19 5 -17
v 13 5 -17
v 14 5 -17
v 15 5 -17
v 19 5 -17
v 20 5 -17
v -20 5 -18
v -19 5 -18
v 14 5 -18
v 15 5 -18
v 19 5 -18
v 20 5 -18
v -20 5 -19
v -19 5 -19
v -17 5 -19
v -16 5 -19
v -15 5 -19
v -14 5 -19
v -13 5 -19
v -12 5 -19
v -11 5 -19
v -10 5 -19
v -8 5 -19
v -7 5 -19
v -6 5 -19
v -5 5 -19
v -4 5 -19
v -3 5 -19
v -2 5 -19
v -1 5 -19
v 1 5 -19
v 2 5 -19
v 6 5 -19
v 7 5 -19
v 9 5 -19
v 10 5 -19
v 11 5 -19
v 13 5 -19
v 14 5 -19
v 15 5 -19
v 16 5 -19
v 17 5 -19
v 19 5 -19
v -20 5 -20
v -19 5 -20
v -17 5 -20
v -16 5 -20
v -15 5 -20
v -14 5 -20
v -13 5 -20
v -12 5 -20
v -11 5 -20
v -10 5 -20
v -8 5 -20
v -7 5 -20
v -6 5 -20
v -5 5 -20
v -4 5 -20
v -3 5 -20
v -2 5 -20
v -1 5 -20
v 1 5 -20
v 2 5 -20
v 6 5 -20
v 7 5 -20
v 9 5 -20
v 10 5 -20
v 11 5 -20
v 13 5 -20
v 14 5 -20
v 15 5 -20
v 16 5 -20
v 17 5 -20
v 19 5 -20
v 20 5 -20

# faces
f 18/8/1 2/8/1 1/8/1
f 19/8/1 2/8/1 18/8/1
f 20/7/1 3/7/1 2/7/1
f 20/8/1 2/8/1 19/8/1
f 21/9/1 4/9/1 3/9/1
f 21/7/1 3/7/1 20/7/1
f 22/8/1 5/8/1 4/8/1
f 22/9/1 4/9/1 21/9/1
f 23/8/1 5/8/1 22/8/1
f 24/8/1 5/8/1 23/8/1
f 25/9/1 6/9/1 5/9/1
f 25/8/1 5/8/1 24/8/1
f 26/8/1 7/8/1 6/8/1
f 26/9/1 6/9/1 25/9/1
f 27/8/1 7/8/1 26/8/1
f 28/7/1 8/7/1 7/7/1
f 28/8/1 7/8/1 27/8/1
f 29/8/1 9/8/1 8/8/1
f 29/7/1 8/7/1 28/7/1
f 30/8/1 9/8/1 29/8/1
f 31/8/1 9/8/1 30/8/1
f 32/8/1 9/8/1 31/8/1
f 33/7/1 10/7/1 9/7/1
f 33/8/1 9/8/1 32/8/1
f 34/7/1 10/7/1 33/7/1
f 35/8/1 11/8/1 10/8/1
f 35/7/1 10/7/1 34/7/1
f 36/8/1 11/8/1 35/8/1
f 37/8/1 11/8/1 36/8/1
f 38/7/1 12/7/1 11/7/1
f 38/8/1 11/8/1 37/8/1
f 39/8/1 13/8/1 12/8/1
f 39/7/1 12/7/1 38/7/1
f 40/4/1 14/4/1 13/4/1
f 40/8/1 13/8/1 39/8/1
f 41/8/1 15/8/1 14/8/1
f 41/4/1 14/4/1 40/4/1
f 42/9/1 16/9/1 15/9/1
f 42/8/1 15/8/1 41/8/1
f 43/8/1 17/8/1 16/8/1
f 43/9/1 16/9/1 42/9/1
f 44/8/1 17/8/1 43/8/1
f 45/8/1 17/8/1 44/8/1
f 46/8/1 18/8/1 1/8/1
f 47/5/1 19/5/1 18/5/1
f 47/8/1 18/8/1 46/8/1
f 48/9/1 20/9/1 19/9/1
f 48/5/1 19/5/1 47/5/1
f 49/8/1 21/8/1 20/8/1
f 49/9/1 20/9/1 48/9/1
f 49/8/1 22/8/1 21/8/1
f 49/8/1 23/8/1 22/8/1
f 50/8/1 23/8/1 49/8/1
f 51/8/1 23/8/1 50/8/1
f 52/8/1 23/8/1 51/8/1
f 53/7/1 24/7/1 23/7/1
f 53/8/1 23/8/1 52/8/1
f 54/8/1 25/8/1 24/8/1
f 54/7/1 24/7/1 53/7/1
f 54/8/1 27/8/1 26/8/1
f 54/8/1 26/8/1 25/8/1
f 55/8/1 27/8/1 54/8/1
f 56/7/1 28/7/1 27/7/1
f 56/8/1 27/8/1 55/8/1
f 57/8/1 29/8/1 28/8/1
f 57/7/1 28/7/1 56/7/1
f 57/8/1 30/8/1 29/8/1
f 58/8/1 30/8/1 57/8/1
f 59/9/1 31/9/1 30/9/1
f 59/8/1 30/8/1 58/8/1
f 60/8/1 32/8/1 31/8/1
f 60/9/1 31/9/1 59/9/1
f 61/8/1 32/8/1 60/8/1
f 62/9/1 33/9/1 32/9/1
f 62/8/1 32/8/1 61/8/1
f 63/5/1 34/5/1 33/5/1
f 63/9/1 33/9/1 62/9/1
f 64/8/1 35/8/1 34/8/1
f 64/5/1 34/5/1 63/5/1
f 64/8/1 36/8/1 35/8/1
f 65/9/1 37/9/1 36/9/1
f 65/8/1 36/8/1 64/8/1
f 66/8/1 38/8/1 37/8/1
f 66/9/1 37/9/1 65/9/1
f 66/8/1 39/8/1 38/8/1
f 66/8/1 40/8/1 39/8/1
f 66/8/1 41/8/1 40/8/1
f 67/8/1 41/8/1 66/8/1
f 68/8/1 41/8/1 67/8/1
f 69/8/1 41/8/1 68/8/1
f 70/9/1 42/9/1 41/9/1
f 70/8/1 41/8/1 69/8/1
f 71/9/1 42/9/1 70/9/1
f 72/8/1 43/8/1 42/8/1
f 72/9/1 42/9/1 71/9/1
f 72/8/1 44/8/1 43/8/1
f 73/7/1 45/7/1 44/7/1
f 73/8/1 44/8/1 72/8/1
f 74/8/1 17/8/1 45/8/1
f 74/7/1 45/7/1 73/7/1
f 75/8/1 17/8/1 74/8/1
f 76/4/1 47/4/1 46/4/1
f 77/7/1 48/7/1 47/7/1
f 77/4/1 47/4/1 76/4/1
f 77/7/1 49/7/1 48/7/1
f 77/7/1 50/7/1 49/7/1
f 78/7/1 50/7/1 77/7/1
f 79/9/1 51/9/1 50/9/1
f 79/7/1 50/7/1 78/7/1
f 80/4/1 52/4/1 51/4/1
f 80/9/1 51/9/1 79/9/1
f 81/9/1 53/9/1 52/9/1
f 81/4/1 52/4/1 80/4/1
f 82/4/1 54/4/1 53/4/1
f 82/9/1 53/9/1 81/9/1
f 83/5/1 55/5/1 54/5/1
f 83/4/1 54/4/1 82/4/1
f 84/5/1 55/5/1 83/5/1
f 85/7/1 57/7/1 56/7/1
f 85/5/1 55/5/1 84/5/1
f 85/7/1 56/7/1 55/7/1
f 86/7/1 57/7/1 85/7/1
f 87/7/1 57/7/1 86/7/1
f 88/9/1 58/9/1 57/9/1
f 88/7/1 57/7/1 87/7/1
f 89/6/1 59/6/1 58/6/1
f 89/9/1 58/9/1 88/9/1
f 90/9/1 60/9/1 59/9/1
f 90/6/1 59/6/1 89/6/1
f 91/6/1 61/6/1 60/6/1
f 91/9/1 60/9/1 90/9/1
f 92/7/1 62/7/1 61/7/1
f 92/6/1 61/6/1 91/6/1
f 93/5/1 64/5/1 63/5/1
f 93/7/1 62/7/1 92/7/1
f 93/5/1 63/5/1 62/5/1
f 94/5/1 64/5/1 93/5/1
f 95/7/1 65/7/1 64/7/1
f 95/5/1 64/5/1 94/5/1
f 95/7/1 66/7/1 65/7/1
f 96/7/1 66/7/1 95/7/1
f 97/7/1 66/7/1 96/7/1
f 98/9/1 67/9/1 66/9/1
f 98/7/1 66/7/1 97/7/1
f 99/11/1 68/11/1 67/11/1
f 99/9/1 67/9/1 98/9/1
f 100/7/1 69/7/1 68/7/1
f 100/11/1 68/11/1 99/11/1
f 101/9/1 70/9/1 69/9/1
f 101/7/1 69/7/1 100/7/1
f 102/9/1 70/9/1 101/9/1
f 103/11/1 71/11/1 70/11/1
f 103/9/1 70/9/1 102/9/1
f 104/7/1 73/7/1 72/7/1
f 104/11/1 71/11/1 103/11/1
f 104/7/1 72/7/1 71/7/1
f 105/7/1 73/7/1 104/7/1
f 106/7/1 73/7/1 105/7/1
f 107/11/1 74/11/1 73/11/1
f 107/7/1 73/7/1 106/7/1
f 108/4/1 75/4/1 74/4/1
f 108/11/1 74/11/1 107/11/1
f 109/4/1 76/4/1 46/4/1
f 109/9/1 78/9/1 77/9/1
f 109/9/1 77/9/1 76/9/1
f 110/9/1 78/9/1 109/9/1
f 111/9/1 78/9/1 110/9/1
f 112/9/1 78/9/1 111/9/1
f 113/11/1 79/11/1 78/11/1
f 113/9/1 78/9/1 112/9/1
f 114/7/1 80/7/1 79/7/1
f 114/11/1 79/11/1 113/11/1
f 114/7/1 81/7/1 80/7/1
f 115/5/1 82/5/1 81/5/1
f 115/7/1 81/7/1 114/7/1
f 115/5/1 83/5/1 82/5/1
f 116/7/1 84/7/1 83/7/1
f 116/5/1 83/5/1 115/5/1
f 117/5/1 85/5/1 84/5/1
f 117/7/1 84/7/1 116/7/1
f 118/4/1 86/4/1 85/4/1
f 118/5/1 85/5/1 117/5/1
f 119/6/1 88/6/1 87/6/1
f 119/11/1 87/11/1 86/11/1
f 120/6/1 88/6/1 119/6/1
f 121/9/1 91/9/1 90/9/1
f 121/6/1 88/6/1 120/6/1
f 121/9/1 90/9/1 89/9/1
f 121/9/1 89/9/1 88/9/1
f 122/9/1 91/9/1 121/9/1
f 123/9/1 91/9/1 122/9/1
f 124/7/1 92/7/1 91/7/1
f 124/9/1 91/9/1 123/9/1
f 124/7/1 93/7/1 92/7/1
f 125/7/1 93/7/1 124/7/1
f 126/7/1 93/7/1 125/7/1
f 127/11/1 94/11/1 93/11/1
f 127/7/1 93/7/1 126/7/1
f 128/5/1 95/5/1 94/5/1
f 128/11/1 94/11/1 127/11/1
f 128/5/1 96/5/1 95/5/1
f 129/5/1 96/5/1 128/5/1
f 130/7/1 97/7/1 96/7/1
f 130/5/1 96/5/1 129/5/1
f 131/9/1 99/9/1 98/9/1
f 131/7/1 97/7/1 130/7/1
f 131/9/1 98/9/1 97/9/1
f 132/7/1 100/7/1 99/7/1
f 132/9/1 99/9/1 131/9/1
f 133/11/1 102/11/1 101/11/1
f 133/7/1 100/7/1 132/7/1
f 133/11/1 101/11/1 100/11/1
f 134/7/1 103/7/1 102/7/1
f 134/11/1 102/11/1 133/11/1
f 134/7/1 104/7/1 103/7/1
f 135/7/1 104/7/1 134/7/1
f 136/11/1 105/11/1 104/11/1
f 136/7/1 104/7/1 135/7/1
f 137/4/1 106/4/1 105/4/1
f 137/11/1 105/11/1 136/11/1
f 138/11/1 107/11/1 106/11/1
f 138/4/1 106/4/1 137/4/1
f 139/11/1 107/11/1 138/11/1
f 140/7/1 108/7/1 107/7/1
f 140/11/1 107/11/1 139/11/1
f 141/4/1 75/4/1 108/4/1
f 141/7/1 108/7/1 140/7/1
f 142/4/1 75/4/1 141/4/1
f 143/4/1 109/4/1 46/4/1
f 144/5/1 110/5/1 109/5/1
f 144/4/1 109/4/1 143/4/1
f 145/9/1 111/9/1 110/9/1
f 145/5/1 110/5/1 144/5/1
f 146/5/1 112/5/1 111/5/1
f 146/9/1 111/9/1 145/9/1
f 147/11/1 113/11/1 112/11/1
f 147/5/1 112/5/1 146/5/1
f 148/9/1 114/9/1 113/9/1
f 148/11/1 113/11/1 147/11/1
f 149/11/1 115/11/1 114/11/1
f 149/9/1 114/9/1 148/9/1
f 150/7/1 116/7/1 115/7/1
f 150/11/1 115/11/1 149/11/1
f 151/11/1 117/11/1 116/11/1
f 151/7/1 116/7/1 150/7/1
f 152/9/1 118/9/1 117/9/1
f 152/11/1 117/11/1 151/11/1
f 153/4/1 86/4/1 118/4/1
f 153/9/1 118/9/1 152/9/1
f 154/11/1 119/11/1 86/11/1
f 154/4/1 86/4/1 153/4/1
f 155/7/1 120/7/1 119/7/1
f 155/11/1 119/11/1 154/11/1
f 156/11/1 121/11/1 120/11/1
f 156/7/1 120/7/1 155/7/1
f 157/9/1 122/9/1 121/9/1
f 157/11/1 121/11/1 156/11/1
f 158/11/1 123/11/1 122/11/1
f 158/9/1 122/9/1 157/9/1
f 159/9/1 124/9/1 123/9/1
f 159/11/1 123/11/1 158/11/1
f 160/11/1 125/11/1 124/11/1
f 160/9/1 124/9/1 159/9/1
f 161/9/1 126/9/1 125/9/1
f 161/11/1 125/11/1 160/11/1
f 162/11/1 128/11/1 127/11/1
f 162/9/1 126/9/1 161/9/1
f 162/11/1 127/11/1 126/11/1
f 163/9/1 129/9/1 128/9/1
f 163/11/1 128/11/1 162/11/1
f 164/11/1 130/11/1 129/11/1
f 164/9/1 129/9/1 163/9/1
f 165/4/1 132/4/1 131/4/1
f 165/11/1 130/11/1 164/11/1
f 165/4/1 133/4/1 132/4/1
f 165/4/1 131/4/1 130/4/1
f 166/7/1 134/7/1 133/7/1
f 166/4/1 133/4/1 165/4/1
f 167/4/1 135/4/1 134/4/1
f 167/7/1 134/7/1 166/7/1
f 168/11/1 136/11/1 135/11/1
f 168/4/1 135/4/1 167/4/1
f 169/4/1 137/4/1 136/4/1
f 169/11/1 136/11/1 168/11/1
f 170/9/1 138/9/1 137/9/1
f 170/4/1 137/4/1 169/4/1
f 171/11/1 139/11/1 138/11/1
f 171/9/1 138/9/1 170/9/1
f 172/7/1 140/7/1 139/7/1
f 172/11/1 139/11/1 171/11/1
f 173/11/1 141/11/1 140/11/1
f 173/7/1 140/7/1 172/7/1
f 174/7/1 142/7/1 141/7/1
f 174/11/1 141/11/1 173/11/1
f 175/7/1 142/7/1 174/7/1
f 176/8/2 177/8/2 202/8/2
f 177/7/2 178/7/2 202/7/2
f 202/7/2 178/7/2 203/7/2
f 178/4/2 179/4/2 204/4/2
f 203/7/2 178/7/2 204/7/2
f 204/4/2 179/4/2 205/4/2
f 179/8/2 180/8/2 206/8/2
f 205/4/2 179/4/2 206/4/2
f 180/1/2 181/1/2 207/1/2
f 206/8/2 180/8/2 207/8/2
f 207/1/2 181/1/2 208/1/2
f 181/8/2 182/8/2 209/8/2
f 208/1/2 181/1/2 209/1/2
f 182/1/2 183/1/2 210/1/2
f 209/8/2 182/8/2 210/8/2
f 183/8/2 184/8/2 211/8/2
f 210/1/2 183/1/2 211/1/2
f 184/1/2 185/1/2 212/1/2
f 211/8/2 184/8/2 212/8/2
f 185/9/2 186/9/2 213/9/2
f 212/1/2 185/1/2 213/1/2
f 186/1/2 187/1/2 214/1/2
f 213/9/2 186/9/2 214/9/2
f 214/1/2 187/1/2 215/1/2
f 187/4/2 188/4/2 216/4/2
f 215/1/2 187/1/2 216/1/2
f 188/1/2 189/1/2 217/1/2
f 216/4/2 188/4/2 217/4/2
f 189/4/2 190/4/2 218/4/2
f 190/1/2 191/1/2 218/1/2
f 218/1/2 191/1/2 219/1/2
f 191/4/2 192/4/2 220/4/2
f 219/1/2 191/1/2 220/1/2
f 192/8/2 193/8/2 221/8/2
f 220/4/2 192/4/2 221/4/2
f 193/1/2 194/1/2 222/1/2
f 221/8/2 193/8/2 222/8/2
f 222/1/2 194/1/2 223/1/2
f 194/4/2 195/4/2 224/4/2
f 223/1/2 194/1/2 224/1/2
f 224/4/2 195/4/2 225/4/2
f 195/6/2 196/6/2 226/6/2
f 225/4/2 195/4/2 226/4/2
f 196/4/2 197/4/2 227/4/2
f 226/6/2 196/6/2 227/6/2
f 197/9/2 198/9/2 228/9/2
f 227/4/2 197/4/2 228/4/2
f 198/4/2 199/4/2 229/4/2
f 199/9/2 200/9/2 230/9/2
f 229/4/2 199/4/2 230/4/2
f 200/4/2 201/4/2 231/4/2
f 230/9/2 200/9/2 231/9/2
f 231/4/2 201/4/2 232/4/2
f 232/4/2 201/4/2 233/4/2
f 176/8/2 202/8/2 234/8/2
f 202/9/2 203/9/2 235/9/2
f 234/8/2 202/8/2 235/8/2
f 235/9/2 203/9/2 236/9/2
f 203/4/2 204/4/2 237/4/2
f 236/9/2 203/9/2 237/9/2
f 204/6/2 205/6/2 238/6/2
f 237/4/2 204/4/2 238/4/2
f 205/7/2 206/7/2 239/7/2
f 238/6/2 205/6/2 239/6/2
f 239/7/2 206/7/2 240/7/2
f 206/9/2 207/9/2 241/9/2
f 240/7/2 206/7/2 241/7/2
f 208/9/2 209/9/2 242/9/2
f 209/1/2 210/1/2 242/1/2
f 210/1/2 211/1/2 242/1/2
f 211/4/2 212/4/2 243/4/2
f 242/1/2 211/1/2 243/1/2
f 212/1/2 213/1/2 244/1/2
f 243/4/2 212/4/2 244/4/2
f 213/1/2 214/1/2 244/1/2
f 214/4/2 215/4/2 245/4/2
f 244/1/2 214/1/2 245/1/2
f 215/1/2 216/1/2 246/1/2
f 245/4/2 215/4/2 246/4/2
f 216/1/2 217/1/2 246/1/2
f 217/1/2 189/1/2 247/1/2
f 246/1/2 217/1/2 247/1/2
f 218/4/2 219/4/2 248/4/2
f 247/1/2 189/1/2 248/1/2
f 189/4/2 218/4/2 248/4/2
f 248/4/2 219/4/2 249/4/2
f 219/1/2 220/1/2 250/1/2
f 249/4/2 219/4/2 250/4/2
f 220/8/2 221/8/2 251/8/2
f 250/1/2 220/1/2 251/1/2
f 251/8/2 221/8/2 252/8/2
f 221/1/2 222/1/2 253/1/2
f 252/8/2 221/8/2 253/8/2
f 222/9/2 223/9/2 254/9/2
f 253/1/2 222/1/2 254/1/2
f 254/9/2 223/9/2 255/9/2
f 224/4/2 225/4/2 256/4/2
f 255/9/2 223/9/2 256/9/2
f 223/4/2 224/4/2 256/4/2
f 256/4/2 225/4/2 257/4/2
f 225/6/2 226/6/2 258/6/2
f 257/4/2 225/4/2 258/4/2
f 226/4/2 227/4/2 259/4/2
f 258/6/2 226/6/2 259/6/2
f 227/8/2 228/8/2 260/8/2
f 259/4/2 227/4/2 260/4/2
f 228/9/2 198/9/2 261/9/2
f 260/8/2 228/8/2 261/8/2
f 198/4/2 229/4/2 262/4/2
f 261/9/2 198/9/2 262/9/2
f 229/6/2 230/6/2 263/6/2
f 262/4/2 229/4/2 263/4/2
f 231/6/2 232/6/2 263/6/2
f 230/6/2 231/6/2 263/6/2
f 263/6/2 232/6/2 264/6/2
f 232/9/2 233/9/2 265/9/2
f 264/6/2 232/6/2 265/6/2
f 236/7/2 237/7/2 266/7/2
f 235/9/2 236/9/2 266/9/2
f 237/9/2 238/9/2 267/9/2
f 266/7/2 237/7/2 267/7/2
f 238/7/2 239/7/2 268/7/2
f 267/9/2 238/9/2 268/9/2
f 239/7/2 240/7/2 268/7/2
f 268/7/2 240/7/2 269/7/2
f 240/6/2 241/6/2 270/6/2
f 269/7/2 240/7/2 270/7/2
f 241/9/2 207/9/2 271/9/2
f 270/6/2 241/6/2 271/6/2
f 207/7/2 208/7/2 272/7/2
f 271/9/2 207/9/2 272/9/2
f 208/9/2 242/9/2 273/9/2
f 272/7/2 208/7/2 273/7/2
f 242/9/2 243/9/2 273/9/2
f 273/9/2 243/9/2 274/9/2
f 243/7/2 244/7/2 275/7/2
f 274/9/2 243/9/2 275/9/2
f 244/4/2 245/4/2 276/4/2
f 275/7/2 244/7/2 276/7/2
f 276/4/2 245/4/2 277/4/2
f 245/1/2 246/1/2 278/1/2
f 277/4/2 245/4/2 278/4/2
f 246/1/2 247/1/2 278/1/2
f 278/1/2 247/1/2 279/1/2
f 279/1/2 247/1/2 280/1/2
f 247/4/2 248/4/2 281/4/2
f 280/1/2 247/1/2 281/1/2
f 248/6/2 249/6/2 282/6/2
f 281/4/2 248/4/2 282/4/2
f 249/4/2 250/4/2 283/4/2
f 282/6/2 249/6/2 283/6/2
f 251/4/2 252/4/2 283/4/2
f 250/4/2 251/4/2 283/4/2
f 252/1/2 253/1/2 284/1/2
f 283/4/2 252/4/2 284/4/2
f 254/7/2 255/7/2 285/7/2
f 284/1/2 253/1/2 285/1/2
f 253/7/2 254/7/2 285/7/2
f 256/4/2 257/4/2 286/4/2
f 285/7/2 255/7/2 286/7/2
f 255/4/2 256/4/2 286/4/2
f 257/9/2 258/9/2 287/9/2
f 286/4/2 257/4/2 287/4/2
f 261/4/2 262/4/2 288/4/2
f 287/9/2 258/9/2 288/9/2
f 260/4/2 261/4/2 288/4/2
f 259/4/2 260/4/2 288/4/2
f 258/4/2 259/4/2 288/4/2
f 288/4/2 262/4/2 289/4/2
f 262/6/2 263/6/2 290/6/2
f 289/4/2 262/4/2 290/4/2
f 263/7/2 264/7/2 291/7/2
f 290/6/2 263/6/2 291/6/2
f 264/4/2 265/4/2 292/4/2
f 291/7/2 264/7/2 292/7/2
f 292/4/2 265/4/2 293/4/2
f 234/4/2 235/4/2 294/4/2
f 235/9/2 266/9/2 295/9/2
f 294/4/2 235/4/2 295/4/2
f 266/4/2 267/4/2 296/4/2
f 295/9/2 266/9/2 296/9/2
f 267/7/2 268/7/2 297/7/2
f 296/4/2 267/4/2 297/4/2
f 270/7/2 271/7/2 298/7/2
f 269/7/2 270/7/2 298/7/2
f 268/9/2 269/9/2 298/9/2
f 271/7/2 272/7/2 298/7/2
f 273/7/2 274/7/2 298/7/2
f 272/7/2 273/7/2 298/7/2
f 298/7/2 274/7/2 299/7/2
f 299/7/2 274/7/2 300/7/2
f 300/7/2 274/7/2 301/7/2
f 301/7/2 274/7/2 302/7/2
f 274/4/2 275/4/2 303/4/2
f 302/7/2 274/7/2 303/7/2
f 276/9/2 277/9/2 304/9/2
f 303/4/2 275/4/2 304/4/2
f 275/9/2 276/9/2 304/9/2
f 304/9/2 277/9/2 305/9/2
f 305/9/2 277/9/2 306/9/2
f 277/4/2 278/4/2 307/4/2
f 306/9/2 277/9/2 307/9/2
f 278/4/2 279/4/2 307/4/2
f 279/8/2 280/8/2 308/8/2
f 307/4/2 279/4/2 308/4/2
f 280/4/2 281/4/2 309/4/2
f 308/8/2 280/8/2 309/8/2
f 281/4/2 282/4/2 309/4/2
f 309/4/2 282/4/2 310/4/2
f 282/9/2 283/9/2 311/9/2
f 310/4/2 282/4/2 311/4/2
f 283/9/2 284/9/2 311/9/2
f 311/9/2 284/9/2 312/9/2
f 284/1/2 285/1/2 313/1/2
f 312/9/2 284/9/2 313/9/2
f 285/9/2 286/9/2 314/9/2
f 313/1/2 285/1/2 314/1/2
f 314/9/2 286/9/2 315/9/2
f 286/4/2 287/4/2 316/4/2
f 315/9/2 286/9/2 316/9/2
f 287/4/2 288/4/2 316/4/2
f 316/4/2 288/4/2 317/4/2
f 317/4/2 288/4/2 318/4/2
f 288/8/2 289/8/2 319/8/2
f 318/4/2 288/4/2 319/4/2
f 319/8/2 289/8/2 320/8/2
f 289/9/2 290/9/2 321/9/2
f 320/8/2 289/8/2 321/8/2
f 291/4/2 292/4/2 322/4/2
f 321/9/2 290/9/2 322/9/2
f 290/4/2 291/4/2 322/4/2
f 322/4/2 292/4/2 323/4/2
f 292/9/2 293/9/2 324/9/2
f 323/4/2 292/4/2 324/4/2
f 265/9/2 233/9/2 325/9/2
f 293/4/2 265/4/2 325/4/2
f 325/9/2 233/9/2 326/9/2
f 294/7/2 295/7/2 327/7/2
f 295/9/2 296/9/2 328/9/2
f 327/7/2 295/7/2 328/7/2
f 296/7/2 297/7/2 329/7/2
f 328/9/2 296/9/2 329/9/2
f 297/7/2 268/7/2 330/7/2
f 329/7/2 297/7/2 330/7/2
f 268/9/2 298/9/2 330/9/2
f 298/8/2 299/8/2 331/8/2
f 330/9/2 298/9/2 331/9/2
f 299/11/2 300/11/2 332/11/2
f 331/8/2 299/8/2 332/8/2
f 300/8/2 301/8/2 333/8/2
f 332/11/2 300/11/2 333/11/2
f 301/7/2 302/7/2 334/7/2
f 333/8/2 301/8/2 334/8/2
f 302/8/2 303/8/2 335/8/2
f 334/7/2 302/7/2 335/7/2
f 303/11/2 304/11/2 336/11/2
f 335/8/2 303/8/2 336/8/2
f 304/4/2 305/4/2 337/4/2
f 336/11/2 304/11/2 337/11/2
f 305/11/2 306/11/2 338/11/2
f 337/4/2 305/4/2 338/4/2
f 307/4/2 308/4/2 339/4/2
f 338/11/2 306/11/2 339/11/2
f 308/4/2 309/4/2 339/4/2
f 306/4/2 307/4/2 339/4/2
f 309/6/2 310/6/2 340/6/2
f 339/4/2 309/4/2 340/4/2
f 311/4/2 312/4/2 341/4/2
f 340/6/2 310/6/2 341/6/2
f 310/4/2 311/4/2 341/4/2
f 313/9/2 314/9/2 342/9/2
f 341/4/2 312/4/2 342/4/2
f 312/9/2 313/9/2 342/9/2
f 314/11/2 315/11/2 343/11/2
f 342/9/2 314/9/2 343/9/2
f 315/8/2 316/8/2 344/8/2
f 343/11/2 315/11/2 344/11/2
f 316/11/2 317/11/2 345/11/2
f 344/8/2 316/8/2 345/8/2
f 317/8/2 318/8/2 346/8/2
f 345/11/2 317/11/2 346/11/2
f 319/7/2 320/7/2 347/7/2
f 346/8/2 318/8/2 347/8/2
f 318/7/2 319/7/2 347/7/2
f 320/8/2 321/8/2 348/8/2
f 347/7/2 320/7/2 348/7/2
f 321/11/2 322/11/2 349/11/2
f 348/8/2 321/8/2 349/8/2
f 322/4/2 323/4/2 350/4/2
f 349/11/2 322/11/2 350/11/2
f 323/8/2 324/8/2 351/8/2
f 350/4/2 323/4/2 351/4/2
f 324/9/2 293/9/2 352/9/2
f 351/8/2 324/8/2 352/8/2
f 293/4/2 325/4/2 353/4/2
f 352/9/2 293/9/2 353/9/2
f 325/4/2 326/4/2 353/4/2
f 353/4/2 326/4/2 354/4/2
f 358/4/3 357/4/3 356/4/3
f 359/4/3 357/4/3 358/4/3
f 360/4/3 357/4/3 359/4/3
f 361/8/3 356/8/3 355/8/3
f 362/4/3 358/4/3 356/4/3
f 362/8/3 356/8/3 361/8/3
f 363/8/3 359/8/3 358/8/3
f 363/4/3 358/4/3 362/4/3
f 364/11/3 360/11/3 359/11/3
f 364/8/3 359/8/3 363/8/3
f 365/9/3 362/9/3 361/9/3
f 366/4/3 363/4/3 362/4/3
f 366/9/3 362/9/3 365/9/3
f 366/4/3 364/4/3 363/4/3
f 367/4/3 364/4/3 366/4/3
f 368/11/3 360/11/3 364/11/3
f 368/4/3 364/4/3 367/4/3
f 369/11/3 360/11/3 368/11/3
f 370/9/3 365/9/3 361/9/3
f 371/8/3 366/8/3 365/8/3
f 371/9/3 365/9/3 370/9/3
f 372/4/3 367/4/3 366/4/3
f 372/8/3 366/8/3 371/8/3
f 373/8/3 368/8/3 367/8/3
f 373/4/3 367/4/3 372/4/3
f 374/4/3 369/4/3 368/4/3
f 374/8/3 368/8/3 373/8/3
f 375/4/3 369/4/3 374/4/3
f 376/8/3 371/8/3 370/8/3
f 376/8/3 372/8/3 371/8/3
f 376/8/3 373/8/3 372/8/3
f 377/8/3 373/8/3 376/8/3
f 378/11/3 374/11/3 373/11/3
f 378/8/3 373/8/3 377/8/3
f 379/9/3 375/9/3 374/9/3
f 379/11/3 374/11/3 378/11/3
f 380/9/3 375/9/3 379/9/3
f 381/9/3 377/9/3 376/9/3
f 382/8/3 378/8/3 377/8/3
f 382/9/3 377/9/3 381/9/3
f 383/8/3 378/8/3 382/8/3
f 384/9/3 379/9/3 378/9/3
f 384/8/3 378/8/3 383/8/3
f 385/9/3 383/9/3 382/9/3
f 385/8/3 382/8/3 381/8/3
f 386/11/3 384/11/3 383/11/3
f 386/9/3 383/9/3 385/9/3
f 387/9/3 379/9/3 384/9/3
f 387/11/3 384/11/3 386/11/3
f 388/11/3 380/11/3 379/11/3
f 388/9/3 379/9/3 387/9/3
f 389/8/3 386/8/3 385/8/3
f 389/8/3 385/8/3 381/8/3
f 390/8/3 386/8/3 389/8/3
f 391/11/3 387/11/3 386/11/3
f 391/8/3 386/8/3 390/8/3
f 392/8/3 388/8/3 387/8/3
f 392/11/3 387/11/3 391/11/3
f 393/11/3 380/11/3 388/11/3
f 393/8/3 388/8/3 392/8/3
f 394/11/3 380/11/3 393/11/3
f 395/9/3 390/9/3 389/9/3
f 396/8/3 391/8/3 390/8/3
f 396/9/3 390/9/3 395/9/3
f 397/9/3 392/9/3 391/9/3
f 397/8/3 391/8/3 396/8/3
f 398/8/3 393/8/3 392/8/3
f 398/9/3 392/9/3 397/9/3
f 399/9/3 394/9/3 393/9/3
f 399/8/3 393/8/3 398/8/3
f 400/9/3 394/9/3 399/9/3
f 401/8/3 396/8/3 395/8/3
f 401/8/3 397/8/3 396/8/3
f 401/11/3 398/11/3 397/11/3
f 402/4/3 399/4/3 398/4/3
f 402/11/3 398/11/3 401/11/3
f 403/11/3 400/11/3 399/11/3
f 403/4/3 399/4/3 402/4/3
f 404/11/3 400/11/3 403/11/3
f 405/8/3 401/8/3 395/8/3
f 406/8/3 401/8/3 405/8/3
f 407/9/3 402/9/3 401/9/3
f 407/8/3 401/8/3 406/8/3
f 408/4/3 403/4/3 402/4/3
f 408/9/3 402/9/3 407/9/3
f 408/4/3 404/4/3 403/4/3
f 409/4/3 404/4/3 408/4/3
f 410/9/3 406/9/3 405/9/3
f 411/8/3 407/8/3 406/8/3
f 411/9/3 406/9/3 410/9/3
f 412/11/3 408/11/3 407/11/3
f 412/8/3 407/8/3 411/8/3
f 413/9/3 409/9/3 408/9/3
f 413/11/3 408/11/3 412/11/3
f 414/8/3 411/8/3 410/8/3
f 414/9/3 409/9/3 413/9/3
f 414/8/3 413/8/3 412/8/3
f 414/8/3 412/8/3 411/8/3
f 415/4/3 404/4/3 409/4/3
f 415/9/3 409/9/3 414/9/3
f 416/4/3 404/4/3 415/4/3
f 417/8/3 414/8/3 410/8/3
f 418/8/3 414/8/3 417/8/3
f 419/11/3 415/11/3 414/11/3
f 419/8/3 414/8/3 418/8/3
f 420/9/3 416/9/3 415/9/3
f 420/11/3 415/11/3 419/11/3
f 421/9/3 416/9/3 420/9/3
f 422/9/3 418/9/3 417/9/3
f 423/11/3 419/11/3 418/11/3
f 423/9/3 418/9/3 422/9/3
f 424/9/3 420/9/3 419/9/3
f 424/11/3 419/11/3 423/11/3
f 425/4/3 421/4/3 420/4/3
f 425/9/3 420/9/3 424/9/3
f 426/4/3 421/4/3 425/4/3
f 427/8/3 423/8/3 422/8/3
f 427/9/3 424/9/3 423/9/3
f 427/9/3 425/9/3 424/9/3
f 428/9/3 425/9/3 427/9/3
f 429/11/3 426/11/3 425/11/3
f 429/9/3 425/9/3 428/9/3
f 430/11/3 426/11/3 429/11/3
f 431/8/3 428/8/3 427/8/3
f 431/8/3 427/8/3 422/8/3
f 432/8/3 428/8/3 431/8/3
f 433/4/3 430/4/3 429/4/3
f 433/8/3 428/8/3 432/8/3
f 433/4/3 429/4/3 428/4/3
f 434/4/3 430/4/3 433/4/3
f 435/9/3 432/9/3 431/9/3
f 436/8/3 433/8/3 432/8/3
f 436/9/3 432/9/3 435/9/3
f 437/11/3 434/11/3 433/11/3
f 437/8/3 433/8/3 436/8/3
f 438/11/3 434/11/3 437/11/3
f 439/8/3 436/8/3 435/8/3
f 439/8/3 437/8/3 436/8/3
f 440/9/3 438/9/3 437/9/3
f 440/8/3 437/8/3 439/8/3
f 441/9/3 438/9/3 440/9/3
f 442/8/3 439/8/3 435/8/3
f 442/9/3 440/9/3 439/9/3
f 443/11/3 441/11/3 440/11/3
f 443/9/3 440/9/3 442/9/3
f 444/11/3 441/11/3 443/11/3
f 445/8/3 442/8/3 435/8/3
f 446/8/3 442/8/3 445/8/3
f 447/11/3 443/11/3 442/11/3
f 447/8/3 442/8/3 446/8/3
f 448/9/3 444/9/3 443/9/3
f 448/11/3 443/11/3 447/11/3
f 449/9/3 444/9/3 448/9/3
f 450/9/3 444/9/3 449/9/3
f 451/9/3 446/9/3 445/9/3
f 452/8/3 447/8/3 446/8/3
f 452/9/3 446/9/3 451/9/3
f 453/9/3 449/9/3 448/9/3
f 453/11/3 450/11/3 449/11/3
f 454/11/3 450/11/3 453/11/3
f 455/8/3 447/8/3 452/8/3
f 455/8/3 452/8/3 451/8/3
f 456/4/3 448/4/3 447/4/3
f 456/8/3 447/8/3 455/8/3
f 457/9/3 454/9/3 453/9/3
f 457/4/3 448/4/3 456/4/3
f 457/9/3 453/9/3 448/9/3
f 458/9/3 454/9/3 457/9/3
f 459/9/3 454/9/3 458/9/3
f 460/8/3 455/8/3 451/8/3
f 461/4/3 456/4/3 455/4/3
f 461/8/3 455/8/3 460/8/3
f 462/11/3 457/11/3 456/11/3
f 462/4/3 456/4/3 461/4/3
f 463/8/3 458/8/3 457/8/3
f 463/11/3 457/11/3 462/11/3
f 464/11/3 459/11/3 458/11/3
f 464/8/3 458/8/3 463/8/3
f 465/9/3 461/9/3 460/9/3
f 465/9/3 462/9/3 461/9/3
f 466/8/3 463/8/3 462/8/3
f 466/9/3 462/9/3 465/9/3
f 467/11/3 464/11/3 463/11/3
f 467/8/3 463/8/3 466/8/3
f 468/11/3 459/11/3 464/11/3
f 468/11/3 464/11/3 467/11/3
f 469/11/3 459/11/3 468/11/3
f 470/8/3 467/8/3 466/8/3
f 470/8/3 466/8/3 465/8/3
f 470/8/3 468/8/3 467/8/3
f 471/8/3 468/8/3 470/8/3
f 472/9/3 469/9/3 468/9/3
f 472/8/3 468/8/3 471/8/3
f 473/9/3 469/9/3 472/9/3
f 474/8/3 470/8/3 465/8/3
f 475/4/3 471/4/3 470/4/3
f 475/8/3 470/8/3 474/8/3
f 476/9/3 472/9/3 471/9/3
f 476/4/3 471/4/3 475/4/3
f 477/11/3 473/11/3 472/11/3
f 477/9/3 472/9/3 476/9/3
f 478/11/3 473/11/3 477/11/3
f 479/9/3 475/9/3 474/9/3
f 480/8/3 476/8/3 475/8/3
f 480/9/3 475/9/3 479/9/3
f 481/8/3 476/8/3 480/8/3
f 482/4/3 477/4/3 476/4/3
f 482/8/3 476/8/3 481/8/3
f 483/8/3 478/8/3 477/8/3
f 483/4/3 477/4/3 482/4/3
f 484/8/3 478/8/3 483/8/3
f 485/4/3 481/4/3 480/4/3
f 485/8/3 480/8/3 479/8/3
f 486/9/3 482/9/3 481/9/3
f 486/4/3 481/4/3 485/4/3
f 487/4/3 484/4/3 483/4/3
f 487/9/3 482/9/3 486/9/3
f 487/4/3 483/4/3 482/4/3
f 488/4/3 484/4/3 487/4/3
f 489/4/3 484/4/3 488/4/3
f 490/8/3 485/8/3 479/8/3
f 490/8/3 486/8/3 485/8/3
f 491/8/3 486/8/3 490/8/3
f 492/9/3 487/9/3 486/9/3
f 492/8/3 488/8/3 487/8/3
f 493/11/3 489/11/3 488/11/3
f 493/8/3 488/8/3 492/8/3
f 494/11/3 489/11/3 493/11/3
f 495/9/3 491/9/3 490/9/3
f 496/8/3 486/8/3 491/8/3
f 496/9/3 491/9/3 495/9/3
f 497/9/3 492/9/3 486/9/3
f 497/8/3 486/8/3 496/8/3
f 498/11/3 493/11/3 492/11/3
f 498/9/3 492/9/3 497/9/3
f 499/9/3 494/9/3 493/9/3
f 499/11/3 493/11/3 498/11/3
f 500/9/3 494/9/3 499/9/3
f 501/8/3 496/8/3 495/8/3
f 501/8/3 497/8/3 496/8/3
f 502/4/3 498/4/3 497/4/3
f 502/8/3 497/8/3 501/8/3
f 503/9/3 499/9/3 498/9/3
f 503/4/3 498/4/3 502/4/3
f 504/11/3 500/11/3 499/11/3
f 504/9/3 499/9/3 503/9/3
f 505/11/3 500/11/3 504/11/3
f 506/8/3 501/8/3 495/8/3
f 507/9/3 502/9/3 501/9/3
f 507/8/3 501/8/3 506/8/3
f 508/4/3 503/4/3 502/4/3
f 508/9/3 502/9/3 507/9/3
f 508/4/3 504/4/3 503/4/3
f 508/4/3 505/4/3 504/4/3
f 509/4/3 505/4/3 508/4/3
f 510/4/3 505/4/3 509/4/3
f 511/4/3 505/4/3 510/4/3
f 512/9/3 507/9/3 506/9/3
f 513/8/3 508/8/3 507/8/3
f 513/9/3 507/9/3 512/9/3
f 513/8/3 509/8/3 508/8/3
f 514/8/3 509/8/3 513/8/3
f 515/11/3 510/11/3 509/11/3
f 515/8/3 509/8/3 514/8/3
f 516/8/3 511/8/3 510/8/3
f 516/11/3 510/11/3 515/11/3
f 517/8/3 514/8/3 513/8/3
f 517/8/3 513/8/3 512/8/3
f 518/8/3 514/8/3 517/8/3
f 519/11/3 515/11/3 514/11/3
f 519/8/3 514/8/3 518/8/3
f 520/8/3 516/8/3 515/8/3
f 520/11/3 515/11/3 519/11/3
f 521/8/3 511/8/3 516/8/3
f 521/8/3 516/8/3 520/8/3
f 522/8/3 511/8/3 521/8/3
f 523/9/3 518/9/3 517/9/3
f 523/8/3 519/8/3 518/8/3
f 524/4/3 520/4/3 519/4/3
f 524/8/3 519/8/3 523/8/3
f 525/8/3 521/8/3 520/8/3
f 525/4/3 520/4/3 524/4/3
f 526/11/3 522/11/3 521/11/3
f 526/8/3 521/8/3 525/8/3
f 527/11/3 522/11/3 526/11/3
f 528/9/3 523/9/3 517/9/3
f 528/9/3 524/9/3 523/9/3
f 529/11/3 525/11/3 524/11/3
f 529/9/3 524/9/3 528/9/3
f 529/11/3 526/11/3 525/11/3
f 530/4/3 527/4/3 526/4/3
f 530/11/3 526/11/3 529/11/3
f 531/4/3 530/4/3 529/4/3
f 531/4/3 527/4/3 530/4/3
f 532/4/3 527/4/3 531/4/3
f 533/8/3 529/8/3 528/8/3
f 534/4/3 531/4/3 529/4/3
f 534/8/3 529/8/3 533/8/3
f 535/7/3 532/7/3 531/7/3
f 535/4/3 531/4/3 534/4/3
f 536/7/3 532/7/3 535/7/3
f 537/8/4 538/8/4 541/8/4
f 538/4/4 539/4/4 542/4/4
f 541/8/4 538/8/4 542/8/4
f 539/7/4 540/7/4 543/7/4
f 542/4/4 539/4/4 543/4/4
f 543/7/4 540/7/4 544/7/4
f 541/7/4 542/7/4 545/7/4
f 542/4/4 543/4/4 546/4/4
f 545/7/4 542/7/4 546/7/4
f 543/11/4 544/11/4 547/11/4
f 546/4/4 543/4/4 547/4/4
f 545/9/4 546/9/4 548/9/4
f 546/9/4 547/9/4 548/9/4
f 548/9/4 547/9/4 549/9/4
f 549/9/4 547/9/4 550/9/4
f 547/11/4 544/11/4 551/11/4
f 550/9/4 547/9/4 551/9/4
f 551/11/4 544/11/4 552/11/4
f 549/9/4 550/9/4 553/9/4
f 548/5/4 549/5/4 553/5/4
f 551/5/4 552/5/4 554/5/4
f 553/9/4 550/9/4 554/9/4
f 550/5/4 551/5/4 554/5/4
f 554/5/4 552/5/4 555/5/4
f 548/5/4 553/5/4 556/5/4
f 553/4/4 554/4/4 557/4/4
f 556/5/4 553/5/4 557/5/4
f 554/9/4 555/9/4 558/9/4
f 557/4/4 554/4/4 558/4/4
f 558/9/4 555/9/4 559/9/4
f 559/9/4 555/9/4 560/9/4
f 556/9/4 557/9/4 561/9/4
f 557/5/4 558/5/4 562/5/4
f 561/9/4 557/9/4 562/9/4
f 558/5/4 559/5/4 562/5/4
f 562/5/4 559/5/4 563/5/4
f 559/11/4 560/11/4 564/11/4
f 563/5/4 559/5/4 564/5/4
f 564/11/4 560/11/4 565/11/4
f 565/11/4 560/11/4 566/11/4
f 561/5/4 562/5/4 567/5/4
f 562/4/4 563/4/4 568/4/4
f 567/5/4 562/5/4 568/5/4
f 563/9/4 564/9/4 569/9/4
f 568/4/4 563/4/4 569/4/4
f 564/11/4 565/11/4 570/11/4
f 569/9/4 564/9/4 570/9/4
f 565/4/4 566/4/4 571/4/4
f 570/11/4 565/11/4 571/11/4
f 571/4/4 566/4/4 572/4/4
f 567/4/4 568/4/4 573/4/4
f 568/5/4 569/5/4 574/5/4
f 573/4/4 568/4/4 574/4/4
f 570/7/4 571/7/4 575/7/4
f 571/11/4 572/11/4 575/11/4
f 575/11/4 572/11/4 576/11/4
f 573/5/4 574/5/4 577/5/4
f 569/9/4 570/9/4 578/9/4
f 577/5/4 574/5/4 578/5/4
f 574/5/4 569/5/4 578/5/4
f 570/7/4 575/7/4 579/7/4
f 578/9/4 570/9/4 579/9/4
f 575/9/4 576/9/4 580/9/4
f 579/7/4 575/7/4 580/7/4
f 580/9/4 576/9/4 581/9/4
f 577/4/4 578/4/4 582/4/4
f 578/9/4 579/9/4 583/9/4
f 582/4/4 578/4/4 583/4/4
f 579/4/4 580/4/4 584/4/4
f 583/9/4 579/9/4 584/9/4
f 580/11/4 581/11/4 585/11/4
f 584/4/4 580/4/4 585/4/4
f 585/11/4 581/11/4 586/11/4
f 582/9/4 583/9/4 587/9/4
f 587/9/4 583/9/4 588/9/4
f 583/7/4 584/7/4 589/7/4
f 588/9/4 583/9/4 589/9/4
f 584/4/4 585/4/4 590/4/4
f 589/7/4 584/7/4 590/7/4
f 585/4/4 586/4/4 590/4/4
f 590/4/4 586/4/4 591/4/4
f 591/4/4 586/4/4 592/4/4
f 588/4/4 589/4/4 593/4/4
f 589/7/4 590/7/4 593/7/4
f 590/9/4 591/9/4 594/9/4
f 593/7/4 590/7/4 594/7/4
f 591/11/4 592/11/4 595/11/4
f 594/9/4 591/9/4 595/9/4
f 595/11/4 592/11/4 596/11/4
f 587/7/4 588/7/4 597/7/4
f 593/4/4 594/4/4 598/4/4
f 597/7/4 588/7/4 598/7/4
f 588/4/4 593/4/4 598/4/4
f 594/4/4 595/4/4 598/4/4
f 598/4/4 595/4/4 599/4/4
f 599/4/4 595/4/4 600/4/4
f 595/9/4 596/9/4 601/9/4
f 600/4/4 595/4/4 601/4/4
f 601/9/4 596/9/4 602/9/4
f 599/9/4 600/9/4 603/9/4
f 598/7/4 599/7/4 603/7/4
f 601/4/4 602/4/4 604/4/4
f 603/9/4 600/9/4 604/9/4
f 600/4/4 601/4/4 604/4/4
f 604/4/4 602/4/4 605/4/4
f 605/4/4 602/4/4 606/4/4
f 597/9/4 598/9/4 607/9/4
f 598/7/4 603/7/4 608/7/4
f 607/9/4 598/9/4 608/9/4
f 603/7/4 604/7/4 608/7/4
f 605/11/4 606/11/4 609/11/4
f 604/9/4 605/9/4 609/9/4
f 609/11/4 606/11/4 610/11/4
f 607/5/4 608/5/4 611/5/4
f 608/7/4 604/7/4 612/7/4
f 611/5/4 608/5/4 612/5/4
f 612/7/4 604/7/4 613/7/4
f 604/9/4 609/9/4 614/9/4
f 613/7/4 604/7/4 614/7/4
f 609/4/4 610/4/4 615/4/4
f 614/9/4 609/9/4 615/9/4
f 615/4/4 610/4/4 616/4/4
f 611/9/4 612/9/4 617/9/4
f 612/7/4 613/7/4 618/7/4
f 617/9/4 612/9/4 618/9/4
f 613/4/4 614/4/4 619/4/4
f 614/7/4 615/7/4 619/7/4
f 615/11/4 616/11/4 620/11/4
f 619/7/4 615/7/4 620/7/4
f 620/11/4 616/11/4 621/11/4
f 618/7/4 613/7/4 622/7/4
f 617/4/4 618/4/4 622/4/4
f 613/4/4 619/4/4 623/4/4
f 622/7/4 613/7/4 623/7/4
f 619/5/4 620/5/4 624/5/4
f 623/4/4 619/4/4 624/4/4
f 620/9/4 621/9/4 625/9/4
f 624/5/4 620/5/4 625/5/4
f 625/9/4 621/9/4 626/9/4
f 617/4/4 622/4/4 627/4/4
f 622/9/4 623/9/4 627/9/4
f 623/4/4 624/4/4 628/4/4
f 627/9/4 623/9/4 628/9/4
f 624/9/4 625/9/4 629/9/4
f 628/4/4 624/4/4 629/4/4
f 625/11/4 626/11/4 630/11/4
f 629/9/4 625/9/4 630/9/4
f 630/11/4 626/11/4 631/11/4
f 628/9/4 629/9/4 632/9/4
f 629/5/4 630/5/4 632/5/4
f 630/9/4 631/9/4 633/9/4
f 632/5/4 630/5/4 633/5/4
f 633/9/4 631/9/4 634/9/4
f 617/4/4 627/4/4 635/4/4
f 627/7/4 628/7/4 636/7/4
f 635/4/4 627/4/4 636/4/4
f 628/9/4 632/9/4 637/9/4
f 636/7/4 628/7/4 637/7/4
f 635/7/4 636/7/4 638/7/4
f 636/4/4 637/4/4 638/4/4
f 637/9/4 632/9/4 639/9/4
f 638/4/4 637/4/4 639/4/4
f 632/4/4 633/4/4 640/4/4
f 639/9/4 632/9/4 640/9/4
f 633/11/4 634/11/4 641/11/4
f 640/4/4 633/4/4 641/4/4
f 635/7/4 638/7/4 642/7/4
f 638/9/4 639/9/4 643/9/4
f 642/7/4 638/7/4 643/7/4
f 642/5/4 643/5/4 644/5/4
f 643/9/4 639/9/4 645/9/4
f 644/5/4 643/5/4 645/5/4
f 639/4/4 640/4/4 646/4/4
f 640/9/4 641/9/4 646/9/4
f 641/11/4 634/11/4 647/11/4
f 646/9/4 641/9/4 647/9/4
f 647/11/4 634/11/4 648/11/4
f 644/9/4 645/9/4 649/9/4
f 645/9/4 639/9/4 650/9/4
f 649/9/4 645/9/4 650/9/4
f 646/4/4 647/4/4 651/4/4
f 647/9/4 648/9/4 651/9/4
f 651/9/4 648/9/4 652/9/4
f 649/4/4 650/4/4 653/4/4
f 650/9/4 639/9/4 654/9/4
f 653/4/4 650/4/4 654/4/4
f 639/4/4 646/4/4 655/4/4
f 654/9/4 639/9/4 655/9/4
f 646/4/4 651/4/4 655/4/4
f 655/4/4 651/4/4 656/4/4
f 653/9/4 654/9/4 657/9/4
f 654/5/4 655/5/4 658/5/4
f 657/9/4 654/9/4 658/9/4
f 655/9/4 656/9/4 659/9/4
f 658/5/4 655/5/4 659/5/4
f 656/4/4 651/4/4 660/4/4
f 659/9/4 656/9/4 660/9/4
f 651/11/4 652/11/4 661/11/4
f 660/4/4 651/4/4 661/4/4
f 661/11/4 652/11/4 662/11/4
f 659/9/4 660/9/4 663/9/4
f 660/11/4 661/11/4 663/11/4
f 661/4/4 662/4/4 664/4/4
f 663/11/4 661/11/4 664/11/4
f 664/4/4 662/4/4 665/4/4
f 658/7/4 659/7/4 666/7/4
f 657/5/4 658/5/4 666/5/4
f 659/9/4 663/9/4 667/9/4
f 666/7/4 659/7/4 667/7/4
f 663/9/4 664/9/4 667/9/4
f 667/9/4 664/9/4 668/9/4
f 664/11/4 665/11/4 669/11/4
f 668/9/4 664/9/4 669/9/4
f 669/11/4 665/11/4 670/11/4
f 657/5/4 666/5/4 671/5/4
f 666/9/4 667/9/4 672/9/4
f 671/5/4 666/5/4 672/5/4
f 667/4/4 668/4/4 673/4/4
f 672/9/4 667/9/4 673/9/4
f 668/9/4 669/9/4 674/9/4
f 673/4/4 668/4/4 674/4/4
f 669/9/4 670/9/4 674/9/4
f 674/9/4 670/9/4 675/9/4
f 675/9/4 670/9/4 676/9/4
f 671/9/4 672/9/4 677/9/4
f 672/4/4 673/4/4 677/4/4
f 673/5/4 674/5/4 678/5/4
f 677/4/4 673/4/4 678/4/4
f 674/9/4 675/9/4 679/9/4
f 678/5/4 674/5/4 679/5/4
f 675/11/4 676/11/4 680/11/4
f 679/9/4 675/9/4 680/9/4
f 680/11/4 676/11/4 681/11/4
f 678/9/4 679/9/4 682/9/4
f 671/9/4 677/9/4 682/9/4
f 677/9/4 678/9/4 682/9/4
f 679/9/4 680/9/4 682/9/4
f 682/9/4 680/9/4 683/9/4
f 683/9/4 680/9/4 684/9/4
f 680/4/4 681/4/4 685/4/4
f 684/9/4 680/9/4 685/9/4
f 685/4/4 681/4/4 686/4/4
f 682/4/4 683/4/4 687/4/4
f 683/9/4 684/9/4 688/9/4
f 687/4/4 683/4/4 688/4/4
f 684/7/4 685/7/4 689/7/4
f 688/9/4 684/9/4 689/9/4
f 685/9/4 686/9/4 690/9/4
f 689/7/4 685/7/4 690/7/4
f 690/9/4 686/9/4 691/9/4
f 687/9/4 688/9/4 692/9/4
f 688/9/4 689/9/4 692/9/4
f 689/4/4 690/4/4 693/4/4
f 692/9/4 689/9/4 693/9/4
f 690/11/4 691/11/4 694/11/4
f 693/4/4 690/4/4 694/4/4
f 694/11/4 691/11/4 695/11/4
f 692/5/4 693/5/4 696/5/4
f 693/9/4 694/9/4 697/9/4
f 696/5/4 693/5/4 697/5/4
f 694/9/4 695/9/4 697/9/4
f 697/9/4 695/9/4 698/9/4
f 692/5/4 696/5/4 699/5/4
f 699/5/4 696/5/4 700/5/4
f 696/7/4 697/7/4 701/7/4
f 700/5/4 696/5/4 701/5/4
f 697/7/4 698/7/4 701/7/4
f 698/9/4 695/9/4 702/9/4
f 701/7/4 698/7/4 702/7/4
f 702/9/4 695/9/4 703/9/4
f 699/4/4 700/4/4 704/4/4
f 700/9/4 701/9/4 705/9/4
f 704/4/4 700/4/4 705/4/4
f 701/9/4 702/9/4 705/9/4
f 702/4/4 703/4/4 706/4/4
f 705/9/4 702/9/4 706/9/4
f 706/4/4 703/4/4 707/4/4
f 734/8/5 709/8/5 708/8/5
f 735/9/5 710/9/5 709/9/5
f 735/8/5 709/8/5 734/8/5
f 736/8/5 711/8/5 710/8/5
f 736/9/5 710/9/5 735/9/5
f 737/9/5 712/9/5 711/9/5
f 737/8/5 711/8/5 736/8/5
f 738/8/5 713/8/5 712/8/5
f 738/9/5 712/9/5 737/9/5
f 739/9/5 714/9/5 713/9/5
f 739/8/5 713/8/5 738/8/5
f 740/8/5 715/8/5 714/8/5
f 740/9/5 714/9/5 739/9/5
f 741/9/5 716/9/5 715/9/5
f 741/8/5 715/8/5 740/8/5
f 742/8/5 717/8/5 716/8/5
f 742/9/5 716/9/5 741/9/5
f 743/9/5 718/9/5 717/9/5
f 743/8/5 717/8/5 742/8/5
f 744/8/5 719/8/5 718/8/5
f 744/9/5 718/9/5 743/9/5
f 745/9/5 720/9/5 719/9/5
f 745/8/5 719/8/5 744/8/5
f 746/8/5 721/8/5 720/8/5
f 746/9/5 720/9/5 745/9/5
f 747/9/5 722/9/5 721/9/5
f 747/8/5 721/8/5 746/8/5
f 748/8/5 723/8/5 722/8/5
f 748/9/5 722/9/5 747/9/5
f 749/9/5 724/9/5 723/9/5
f 749/8/5 723/8/5 748/8/5
f 750/8/5 725/8/5 724/8/5
f 750/9/5 724/9/5 749/9/5
f 751/9/5 726/9/5 725/9/5
f 751/8/5 725/8/5 750/8/5
f 752/8/5 727/8/5 726/8/5
f 752/9/5 726/9/5 751/9/5
f 753/9/5 728/9/5 727/9/5
f 753/8/5 727/8/5 752/8/5
f 754/8/5 729/8/5 728/8/5
f 754/9/5 728/9/5 753/9/5
f 755/9/5 730/9/5 729/9/5
f 755/8/5 729/8/5 754/8/5
f 756/8/5 731/8/5 730/8/5
f 756/9/5 730/9/5 755/9/5
f 757/9/5 732/9/5 731/9/5
f 757/8/5 731/8/5 756/8/5
f 758/8/5 733/8/5 732/8/5
f 758/9/5 732/9/5 757/9/5
f 759/8/5 733/8/5 758/8/5
f 760/8/5 733/8/5 759/8/5
f 761/8/5 734/8/5 708/8/5
f 762/11/5 757/11/5 756/11/5
f 762/8/5 734/8/5 761/8/5
f 762/11/5 735/11/5 734/11/5
f 762/11/5 736/11/5 735/11/5
f 762/11/5 759/11/5 758/11/5
f 762/11/5 758/11/5 757/11/5
f 762/11/5 756/11/5 755/11/5
f 762/11/5 755/11/5 754/11/5
f 762/11/5 754/11/5 753/11/5
f 762/11/5 753/11/5 752/11/5
f 762/11/5 752/11/5 751/11/5
f 762/11/5 751/11/5 750/11/5
f 762/11/5 750/11/5 749/11/5
f 762/11/5 749/11/5 748/11/5
f 762/11/5 748/11/5 747/11/5
f 762/11/5 747/11/5 746/11/5
f 762/11/5 746/11/5 745/11/5
f 762/11/5 745/11/5 744/11/5
f 762/11/5 744/11/5 743/11/5
f 762/11/5 743/11/5 742/11/5
f 762/11/5 742/11/5 741/11/5
f 762/11/5 741/11/5 740/11/5
f 762/11/5 740/11/5 739/11/5
f 762/11/5 739/11/5 738/11/5
f 762/11/5 738/11/5 737/11/5
f 762/11/5 737/11/5 736/11/5
f 763/7/5 760/7/5 759/7/5
f 763/11/5 759/11/5 762/11/5
f 764/7/5 760/7/5 763/7/5
f 765/7/5 762/7/5 761/7/5
f 766/11/5 763/11/5 762/11/5
f 766/7/5 762/7/5 765/7/5
f 767/9/5 766/9/5 765/9/5
f 768/11/5 763/11/5 766/11/5
f 768/9/5 766/9/5 767/9/5
f 769/4/5 764/4/5 763/4/5
f 769/11/5 763/11/5 768/11/5
f 770/4/5 764/4/5 769/4/5
f 771/11/5 769/11/5 768/11/5
f 771/8/5 770/8/5 769/8/5
f 772/8/5 770/8/5 771/8/5
f 773/11/5 771/11/5 768/11/5
f 773/1/5 772/1/5 771/1/5
f 774/1/5 772/1/5 773/1/5
f 775/11/5 773/11/5 768/11/5
f 775/8/5 774/8/5 773/8/5
f 776/8/5 774/8/5 775/8/5
f 777/8/5 768/8/5 767/8/5
f 778/11/5 775/11/5 768/11/5
f 778/8/5 768/8/5 777/8/5
f 779/1/5 776/1/5 775/1/5
f 779/11/5 775/11/5 778/11/5
f 780/1/5 776/1/5 779/1/5
f 781/9/5 778/9/5 777/9/5
f 782/11/5 779/11/5 778/11/5
f 782/9/5 778/9/5 781/9/5
f 783/8/5 780/8/5 779/8/5
f 783/11/5 779/11/5 782/11/5
f 784/8/5 780/8/5 783/8/5
f 785/11/5 783/11/5 782/11/5
f 785/1/5 784/1/5 783/1/5
f 786/1/5 784/1/5 785/1/5
f 787/8/5 782/8/5 781/8/5
f 788/11/5 785/11/5 782/11/5
f 788/8/5 782/8/5 787/8/5
f 789/9/5 786/9/5 785/9/5
f 789/11/5 785/11/5 788/11/5
f 790/9/5 786/9/5 789/9/5
f 791/7/5 788/7/5 787/7/5
f 792/11/5 789/11/5 788/11/5
f 792/7/5 788/7/5 791/7/5
f 793/1/5 790/1/5 789/1/5
f 793/11/5 789/11/5 792/11/5
f 794/1/5 790/1/5 793/1/5
f 795/11/5 793/11/5 792/11/5
f 795/4/5 794/4/5 793/4/5
f 796/4/5 794/4/5 795/4/5
f 797/11/5 795/11/5 792/11/5
f 797/1/5 796/1/5 795/1/5
f 798/1/5 796/1/5 797/1/5
f 799/11/5 797/11/5 792/11/5
f 799/4/5 798/4/5 797/4/5
f 800/4/5 798/4/5 799/4/5
f 801/8/5 792/8/5 791/8/5
f 802/11/5 799/11/5 792/11/5
f 802/8/5 792/8/5 801/8/5
f 803/1/5 800/1/5 799/1/5
f 803/11/5 799/11/5 802/11/5
f 804/1/5 800/1/5 803/1/5
f 805/7/5 802/7/5 801/7/5
f 806/11/5 803/11/5 802/11/5
f 806/7/5 802/7/5 805/7/5
f 807/4/5 804/4/5 803/4/5
f 807/11/5 803/11/5 806/11/5
f 808/4/5 804/4/5 807/4/5
f 809/11/5 807/11/5 806/11/5
f 809/8/5 808/8/5 807/8/5
f 810/8/5 808/8/5 809/8/5
f 811/8/5 806/8/5 805/8/5
f 812/11/5 809/11/5 806/11/5
f 812/8/5 806/8/5 811/8/5
f 813/7/5 812/7/5 811/7/5
f 814/11/5 809/11/5 812/11/5
f 814/7/5 812/7/5 813/7/5
f 815/1/5 810/1/5 809/1/5
f 815/11/5 809/11/5 814/11/5
f 816/1/5 810/1/5 815/1/5
f 817/8/5 814/8/5 813/8/5
f 818/11/5 815/11/5 814/11/5
f 818/8/5 814/8/5 817/8/5
f 819/4/5 816/4/5 815/4/5
f 819/11/5 815/11/5 818/11/5
f 820/4/5 816/4/5 819/4/5
f 821/4/5 818/4/5 817/4/5
f 822/11/5 819/11/5 818/11/5
f 822/4/5 818/4/5 821/4/5
f 823/6/5 820/6/5 819/6/5
f 823/11/5 819/11/5 822/11/5
f 824/6/5 820/6/5 823/6/5
f 825/11/5 823/11/5 822/11/5
f 825/4/5 824/4/5 823/4/5
f 826/4/5 824/4/5 825/4/5
f 827/8/5 822/8/5 821/8/5
f 828/11/5 825/11/5 822/11/5
f 828/8/5 822/8/5 827/8/5
f 829/9/5 826/9/5 825/9/5
f 829/11/5 825/11/5 828/11/5
f 830/9/5 826/9/5 829/9/5
f 831/9/5 828/9/5 827/9/5
f 832/11/5 829/11/5 828/11/5
f 832/9/5 828/9/5 831/9/5
f 833/4/5 830/4/5 829/4/5
f 833/11/5 829/11/5 832/11/5
f 834/4/5 830/4/5 833/4/5
f 835/11/5 833/11/5 832/11/5
f 835/9/5 834/9/5 833/9/5
f 836/9/5 834/9/5 835/9/5
f 837/8/5 832/8/5 831/8/5
f 837/11/5 835/11/5 832/11/5
f 838/11/5 835/11/5 837/11/5
f 839/11/5 835/11/5 838/11/5
f 840/11/5 835/11/5 839/11/5
f 841/11/5 835/11/5 840/11/5
f 842/11/5 835/11/5 841/11/5
f 843/11/5 835/11/5 842/11/5
f 844/11/5 835/11/5 843/11/5
f 845/11/5 835/11/5 844/11/5
f 846/11/5 835/11/5 845/11/5
f 847/11/5 835/11/5 846/11/5
f 848/11/5 835/11/5 847/11/5
f 849/11/5 835/11/5 848/11/5
f 850/11/5 835/11/5 849/11/5
f 851/11/5 835/11/5 850/11/5
f 852/11/5 835/11/5 851/11/5
f 853/11/5 835/11/5 852/11/5
f 854/11/5 835/11/5 853/11/5
f 855/11/5 835/11/5 854/11/5
f 856/11/5 835/11/5 855/11/5
f 857/11/5 835/11/5 856/11/5
f 858/11/5 835/11/5 857/11/5
f 859/11/5 835/11/5 858/11/5
f 860/11/5 835/11/5 859/11/5
f 861/4/5 836/4/5 835/4/5
f 861/11/5 835/11/5 860/11/5
f 862/8/5 837/8/5 831/8/5
f 863/7/5 838/7/5 837/7/5
f 863/8/5 837/8/5 862/8/5
f 864/9/5 839/9/5 838/9/5
f 864/7/5 838/7/5 863/7/5
f 865/5/5 840/5/5 839/5/5
f 865/9/5 839/9/5 864/9/5
f 866/9/5 841/9/5 840/9/5
f 866/5/5 840/5/5 865/5/5
f 867/5/5 842/5/5 841/5/5
f 867/9/5 841/9/5 866/9/5
f 868/4/5 843/4/5 842/4/5
f 868/5/5 842/5/5 867/5/5
f 869/5/5 844/5/5 843/5/5
f 869/4/5 843/4/5 868/4/5
f 870/4/5 845/4/5 844/4/5
f 870/5/5 844/5/5 869/5/5
f 871/9/5 846/9/5 845/9/5
f 871/4/5 845/4/5 870/4/5
f 872/7/5 847/7/5 846/7/5
f 872/9/5 846/9/5 871/9/5
f 873/9/5 848/9/5 847/9/5
f 873/7/5 847/7/5 872/7/5
f 874/5/5 849/5/5 848/5/5
f 874/9/5 848/9/5 873/9/5
f 875/9/5 850/9/5 849/9/5
f 875/5/5 849/5/5 874/5/5
f 876/4/5 851/4/5 850/4/5
f 876/9/5 850/9/5 875/9/5
f 877/7/5 852/7/5 851/7/5
f 877/4/5 851/4/5 876/4/5
f 878/5/5 853/5/5 852/5/5
f 878/7/5 852/7/5 877/7/5
f 879/9/5 854/9/5 853/9/5
f 879/5/5 853/5/5 878/5/5
f 880/4/5 855/4/5 854/4/5
f 880/9/5 854/9/5 879/9/5
f 881/9/5 856/9/5 855/9/5
f 881/4/5 855/4/5 880/4/5
f 882/5/5 857/5/5 856/5/5
f 882/9/5 856/9/5 881/9/5
f 883/9/5 858/9/5 857/9/5
f 883/5/5 857/5/5 882/5/5
f 884/4/5 859/4/5 858/4/5
f 884/9/5 858/9/5 883/9/5
f 885/9/5 860/9/5 859/9/5
f 885/4/5 859/4/5 884/4/5
f 886/5/5 861/5/5 860/5/5
f 886/9/5 860/9/5 885/9/5
f 887/4/5 836/4/5 861/4/5
f 887/5/5 861/5/5 886/5/5
f 888/4/5 836/4/5 887/4/5
f 889/4/6 890/4/6 921/4/6
f 890/11/6 891/11/6 922/11/6
f 921/4/6 890/4/6 922/4/6
f 891/4/6 892/4/6 923/4/6
f 922/11/6 891/11/6 923/11/6
f 892/9/6 893/9/6 924/9/6
f 923/4/6 892/4/6 924/4/6
f 893/11/6 894/11/6 925/11/6
f 924/9/6 893/9/6 925/9/6
f 894/9/6 895/9/6 926/9/6
f 925/11/6 894/11/6 926/11/6
f 895/11/6 896/11/6 927/11/6
f 926/9/6 895/9/6 927/9/6
f 896/4/6 897/4/6 928/4/6
f 927/11/6 896/11/6 928/11/6
f 897/9/6 898/9/6 929/9/6
f 928/4/6 897/4/6 929/4/6
f 898/4/6 899/4/6 930/4/6
f 929/9/6 898/9/6 930/9/6
f 899/11/6 900/11/6 931/11/6
f 930/4/6 899/4/6 931/4/6
f 900/4/6 901/4/6 932/4/6
f 931/11/6 900/11/6 932/11/6
f 901/11/6 902/11/6 933/11/6
f 932/4/6 901/4/6 933/4/6
f 902/9/6 903/9/6 934/9/6
f 933/11/6 902/11/6 934/11/6
f 903/11/6 904/11/6 935/11/6
f 934/9/6 903/9/6 935/9/6
f 904/9/6 905/9/6 936/9/6
f 935/11/6 904/11/6 936/11/6
f 905/11/6 906/11/6 937/11/6
f 936/9/6 905/9/6 937/9/6
f 906/9/6 907/9/6 938/9/6
f 937/11/6 906/11/6 938/11/6
f 907/11/6 908/11/6 939/11/6
f 938/9/6 907/9/6 939/9/6
f 908/9/6 909/9/6 940/9/6
f 939/11/6 908/11/6 940/11/6
f 909/11/6 910/11/6 941/11/6
f 940/9/6 909/9/6 941/9/6
f 910/8/6 911/8/6 942/8/6
f 941/11/6 910/11/6 942/11/6
f 911/4/6 912/4/6 943/4/6
f 942/8/6 911/8/6 943/8/6
f 912/11/6 913/11/6 944/11/6
f 943/4/6 912/4/6 944/4/6
f 913/9/6 914/9/6 945/9/6
f 944/11/6 913/11/6 945/11/6
f 914/11/6 915/11/6 946/11/6
f 945/9/6 914/9/6 946/9/6
f 915/4/6 916/4/6 947/4/6
f 946/11/6 915/11/6 947/11/6
f 916/8/6 917/8/6 948/8/6
f 947/4/6 916/4/6 948/4/6
f 917/11/6 918/11/6 949/11/6
f 948/8/6 917/8/6 949/8/6
f 918/4/6 919/4/6 950/4/6
f 949/11/6 918/11/6 950/11/6
f 950/4/6 919/4/6 951/4/6
f 919/7/6 920/7/6 952/7/6
f 951/4/6 919/4/6 952/4/6
f 952/7/6 920/7/6 953/7/6
f 921/5/6 922/5/6 954/5/6
f 922/11/6 923/11/6 955/11/6
f 954/5/6 922/5/6 955/5/6
f 923/11/6 924/11/6 955/11/6
f 924/11/6 925/11/6 955/11/6
f 925/11/6 926/11/6 955/11/6
f 926/11/6 927/11/6 955/11/6
f 927/11/6 928/11/6 955/11/6
f 928/11/6 929/11/6 955/11/6
f 929/11/6 930/11/6 955/11/6
f 930/11/6 931/11/6 955/11/6
f 944/11/6 945/11/6 955/11/6
f 943/11/6 944/11/6 955/11/6
f 942/11/6 943/11/6 955/11/6
f 941/11/6 942/11/6 955/11/6
f 940/11/6 941/11/6 955/11/6
f 939/11/6 940/11/6 955/11/6
f 938/11/6 939/11/6 955/11/6
f 937/11/6 938/11/6 955/11/6
f 936/11/6 937/11/6 955/11/6
f 935/11/6 936/11/6 955/11/6
f 934/11/6 935/11/6 955/11/6
f 933/11/6 934/11/6 955/11/6
f 932/11/6 933/11/6 955/11/6
f 931/11/6 932/11/6 955/11/6
f 945/10/6 946/10/6 956/10/6
f 955/11/6 945/11/6 956/11/6
f 946/2/6 947/2/6 957/2/6
f 956/10/6 946/10/6 957/10/6
f 950/3/6 951/3/6 958/3/6
f 957/2/6 947/2/6 958/2/6
f 949/3/6 950/3/6 958/3/6
f 948/3/6 949/3/6 958/3/6
f 947/3/6 948/3/6 958/3/6
f 958/3/6 951/3/6 959/3/6
f 959/3/6 951/3/6 960/3/6
f 951/11/6 952/11/6 961/11/6
f 960/3/6 951/3/6 961/3/6
f 952/9/6 953/9/6 962/9/6
f 961/11/6 952/11/6 962/11/6
f 962/9/6 953/9/6 963/9/6
f 954/9/6 955/9/6 964/9/6
f 955/11/6 956/11/6 965/11/6
f 964/9/6 955/9/6 965/9/6
f 965/11/6 956/11/6 966/11/6
f 966/11/6 956/11/6 967/11/6
f 967/11/6 956/11/6 968/11/6
f 968/11/6 956/11/6 969/11/6
f 969/11/6 956/11/6 970/11/6
f 970/11/6 956/11/6 971/11/6
f 956/3/6 957/3/6 972/3/6
f 971/11/6 956/11/6 972/11/6
f 957/11/6 958/11/6 973/11/6
f 972/3/6 957/3/6 973/3/6
f 958/2/6 959/2/6 974/2/6
f 973/11/6 958/11/6 974/11/6
f 959/3/6 960/3/6 975/3/6
f 974/2/6 959/2/6 975/2/6
f 960/2/6 961/2/6 976/2/6
f 975/3/6 960/3/6 976/3/6
f 976/2/6 961/2/6 977/2/6
f 964/5/6 965/5/6 978/5/6
f 965/11/6 966/11/6 979/11/6
f 978/5/6 965/5/6 979/5/6
f 966/12/6 967/12/6 980/12/6
f 979/11/6 966/11/6 980/11/6
f 967/11/6 968/11/6 981/11/6
f 980/12/6 967/12/6 981/12/6
f 981/11/6 968/11/6 982/11/6
f 982/11/6 968/11/6 983/11/6
f 983/11/6 968/11/6 984/11/6
f 968/12/6 969/12/6 985/12/6
f 984/11/6 968/11/6 985/11/6
f 969/11/6 970/11/6 986/11/6
f 985/12/6 969/12/6 986/12/6
f 986/11/6 970/11/6 987/11/6
f 970/10/6 971/10/6 988/10/6
f 987/11/6 970/11/6 988/11/6
f 971/11/6 972/11/6 989/11/6
f 988/10/6 971/10/6 989/10/6
f 972/11/6 973/11/6 989/11/6
f 989/11/6 973/11/6 990/11/6
f 990/11/6 973/11/6 991/11/6
f 991/11/6 973/11/6 992/11/6
f 992/11/6 973/11/6 993/11/6
f 993/11/6 973/11/6 994/11/6
f 974/3/6 975/3/6 995/3/6
f 994/11/6 973/11/6 995/11/6
f 973/3/6 974/3/6 995/3/6
f 995/3/6 975/3/6 996/3/6
f 975/2/6 976/2/6 997/2/6
f 996/3/6 975/3/6 997/3/6
f 976/3/6 977/3/6 998/3/6
f 997/2/6 976/2/6 998/2/6
f 961/3/6 962/3/6 999/3/6
f 962/7/6 963/7/6 999/7/6
f 999/7/6 963/7/6 1000/7/6
f 978/11/6 979/11/6 1001/11/6
f 979/11/6 980/11/6 1001/11/6
f 980/11/6 981/11/6 1001/11/6
f 1001/11/6 981/11/6 1002/11/6
f 1002/11/6 981/11/6 1003/11/6
f 1003/11/6 981/11/6 1004/11/6
f 981/12/6 982/12/6 1005/12/6
f 1004/11/6 981/11/6 1005/11/6
f 982/11/6 983/11/6 1006/11/6
f 1005/12/6 982/12/6 1006/12/6
f 1006/11/6 983/11/6 1007/11/6
f 983/10/6 984/10/6 1008/10/6
f 1007/11/6 983/11/6 1008/11/6
f 985/11/6 986/11/6 1009/11/6
f 1008/10/6 984/10/6 1009/10/6
f 984/11/6 985/11/6 1009/11/6
f 986/12/6 987/12/6 1010/12/6
f 1009/11/6 986/11/6 1010/11/6
f 987/11/6 988/11/6 1011/11/6
f 1010/12/6 987/12/6 1011/12/6
f 988/11/6 989/11/6 1011/11/6
f 1011/11/6 989/11/6 1012/11/6
f 989/10/6 990/10/6 1013/10/6
f 1012/11/6 989/11/6 1013/11/6
f 990/11/6 991/11/6 1014/11/6
f 1013/10/6 990/10/6 1014/10/6
f 991/12/6 992/12/6 1015/12/6
f 1014/11/6 991/11/6 1015/11/6
f 992/11/6 993/11/6 1016/11/6
f 1015/12/6 992/12/6 1016/12/6
f 993/10/6 994/10/6 1017/10/6
f 1016/11/6 993/11/6 1017/11/6
f 995/11/6 996/11/6 1018/11/6
f 1017/10/6 994/10/6 1018/10/6
f 994/11/6 995/11/6 1018/11/6
f 1018/11/6 996/11/6 1019/11/6
f 997/3/6 998/3/6 1020/3/6
f 996/10/6 997/10/6 1020/10/6
f 998/3/6 977/3/6 1021/3/6
f 1020/3/6 998/3/6 1021/3/6
f 977/2/6 961/2/6 1022/2/6
f 1021/3/6 977/3/6 1022/3/6
f 961/3/6 999/3/6 1023/3/6
f 1022/2/6 961/2/6 1023/2/6
f 999/9/6 1000/9/6 1024/9/6
f 1023/3/6 999/3/6 1024/3/6
f 1024/9/6 1000/9/6 1025/9/6
f 1001/9/6 1002/9/6 1026/9/6
f 1002/11/6 1003/11/6 1027/11/6
f 1026/9/6 1002/9/6 1027/9/6
f 1003/12/6 1004/12/6 1028/12/6
f 1027/11/6 1003/11/6 1028/11/6
f 1005/11/6 1006/11/6 1029/11/6
f 1028/12/6 1004/12/6 1029/12/6
f 1004/11/6 1005/11/6 1029/11/6
f 1029/11/6 1006/11/6 1030/11/6
f 1006/12/6 1007/12/6 1031/12/6
f 1030/11/6 1006/11/6 1031/11/6
f 1008/11/6 1009/11/6 1032/11/6
f 1031/12/6 1007/12/6 1032/12/6
f 1007/11/6 1008/11/6 1032/11/6
f 1032/11/6 1009/11/6 1033/11/6
f 1009/10/6 1010/10/6 1034/10/6
f 1033/11/6 1009/11/6 1034/11/6
f 1010/11/6 1011/11/6 1035/11/6
f 1034/10/6 1010/10/6 1035/10/6
f 1011/12/6 1012/12/6 1036/12/6
f 1035/11/6 1011/11/6 1036/11/6
f 1015/11/6 1016/11/6 1037/11/6
f 1036/12/6 1012/12/6 1037/12/6
f 1014/11/6 1015/11/6 1037/11/6
f 1012/11/6 1013/11/6 1037/11/6
f 1013/11/6 1014/11/6 1037/11/6
f 1037/11/6 1016/11/6 1038/11/6
f 1018/10/6 1019/10/6 1039/10/6
f 1017/11/6 1018/11/6 1039/11/6
f 1019/11/6 996/11/6 1040/11/6
f 1039/10/6 1019/10/6 1040/10/6
f 1040/11/6 996/11/6 1041/11/6
f 996/10/6 1020/10/6 1042/10/6
f 1041/11/6 996/11/6 1042/11/6
f 1020/10/6 1021/10/6 1042/10/6
f 1042/10/6 1021/10/6 1043/10/6
f 1022/3/6 1023/3/6 1044/3/6
f 1021/3/6 1022/3/6 1044/3/6
f 1044/3/6 1023/3/6 1045/3/6
f 1023/2/6 1024/2/6 1046/2/6
f 1045/3/6 1023/3/6 1046/3/6
f 1024/8/6 1025/8/6 1047/8/6
f 1046/2/6 1024/2/6 1047/2/6
f 1047/8/6 1025/8/6 1048/8/6
f 1028/11/6 1029/11/6 1049/11/6
f 1029/12/6 1030/12/6 1049/12/6
f 1027/11/6 1028/11/6 1049/11/6
f 1026/11/6 1027/11/6 1049/11/6
f 1030/11/6 1031/11/6 1050/11/6
f 1049/12/6 1030/12/6 1050/12/6
f 1031/11/6 1032/11/6 1050/11/6
f 1050/11/6 1032/11/6 1051/11/6
f 1051/11/6 1032/11/6 1052/11/6
f 1052/11/6 1032/11/6 1053/11/6
f 1032/12/6 1033/12/6 1054/12/6
f 1053/11/6 1032/11/6 1054/11/6
f 1034/11/6 1035/11/6 1055/11/6
f 1054/12/6 1033/12/6 1055/12/6
f 1033/11/6 1034/11/6 1055/11/6
f 1035/10/6 1036/10/6 1056/10/6
f 1055/11/6 1035/11/6 1056/11/6
f 1036/11/6 1037/11/6 1057/11/6
f 1056/10/6 1036/10/6 1057/10/6
f 1037/12/6 1038/12/6 1058/12/6
f 1057/11/6 1037/11/6 1058/11/6
f 1038/11/6 1016/11/6 1059/11/6
f 1058/12/6 1038/12/6 1059/12/6
f 1059/11/6 1016/11/6 1060/11/6
f 1016/12/6 1017/12/6 1061/12/6
f 1060/11/6 1016/11/6 1061/11/6
f 1017/11/6 1039/11/6 1062/11/6
f 1061/12/6 1017/12/6 1062/12/6
f 1039/11/6 1040/11/6 1062/11/6
f 1062/11/6 1040/11/6 1063/11/6
f 1040/10/6 1041/10/6 1064/10/6
f 1063/11/6 1040/11/6 1064/11/6
f 1041/11/6 1042/11/6 1065/11/6
f 1064/10/6 1041/10/6 1065/10/6
f 1042/11/6 1043/11/6 1065/11/6
f 1043/10/6 1021/10/6 1066/10/6
f 1065/11/6 1043/11/6 1066/11/6
f 1021/3/6 1044/3/6 1067/3/6
f 1066/10/6 1021/10/6 1067/10/6
f 1044/11/6 1045/11/6 1068/11/6
f 1067/3/6 1044/3/6 1068/3/6
f 1045/3/6 1046/3/6 1069/3/6
f 1068/11/6 1045/11/6 1069/11/6
f 1047/11/6 1048/11/6 1070/11/6
f 1069/3/6 1046/3/6 1070/3/6
f 1046/11/6 1047/11/6 1070/11/6
f 1070/11/6 1048/11/6 1071/11/6
f 1071/11/6 1048/11/6 1072/11/6
f 1026/11/6 1049/11/6 1073/11/6
f 1049/11/6 1050/11/6 1073/11/6
f 1073/11/6 1050/11/6 1074/11/6
f 1050/12/6 1051/12/6 1075/12/6
f 1074/11/6 1050/11/6 1075/11/6
f 1051/11/6 1052/11/6 1076/11/6
f 1075/12/6 1051/12/6 1076/12/6
f 1052/10/6 1053/10/6 1077/10/6
f 1076/11/6 1052/11/6 1077/11/6
f 1054/11/6 1055/11/6 1078/11/6
f 1077/10/6 1053/10/6 1078/10/6
f 1058/11/6 1059/11/6 1078/11/6
f 1057/11/6 1058/11/6 1078/11/6
f 1053/11/6 1054/11/6 1078/11/6
f 1056/11/6 1057/11/6 1078/11/6
f 1055/11/6 1056/11/6 1078/11/6
f 1078/11/6 1059/11/6 1079/11/6
f 1079/11/6 1059/11/6 1080/11/6
f 1080/11/6 1059/11/6 1081/11/6
f 1059/12/6 1060/12/6 1082/12/6
f 1081/11/6 1059/11/6 1082/11/6
f 1060/11/6 1061/11/6 1083/11/6
f 1082/12/6 1060/12/6 1083/12/6
f 1061/11/6 1062/11/6 1083/11/6
f 1063/11/6 1064/11/6 1084/11/6
f 1064/11/6 1065/11/6 1084/11/6
f 1068/11/6 1069/11/6 1084/11/6
f 1070/11/6 1071/11/6 1084/11/6
f 1065/11/6 1066/11/6 1084/11/6
f 1067/11/6 1068/11/6 1084/11/6
f 1069/11/6 1070/11/6 1084/11/6
f 1066/11/6 1067/11/6 1084/11/6
f 1071/8/6 1072/8/6 1084/8/6
f 1084/8/6 1072/8/6 1085/8/6
f 1076/11/6 1077/11/6 1086/11/6
f 1075/11/6 1076/11/6 1086/11/6
f 1078/10/6 1079/10/6 1086/10/6
f 1077/11/6 1078/11/6 1086/11/6
f 1074/11/6 1075/11/6 1086/11/6
f 1079/11/6 1080/11/6 1087/11/6
f 1086/10/6 1079/10/6 1087/10/6
f 1080/12/6 1081/12/6 1088/12/6
f 1087/11/6 1080/11/6 1088/11/6
f 1081/11/6 1082/11/6 1089/11/6
f 1088/12/6 1081/12/6 1089/12/6
f 1082/11/6 1083/11/6 1089/11/6
f 1089/11/6 1083/11/6 1090/11/6
f 1083/11/6 1062/11/6 1091/11/6
f 1090/11/6 1083/11/6 1091/11/6
f 1062/12/6 1063/12/6 1091/12/6
f 1063/11/6 1084/11/6 1092/11/6
f 1091/12/6 1063/12/6 1092/12/6
f 1092/11/6 1084/11/6 1093/11/6
f 1073/7/6 1074/7/6 1094/7/6
f 1088/11/6 1089/11/6 1095/11/6
f 1094/7/6 1074/7/6 1095/7/6
f 1087/11/6 1088/11/6 1095/11/6
f 1086/11/6 1087/11/6 1095/11/6
f 1074/11/6 1086/11/6 1095/11/6
f 1095/11/6 1089/11/6 1096/11/6
f 1096/11/6 1089/11/6 1097/11/6
f 1089/12/6 1090/12/6 1098/12/6
f 1097/11/6 1089/11/6 1098/11/6
f 1090/11/6 1091/11/6 1099/11/6
f 1098/12/6 1090/12/6 1099/12/6
f 1091/11/6 1092/11/6 1099/11/6
f 1099/11/6 1092/11/6 1100/11/6
f 1093/11/6 1084/11/6 1101/11/6
f 1101/11/6 1084/11/6 1102/11/6
f 1084/7/6 1085/7/6 1103/7/6
f 1102/11/6 1084/11/6 1103/11/6
f 1103/7/6 1085/7/6 1104/7/6
f 1095/11/6 1096/11/6 1105/11/6
f 1094/11/6 1095/11/6 1105/11/6
f 1105/11/6 1096/11/6 1106/11/6
f 1096/12/6 1097/12/6 1107/12/6
f 1106/11/6 1096/11/6 1107/11/6
f 1097/11/6 1098/11/6 1108/11/6
f 1107/12/6 1097/12/6 1108/12/6
f 1098/11/6 1099/11/6 1108/11/6
f 1108/11/6 1099/11/6 1109/11/6
f 1099/12/6 1100/12/6 1110/12/6
f 1109/11/6 1099/11/6 1110/11/6
f 1100/11/6 1092/11/6 1111/11/6
f 1110/12/6 1100/12/6 1111/12/6
f 1111/11/6 1092/11/6 1112/11/6
f 1092/12/6 1093/12/6 1113/12/6
f 1112/11/6 1092/11/6 1113/11/6
f 1093/11/6 1101/11/6 1114/11/6
f 1113/12/6 1093/12/6 1114/12/6
f 1103/8/6 1104/8/6 1115/8/6
f 1102/11/6 1103/11/6 1115/11/6
f 1115/8/6 1104/8/6 1116/8/6
f 1105/9/6 1106/9/6 1117/9/6
f 1106/11/6 1107/11/6 1118/11/6
f 1117/9/6 1106/9/6 1118/9/6
f 1107/11/6 1108/11/6 1118/11/6
f 1108/12/6 1109/12/6 1119/12/6
f 1118/11/6 1108/11/6 1119/11/6
f 1109/11/6 1110/11/6 1120/11/6
f 1119/12/6 1109/12/6 1120/12/6
f 1110/11/6 1111/11/6 1120/11/6
f 1120/11/6 1111/11/6 1121/11/6
f 1111/12/6 1112/12/6 1122/12/6
f 1121/11/6 1111/11/6 1122/11/6
f 1112/11/6 1113/11/6 1123/11/6
f 1122/12/6 1112/12/6 1123/12/6
f 1113/11/6 1114/11/6 1123/11/6
f 1123/11/6 1114/11/6 1124/11/6
f 1124/11/6 1114/11/6 1125/11/6
f 1125/11/6 1114/11/6 1126/11/6
f 1101/12/6 1102/12/6 1127/12/6
f 1126/11/6 1114/11/6 1127/11/6
f 1114/11/6 1101/11/6 1127/11/6
f 1115/11/6 1116/11/6 1128/11/6
f 1127/12/6 1102/12/6 1128/12/6
f 1102/11/6 1115/11/6 1128/11/6
f 1128/11/6 1116/11/6 1129/11/6
f 1129/11/6 1116/11/6 1130/11/6
f 1130/11/6 1116/11/6 1131/11/6
f 1117/4/6 1118/4/6 1132/4/6
f 1118/11/6 1119/11/6 1133/11/6
f 1132/4/6 1118/4/6 1133/4/6
f 1119/11/6 1120/11/6 1133/11/6
f 1121/11/6 1122/11/6 1134/11/6
f 1122/11/6 1123/11/6 1134/11/6
f 1134/11/6 1123/11/6 1135/11/6
f 1123/12/6 1124/12/6 1136/12/6
f 1135/11/6 1123/11/6 1136/11/6
f 1124/11/6 1125/11/6 1137/11/6
f 1136/12/6 1124/12/6 1137/12/6
f 1137/11/6 1125/11/6 1138/11/6
f 1130/4/6 1131/4/6 1139/4/6
f 1129/11/6 1130/11/6 1139/11/6
f 1139/4/6 1131/4/6 1140/4/6
f 1132/11/6 1133/11/6 1141/11/6
f 1133/11/6 1120/11/6 1142/11/6
f 1141/11/6 1133/11/6 1142/11/6
f 1142/11/6 1120/11/6 1143/11/6
f 1143/11/6 1120/11/6 1144/11/6
f 1120/12/6 1121/12/6 1145/12/6
f 1144/11/6 1120/11/6 1145/11/6
f 1121/11/6 1134/11/6 1146/11/6
f 1145/12/6 1121/12/6 1146/12/6
f 1146/11/6 1134/11/6 1147/11/6
f 1134/10/6 1135/10/6 1148/10/6
f 1147/11/6 1134/11/6 1148/11/6
f 1135/11/6 1136/11/6 1149/11/6
f 1148/10/6 1135/10/6 1149/10/6
f 1136/11/6 1137/11/6 1149/11/6
f 1149/11/6 1137/11/6 1150/11/6
f 1137/12/6 1138/12/6 1151/12/6
f 1150/11/6 1137/11/6 1151/11/6
f 1138/11/6 1125/11/6 1152/11/6
f 1151/12/6 1138/12/6 1152/12/6
f 1125/12/6 1126/12/6 1153/12/6
f 1152/11/6 1125/11/6 1153/11/6
f 1126/11/6 1127/11/6 1154/11/6
f 1153/12/6 1126/12/6 1154/12/6
f 1127/11/6 1128/11/6 1154/11/6
f 1154/11/6 1128/11/6 1155/11/6
f 1155/11/6 1128/11/6 1156/11/6
f 1156/11/6 1128/11/6 1157/11/6
f 1128/12/6 1129/12/6 1158/12/6
f 1157/11/6 1128/11/6 1158/11/6
f 1129/11/6 1139/11/6 1159/11/6
f 1158/12/6 1129/12/6 1159/12/6
f 1139/11/6 1140/11/6 1159/11/6
f 1159/11/6 1140/11/6 1160/11/6
f 1160/11/6 1140/11/6 1161/11/6
f 1161/11/6 1140/11/6 1162/11/6
f 1141/7/6 1142/7/6 1163/7/6
f 1142/11/6 1143/11/6 1164/11/6
f 1163/7/6 1142/7/6 1164/7/6
f 1143/12/6 1144/12/6 1165/12/6
f 1164/11/6 1143/11/6 1165/11/6
f 1144/11/6 1145/11/6 1166/11/6
f 1165/12/6 1144/12/6 1166/12/6
f 1145/11/6 1146/11/6 1166/11/6
f 1166/11/6 1146/11/6 1167/11/6
f 1146/12/6 1147/12/6 1168/12/6
f 1167/11/6 1146/11/6 1168/11/6
f 1147/11/6 1148/11/6 1169/11/6
f 1168/12/6 1147/12/6 1169/12/6
f 1148/11/6 1149/11/6 1169/11/6
f 1163/11/6 1164/11/6 1170/11/6
f 1165/11/6 1166/11/6 1170/11/6
f 1164/11/6 1165/11/6 1170/11/6
f 1170/11/6 1166/11/6 1171/11/6
f 1169/11/6 1149/11/6 1172/11/6
f 1167/11/6 1168/11/6 1172/11/6
f 1168/11/6 1169/11/6 1172/11/6
f 1149/10/6 1150/10/6 1172/10/6
f 1151/11/6 1152/11/6 1173/11/6
f 1172/10/6 1150/10/6 1173/10/6
f 1150/11/6 1151/11/6 1173/11/6
f 1152/11/6 1153/11/6 1173/11/6
f 1153/11/6 1154/11/6 1173/11/6
f 1173/11/6 1154/11/6 1174/11/6
f 1154/12/6 1155/12/6 1175/12/6
f 1174/11/6 1154/11/6 1175/11/6
f 1155/11/6 1156/11/6 1176/11/6
f 1175/12/6 1155/12/6 1176/12/6
f 1158/11/6 1159/11/6 1177/11/6
f 1159/12/6 1160/12/6 1177/12/6
f 1157/11/6 1158/11/6 1177/11/6
f 1160/11/6 1161/11/6 1178/11/6
f 1177/12/6 1160/12/6 1178/12/6
f 1170/9/6 1171/9/6 1179/9/6
f 1171/11/6 1166/11/6 1180/11/6
f 1179/9/6 1171/9/6 1180/9/6
f 1166/12/6 1167/12/6 1181/12/6
f 1180/11/6 1166/11/6 1181/11/6
f 1167/11/6 1172/11/6 1182/11/6
f 1181/12/6 1167/12/6 1182/12/6
f 1172/11/6 1173/11/6 1182/11/6
f 1182/11/6 1173/11/6 1183/11/6
f 1183/11/6 1173/11/6 1184/11/6
f 1184/11/6 1173/11/6 1185/11/6
f 1173/10/6 1174/10/6 1186/10/6
f 1185/11/6 1173/11/6 1186/11/6
f 1175/11/6 1176/11/6 1187/11/6
f 1186/10/6 1174/10/6 1187/10/6
f 1174/11/6 1175/11/6 1187/11/6
f 1187/11/6 1176/11/6 1188/11/6
f 1188/11/6 1176/11/6 1189/11/6
f 1176/11/6 1156/11/6 1190/11/6
f 1189/11/6 1176/11/6 1190/11/6
f 1156/10/6 1157/10/6 1190/10/6
f 1157/11/6 1177/11/6 1191/11/6
f 1190/10/6 1157/10/6 1191/10/6
f 1177/11/6 1178/11/6 1191/11/6
f 1180/11/6 1181/11/6 1192/11/6
f 1179/11/6 1180/11/6 1192/11/6
f 1181/11/6 1182/11/6 1192/11/6
f 1192/11/6 1182/11/6 1193/11/6
f 1184/12/6 1185/12/6 1194/12/6
f 1183/11/6 1184/11/6 1194/11/6
f 1187/11/6 1188/11/6 1195/11/6
f 1194/12/6 1185/12/6 1195/12/6
f 1185/11/6 1186/11/6 1195/11/6
f 1186/11/6 1187/11/6 1195/11/6
f 1195/11/6 1188/11/6 1196/11/6
f 1196/11/6 1188/11/6 1197/11/6
f 1197/11/6 1188/11/6 1198/11/6
f 1191/11/6 1178/11/6 1199/11/6
f 1190/11/6 1191/11/6 1199/11/6
f 1189/11/6 1190/11/6 1199/11/6
f 1199/11/6 1178/11/6 1200/11/6
f 1178/11/6 1161/11/6 1201/11/6
f 1200/11/6 1178/11/6 1201/11/6
f 1161/4/6 1162/4/6 1201/4/6
f 1201/4/6 1162/4/6 1202/4/6
f 1192/9/6 1193/9/6 1203/9/6
f 1193/11/6 1182/11/6 1204/11/6
f 1203/9/6 1193/9/6 1204/9/6
f 1182/12/6 1183/12/6 1205/12/6
f 1204/11/6 1182/11/6 1205/11/6
f 1183/11/6 1194/11/6 1206/11/6
f 1205/12/6 1183/12/6 1206/12/6
f 1194/11/6 1195/11/6 1206/11/6
f 1206/11/6 1195/11/6 1207/11/6
f 1198/11/6 1188/11/6 1208/11/6
f 1188/10/6 1189/10/6 1208/10/6
f 1189/11/6 1199/11/6 1209/11/6
f 1208/10/6 1189/10/6 1209/10/6
f 1209/11/6 1199/11/6 1210/11/6
f 1201/6/6 1202/6/6 1211/6/6
f 1200/11/6 1201/11/6 1211/11/6
f 1211/6/6 1202/6/6 1212/6/6
f 1204/11/6 1205/11/6 1213/11/6
f 1203/11/6 1204/11/6 1213/11/6
f 1205/11/6 1206/11/6 1213/11/6
f 1213/11/6 1206/11/6 1214/11/6
f 1206/12/6 1207/12/6 1215/12/6
f 1214/11/6 1206/11/6 1215/11/6
f 1207/11/6 1195/11/6 1216/11/6
f 1215/12/6 1207/12/6 1216/12/6
f 1195/12/6 1196/12/6 1217/12/6
f 1216/11/6 1195/11/6 1217/11/6
f 1196/11/6 1197/11/6 1218/11/6
f 1217/12/6 1196/12/6 1218/12/6
f 1218/11/6 1197/11/6 1219/11/6
f 1197/12/6 1198/12/6 1220/12/6
f 1219/11/6 1197/11/6 1220/11/6
f 1198/11/6 1208/11/6 1221/11/6
f 1220/12/6 1198/12/6 1221/12/6
f 1208/11/6 1209/11/6 1221/11/6
f 1221/11/6 1209/11/6 1222/11/6
f 1210/11/6 1199/11/6 1223/11/6
f 1223/11/6 1199/11/6 1224/11/6
f 1199/12/6 1200/12/6 1225/12/6
f 1224/11/6 1199/11/6 1225/11/6
f 1200/11/6 1211/11/6 1226/11/6
f 1225/12/6 1200/12/6 1226/12/6
f 1226/11/6 1211/11/6 1227/11/6
f 1213/9/6 1214/9/6 1228/9/6
f 1214/11/6 1215/11/6 1229/11/6
f 1228/9/6 1214/9/6 1229/9/6
f 1216/11/6 1217/11/6 1229/11/6
f 1215/11/6 1216/11/6 1229/11/6
f 1217/11/6 1218/11/6 1229/11/6
f 1222/11/6 1209/11/6 1230/11/6
f 1209/10/6 1210/10/6 1230/10/6
f 1210/11/6 1223/11/6 1231/11/6
f 1230/10/6 1210/10/6 1231/10/6
f 1231/11/6 1223/11/6 1232/11/6
f 1218/12/6 1219/12/6 1233/12/6
f 1229/11/6 1218/11/6 1233/11/6
f 1228/11/6 1229/11/6 1233/11/6
f 1219/11/6 1220/11/6 1234/11/6
f 1233/12/6 1219/12/6 1234/12/6
f 1220/11/6 1221/11/6 1234/11/6
f 1221/12/6 1222/12/6 1235/12/6
f 1234/11/6 1221/11/6 1235/11/6
f 1230/11/6 1231/11/6 1236/11/6
f 1235/12/6 1222/12/6 1236/12/6
f 1222/11/6 1230/11/6 1236/11/6
f 1236/11/6 1231/11/6 1237/11/6
f 1228/11/6 1233/11/6 1238/11/6
f 1234/11/6 1235/11/6 1238/11/6
f 1233/11/6 1234/11/6 1238/11/6
f 1235/11/6 1236/11/6 1238/11/6
f 1238/11/6 1236/11/6 1239/11/6
f 1239/11/6 1236/11/6 1240/11/6
f 1240/11/6 1236/11/6 1241/11/6
f 1237/11/6 1231/11/6 1242/11/6
f 1231/10/6 1232/10/6 1242/10/6
f 1232/11/6 1223/11/6 1243/11/6
f 1242/10/6 1232/10/6 1243/10/6
f 1238/9/6 1239/9/6 1244/9/6
f 1239/11/6 1240/11/6 1245/11/6
f 1244/9/6 1239/9/6 1245/9/6
f 1223/12/6 1224/12/6 1246/12/6
f 1243/11/6 1223/11/6 1246/11/6
f 1242/11/6 1243/11/6 1246/11/6
f 1225/11/6 1226/11/6 1247/11/6
f 1246/12/6 1224/12/6 1247/12/6
f 1224/11/6 1225/11/6 1247/11/6
f 1247/11/6 1226/11/6 1248/11/6
f 1226/12/6 1227/12/6 1249/12/6
f 1248/11/6 1226/11/6 1249/11/6
f 1227/11/6 1211/11/6 1250/11/6
f 1249/12/6 1227/12/6 1250/12/6
f 1250/11/6 1211/11/6 1251/11/6
f 1211/4/6 1212/4/6 1252/4/6
f 1251/11/6 1211/11/6 1252/11/6
f 1252/4/6 1212/4/6 1253/4/6
f 1241/11/6 1236/11/6 1254/11/6
f 1236/12/6 1237/12/6 1254/12/6
f 1237/11/6 1242/11/6 1255/11/6
f 1254/12/6 1237/12/6 1255/12/6
f 1242/11/6 1246/11/6 1255/11/6
f 1246/11/6 1247/11/6 1255/11/6
f 1255/11/6 1247/11/6 1256/11/6
f 1244/11/6 1245/11/6 1257/11/6
f 1245/11/6 1240/11/6 1258/11/6
f 1257/11/6 1245/11/6 1258/11/6
f 1241/11/6 1254/11/6 1259/11/6
f 1254/11/6 1255/11/6 1259/11/6
f 1259/11/6 1255/11/6 1260/11/6
f 1248/11/6 1249/11/6 1261/11/6
f 1250/12/6 1251/12/6 1261/12/6
f 1249/11/6 1250/11/6 1261/11/6
f 1251/11/6 1252/11/6 1262/11/6
f 1261/12/6 1251/12/6 1262/12/6
f 1252/9/6 1253/9/6 1263/9/6
f 1262/11/6 1252/11/6 1263/11/6
f 1263/9/6 1253/9/6 1264/9/6
f 1241/11/6 1259/11/6 1265/11/6
f 1265/11/6 1259/11/6 1266/11/6
f 1260/11/6 1255/11/6 1267/11/6
f 1255/12/6 1256/12/6 1267/12/6
f 1256/11/6 1247/11/6 1268/11/6
f 1267/12/6 1256/12/6 1268/12/6
f 1268/11/6 1247/11/6 1269/11/6
f 1261/11/6 1262/11/6 1270/11/6
f 1262/11/6 1263/11/6 1270/11/6
f 1263/11/6 1264/11/6 1270/11/6
f 1270/11/6 1264/11/6 1271/11/6
f 1258/11/6 1240/11/6 1272/11/6
f 1240/10/6 1241/10/6 1272/10/6
f 1241/11/6 1265/11/6 1273/11/6
f 1272/10/6 1241/10/6 1273/10/6
f 1273/11/6 1265/11/6 1274/11/6
f 1274/11/6 1265/11/6 1275/11/6
f 1265/10/6 1266/10/6 1276/10/6
f 1275/11/6 1265/11/6 1276/11/6
f 1266/11/6 1259/11/6 1277/11/6
f 1276/10/6 1266/10/6 1277/10/6
f 1277/11/6 1259/11/6 1278/11/6
f 1259/12/6 1260/12/6 1279/12/6
f 1278/11/6 1259/11/6 1279/11/6
f 1260/11/6 1267/11/6 1280/11/6
f 1279/12/6 1260/12/6 1280/12/6
f 1267/11/6 1268/11/6 1280/11/6
f 1280/11/6 1268/11/6 1281/11/6
f 1247/12/6 1248/12/6 1282/12/6
f 1269/11/6 1247/11/6 1282/11/6
f 1248/11/6 1261/11/6 1283/11/6
f 1282/12/6 1248/12/6 1283/12/6
f 1261/11/6 1270/11/6 1283/11/6
f 1270/8/6 1271/8/6 1284/8/6
f 1283/11/6 1270/11/6 1284/11/6
f 1284/8/6 1271/8/6 1285/8/6
f 1281/11/6 1268/11/6 1286/11/6
f 1268/12/6 1269/12/6 1286/12/6
f 1282/11/6 1283/11/6 1287/11/6
f 1286/12/6 1269/12/6 1287/12/6
f 1269/11/6 1282/11/6 1287/11/6
f 1283/11/6 1284/11/6 1287/11/6
f 1284/11/6 1285/11/6 1287/11/6
f 1287/11/6 1285/11/6 1288/11/6
f 1288/11/6 1285/11/6 1289/11/6
f 1257/4/6 1258/4/6 1290/4/6
f 1273/11/6 1274/11/6 1291/11/6
f 1290/4/6 1258/4/6 1291/4/6
f 1272/11/6 1273/11/6 1291/11/6
f 1258/11/6 1272/11/6 1291/11/6
f 1274/12/6 1275/12/6 1292/12/6
f 1291/11/6 1274/11/6 1292/11/6
f 1275/11/6 1276/11/6 1293/11/6
f 1292/12/6 1275/12/6 1293/12/6
f 1276/11/6 1277/11/6 1293/11/6
f 1293/11/6 1277/11/6 1294/11/6
f 1277/10/6 1278/10/6 1295/10/6
f 1294/11/6 1277/11/6 1295/11/6
f 1278/11/6 1279/11/6 1296/11/6
f 1295/10/6 1278/10/6 1296/10/6
f 1279/11/6 1280/11/6 1296/11/6
f 1296/11/6 1280/11/6 1297/11/6
f 1280/12/6 1281/12/6 1298/12/6
f 1297/11/6 1280/11/6 1298/11/6
f 1281/11/6 1286/11/6 1299/11/6
f 1298/12/6 1281/12/6 1299/12/6
f 1286/11/6 1287/11/6 1299/11/6
f 1287/11/6 1288/11/6 1299/11/6
f 1299/11/6 1288/11/6 1300/11/6
f 1288/8/6 1289/8/6 1301/8/6
f 1300/11/6 1288/11/6 1301/11/6
f 1301/8/6 1289/8/6 1302/8/6
f 1290/7/6 1291/7/6 1303/7/6
f 1291/11/6 1292/11/6 1304/11/6
f 1303/7/6 1291/7/6 1304/7/6
f 1292/11/6 1293/11/6 1304/11/6
f 1296/10/6 1297/10/6 1305/10/6
f 1294/11/6 1295/11/6 1305/11/6
f 1295/11/6 1296/11/6 1305/11/6
f 1297/11/6 1298/11/6 1306/11/6
f 1305/10/6 1297/10/6 1306/10/6
f 1298/11/6 1299/11/6 1306/11/6
f 1300/11/6 1301/11/6 1307/11/6
f 1301/7/6 1302/7/6 1307/7/6
f 1307/7/6 1302/7/6 1308/7/6
f 1303/4/6 1304/4/6 1309/4/6
f 1304/11/6 1293/11/6 1310/11/6
f 1309/4/6 1304/4/6 1310/4/6
f 1299/12/6 1300/12/6 1311/12/6
f 1306/11/6 1299/11/6 1311/11/6
f 1305/11/6 1306/11/6 1311/11/6
f 1300/11/6 1307/11/6 1312/11/6
f 1311/12/6 1300/12/6 1312/12/6
f 1312/11/6 1307/11/6 1313/11/6
f 1313/11/6 1307/11/6 1314/11/6
f 1314/11/6 1307/11/6 1315/11/6
f 1307/8/6 1308/8/6 1316/8/6
f 1315/11/6 1307/11/6 1316/11/6
f 1316/8/6 1308/8/6 1317/8/6
f 1309/11/6 1310/11/6 1318/11/6
f 1310/11/6 1293/11/6 1319/11/6
f 1318/11/6 1310/11/6 1319/11/6
f 1293/12/6 1294/12/6 1320/12/6
f 1319/11/6 1293/11/6 1320/11/6
f 1294/11/6 1305/11/6 1321/11/6
f 1320/12/6 1294/12/6 1321/12/6
f 1305/11/6 1311/11/6 1321/11/6
f 1311/11/6 1312/11/6 1321/11/6
f 1321/11/6 1312/11/6 1322/11/6
f 1314/10/6 1315/10/6 1323/10/6
f 1313/11/6 1314/11/6 1323/11/6
f 1316/11/6 1317/11/6 1324/11/6
f 1323/10/6 1315/10/6 1324/10/6
f 1315/11/6 1316/11/6 1324/11/6
f 1324/11/6 1317/11/6 1325/11/6
f 1318/4/6 1319/4/6 1326/4/6
f 1319/11/6 1320/11/6 1327/11/6
f 1326/4/6 1319/4/6 1327/4/6
f 1320/11/6 1321/11/6 1327/11/6
f 1322/11/6 1312/11/6 1328/11/6
f 1312/12/6 1313/12/6 1328/12/6
f 1313/11/6 1323/11/6 1329/11/6
f 1328/12/6 1313/12/6 1329/12/6
f 1323/11/6 1324/11/6 1329/11/6
f 1324/10/6 1325/10/6 1330/10/6
f 1329/11/6 1324/11/6 1330/11/6
f 1325/11/6 1317/11/6 1331/11/6
f 1330/10/6 1325/10/6 1331/10/6
f 1331/11/6 1317/11/6 1332/11/6
f 1332/11/6 1317/11/6 1333/11/6
f 1333/11/6 1317/11/6 1334/11/6
f 1326/9/6 1327/9/6 1335/9/6
f 1327/11/6 1321/11/6 1336/11/6
f 1335/9/6 1327/9/6 1336/9/6
f 1321/12/6 1322/12/6 1337/12/6
f 1336/11/6 1321/11/6 1337/11/6
f 1329/11/6 1330/11/6 1338/11/6
f 1337/12/6 1322/12/6 1338/12/6
f 1322/11/6 1328/11/6 1338/11/6
f 1328/11/6 1329/11/6 1338/11/6
f 1330/11/6 1331/11/6 1338/11/6
f 1331/10/6 1332/10/6 1339/10/6
f 1338/11/6 1331/11/6 1339/11/6
f 1332/11/6 1333/11/6 1340/11/6
f 1339/10/6 1332/10/6 1340/10/6
f 1340/11/6 1333/11/6 1341/11/6
f 1333/4/6 1334/4/6 1342/4/6
f 1341/11/6 1333/11/6 1342/11/6
f 1342/4/6 1334/4/6 1343/4/6
f 1336/11/6 1337/11/6 1344/11/6
f 1338/11/6 1339/11/6 1344/11/6
f 1335/11/6 1336/11/6 1344/11/6
f 1337/11/6 1338/11/6 1344/11/6
f 1339/11/6 1340/11/6 1344/11/6
f 1344/11/6 1340/11/6 1345/11/6
f 1340/10/6 1341/10/6 1346/10/6
f 1345/11/6 1340/11/6 1346/11/6
f 1341/11/6 1342/11/6 1347/11/6
f 1346/10/6 1341/10/6 1347/10/6
f 1347/11/6 1342/11/6 1348/11/6
f 1342/8/6 1343/8/6 1349/8/6
f 1348/11/6 1342/11/6 1349/11/6
f 1349/8/6 1343/8/6 1350/8/6
f 1344/7/6 1345/7/6 1351/7/6
f 1345/11/6 1346/11/6 1352/11/6
f 1351/7/6 1345/7/6 1352/7/6
f 1346/11/6 1347/11/6 1352/11/6
f 1347/10/6 1348/10/6 1353/10/6
f 1352/11/6 1347/11/6 1353/11/6
f 1348/11/6 1349/11/6 1354/11/6
f 1353/10/6 1348/10/6 1354/10/6
f 1349/9/6 1350/9/6 1355/9/6
f 1354/11/6 1349/11/6 1355/11/6
f 1355/9/6 1350/9/6 1356/9/6
f 1351/11/6 1352/11/6 1357/11/6
f 1353/11/6 1354/11/6 1357/11/6
f 1352/11/6 1353/11/6 1357/11/6
f 1354/11/6 1355/11/6 1357/11/6
f 1357/11/6 1355/11/6 1358/11/6
f 1358/11/6 1355/11/6 1359/11/6
f 1359/11/6 1355/11/6 1360/11/6
f 1360/11/6 1355/11/6 1361/11/6
f 1361/11/6 1355/11/6 1362/11/6
f 1362/11/6 1355/11/6 1363/11/6
f 1363/11/6 1355/11/6 1364/11/6
f 1364/11/6 1355/11/6 1365/11/6
f 1365/11/6 1355/11/6 1366/11/6
f 1366/11/6 1355/11/6 1367/11/6
f 1367/11/6 1355/11/6 1368/11/6
f 1368/11/6 1355/11/6 1369/11/6
f 1369/11/6 1355/11/6 1370/11/6
f 1370/11/6 1355/11/6 1371/11/6
f 1371/11/6 1355/11/6 1372/11/6
f 1372/11/6 1355/11/6 1373/11/6
f 1373/11/6 1355/11/6 1374/11/6
f 1374/11/6 1355/11/6 1375/11/6
f 1375/11/6 1355/11/6 1376/11/6
f 1376/11/6 1355/11/6 1377/11/6
f 1377/11/6 1355/11/6 1378/11/6
f 1378/11/6 1355/11/6 1379/11/6
f 1379/11/6 1355/11/6 1380/11/6
f 1380/11/6 1355/11/6 1381/11/6
f 1381/11/6 1355/11/6 1382/11/6
f 1382/11/6 1355/11/6 1383/11/6
f 1383/11/6 1355/11/6 1384/11/6
f 1384/11/6 1355/11/6 1385/11/6
f 1385/11/6 1355/11/6 1386/11/6
f 1355/4/6 1356/4/6 1387/4/6
f 1386/11/6 1355/11/6 1387/11/6
f 1357/7/6 1358/7/6 1388/7/6
f 1358/11/6 1359/11/6 1389/11/6
f 1388/7/6 1358/7/6 1389/7/6
f 1359/5/6 1360/5/6 1390/5/6
f 1389/11/6 1359/11/6 1390/11/6
f 1360/9/6 1361/9/6 1391/9/6
f 1390/5/6 1360/5/6 1391/5/6
f 1361/11/6 1362/11/6 1392/11/6
f 1391/9/6 1361/9/6 1392/9/6
f 1362/4/6 1363/4/6 1393/4/6
f 1392/11/6 1362/11/6 1393/11/6
f 1363/11/6 1364/11/6 1394/11/6
f 1393/4/6 1363/4/6 1394/4/6
f 1364/9/6 1365/9/6 1395/9/6
f 1394/11/6 1364/11/6 1395/11/6
f 1365/11/6 1366/11/6 1396/11/6
f 1395/9/6 1365/9/6 1396/9/6
f 1366/4/6 1367/4/6 1397/4/6
f 1396/11/6 1366/11/6 1397/11/6
f 1367/11/6 1368/11/6 1398/11/6
f 1397/4/6 1367/4/6 1398/4/6
f 1368/9/6 1369/9/6 1399/9/6
f 1398/11/6 1368/11/6 1399/11/6
f 1369/4/6 1370/4/6 1400/4/6
f 1399/9/6 1369/9/6 1400/9/6
f 1370/11/6 1371/11/6 1401/11/6
f 1400/4/6 1370/4/6 1401/4/6
f 1371/4/6 1372/4/6 1402/4/6
f 1401/11/6 1371/11/6 1402/11/6
f 1372/11/6 1373/11/6 1403/11/6
f 1402/4/6 1372/4/6 1403/4/6
f 1373/9/6 1374/9/6 1404/9/6
f 1403/11/6 1373/11/6 1404/11/6
f 1374/11/6 1375/11/6 1405/11/6
f 1404/9/6 1374/9/6 1405/9/6
f 1375/9/6 1376/9/6 1406/9/6
f 1405/11/6 1375/11/6 1406/11/6
f 1376/11/6 1377/11/6 1407/11/6
f 1406/9/6 1376/9/6 1407/9/6
f 1377/9/6 1378/9/6 1408/9/6
f 1407/11/6 1377/11/6 1408/11/6
f 1378/11/6 1379/11/6 1409/11/6
f 1408/9/6 1378/9/6 1409/9/6
f 1379/4/6 1380/4/6 1410/4/6
f 1409/11/6 1379/11/6 1410/11/6
f 1380/11/6 1381/11/6 1411/11/6
f 1410/4/6 1380/4/6 1411/4/6
f 1381/9/6 1382/9/6 1412/9/6
f 1411/11/6 1381/11/6 1412/11/6
f 1382/11/6 1383/11/6 1413/11/6
f 1412/9/6 1382/9/6 1413/9/6
f 1383/4/6 1384/4/6 1414/4/6
f 1413/11/6 1383/11/6 1414/11/6
f 1384/9/6 1385/9/6 1415/9/6
f 1414/4/6 1384/4/6 1415/4/6
f 1385/11/6 1386/11/6 1416/11/6
f 1415/9/6 1385/9/6 1416/9/6
f 1386/9/6 1387/9/6 1417/9/6
f 1416/11/6 1386/11/6 1417/11/6
f 1387/4/6 1356/4/6 1418/4/6
f 1417/9/6 1387/9/6 1418/9/6
f 1418/4/6 1356/4/6 1419/4/6
