# MagicaVoxel @ Ephtracy

# group
g AxePopUp

# material
mtllib AxePopUp.mtl
usemtl palette

# normals
vn -1 0 0
vn 1 0 0
vn 0 0 1
vn 0 0 -1
vn 0 -1 0
vn 0 1 0

# texcoords
vt 0.537109 0.5
vt 0.978516 0.5
vt 0.986328 0.5

# verts
v -3 0 4
v -3 0 3
v -3 1 4
v -3 1 3
v -2 1 4
v -2 1 3
v -2 7 4
v -2 7 3
v -2 8 4
v -2 8 3
v -2 10 4
v -2 10 3
v -2 11 4
v -2 11 3
v -1 8 4
v -1 8 3
v -1 9 4
v -1 9 3
v -1 11 4
v -1 11 3
v -1 12 4
v -1 12 3
v 0 9 4
v 0 9 3
v 0 10 4
v 0 10 3
v -2 0 4
v -2 0 3
v -2 1 4
v -2 1 3
v -1 1 4
v -1 1 3
v -1 5 4
v -1 5 3
v 0 5 4
v 0 5 3
v 0 6 4
v 0 6 3
v 1 6 4
v 1 6 3
v 1 7 4
v 1 7 3
v 1 11 4
v 1 11 3
v 1 12 4
v 1 12 3
v 2 7 4
v 2 7 3
v 2 8 4
v 2 8 3
v 2 10 4
v 2 10 3
v 2 11 4
v 2 11 3
v 3 8 4
v 3 8 3
v 3 10 4
v 3 10 3
v -3 0 4
v -3 1 4
v -2 0 4
v -2 1 4
v -2 7 4
v -2 8 4
v -2 10 4
v -2 11 4
v -1 1 4
v -1 5 4
v -1 6 4
v -1 7 4
v -1 8 4
v -1 9 4
v -1 10 4
v -1 11 4
v -1 12 4
v 0 5 4
v 0 6 4
v 0 7 4
v 0 8 4
v 0 9 4
v 0 10 4
v 1 6 4
v 1 7 4
v 1 8 4
v 1 10 4
v 1 11 4
v 1 12 4
v 2 7 4
v 2 8 4
v 2 10 4
v 2 11 4
v 3 8 4
v 3 10 4
v -3 0 3
v -3 1 3
v -2 0 3
v -2 1 3
v -2 7 3
v -2 8 3
v -2 10 3
v -2 11 3
v -1 1 3
v -1 5 3
v -1 6 3
v -1 7 3
v -1 8 3
v -1 9 3
v -1 10 3
v -1 11 3
v -1 12 3
v 0 5 3
v 0 6 3
v 0 7 3
v 0 8 3
v 0 9 3
v 0 10 3
v 1 6 3
v 1 7 3
v 1 8 3
v 1 10 3
v 1 11 3
v 1 12 3
v 2 7 3
v 2 8 3
v 2 10 3
v 2 11 3
v 3 8 3
v 3 10 3
v -3 0 4
v -2 0 4
v -3 0 3
v -2 0 3
v -2 1 4
v -1 1 4
v -2 1 3
v -1 1 3
v -1 5 4
v 0 5 4
v -1 5 3
v 0 5 3
v 0 6 4
v 1 6 4
v 0 6 3
v 1 6 3
v 1 7 4
v 2 7 4
v 1 7 3
v 2 7 3
v 2 8 4
v 3 8 4
v 2 8 3
v 3 8 3
v -2 10 4
v -1 10 4
v 0 10 4
v -2 10 3
v -1 10 3
v 0 10 3
v -3 1 4
v -2 1 4
v -3 1 3
v -2 1 3
v -2 8 4
v -1 8 4
v -2 8 3
v -1 8 3
v -1 9 4
v 0 9 4
v -1 9 3
v 0 9 3
v 2 10 4
v 3 10 4
v 2 10 3
v 3 10 3
v -2 11 4
v -1 11 4
v 1 11 4
v 2 11 4
v -2 11 3
v -1 11 3
v 1 11 3
v 2 11 3
v -1 12 4
v 1 12 4
v -1 12 3
v 1 12 3

# faces
f 3/1/1 2/1/1 1/1/1
f 4/1/1 2/1/1 3/1/1
f 7/1/1 6/1/1 5/1/1
f 8/1/1 6/1/1 7/1/1
f 9/3/1 8/3/1 7/3/1
f 10/3/1 8/3/1 9/3/1
f 13/3/1 12/3/1 11/3/1
f 14/3/1 12/3/1 13/3/1
f 17/3/1 16/3/1 15/3/1
f 18/3/1 16/3/1 17/3/1
f 21/3/1 20/3/1 19/3/1
f 22/3/1 20/3/1 21/3/1
f 25/2/1 24/2/1 23/2/1
f 26/2/1 24/2/1 25/2/1
f 27/1/2 28/1/2 29/1/2
f 29/1/2 28/1/2 30/1/2
f 31/1/2 32/1/2 33/1/2
f 33/1/2 32/1/2 34/1/2
f 35/3/2 36/3/2 37/3/2
f 37/3/2 36/3/2 38/3/2
f 39/3/2 40/3/2 41/3/2
f 41/3/2 40/3/2 42/3/2
f 43/3/2 44/3/2 45/3/2
f 45/3/2 44/3/2 46/3/2
f 47/3/2 48/3/2 49/3/2
f 49/3/2 48/3/2 50/3/2
f 51/3/2 52/3/2 53/3/2
f 53/3/2 52/3/2 54/3/2
f 55/3/2 56/3/2 57/3/2
f 57/3/2 56/3/2 58/3/2
f 61/1/3 60/1/3 59/1/3
f 62/1/3 60/1/3 61/1/3
f 67/1/3 63/1/3 62/1/3
f 68/1/3 63/1/3 67/1/3
f 69/1/3 63/1/3 68/1/3
f 70/3/3 64/3/3 63/3/3
f 70/1/3 63/1/3 69/1/3
f 71/3/3 64/3/3 70/3/3
f 73/3/3 66/3/3 65/3/3
f 74/3/3 66/3/3 73/3/3
f 76/3/3 69/3/3 68/3/3
f 77/2/3 70/2/3 69/2/3
f 77/3/3 69/3/3 76/3/3
f 78/1/3 71/1/3 70/1/3
f 78/2/3 70/2/3 77/2/3
f 79/3/3 72/3/3 71/3/3
f 79/1/3 71/1/3 78/1/3
f 80/3/3 72/3/3 79/3/3
f 81/2/3 74/2/3 73/2/3
f 82/3/3 78/3/3 77/3/3
f 83/2/3 81/2/3 80/2/3
f 83/3/3 78/3/3 82/3/3
f 83/2/3 80/2/3 79/2/3
f 83/2/3 79/2/3 78/2/3
f 84/2/3 81/2/3 83/2/3
f 85/2/3 74/2/3 81/2/3
f 85/2/3 81/2/3 84/2/3
f 86/3/3 75/3/3 74/3/3
f 86/2/3 74/2/3 85/2/3
f 87/3/3 75/3/3 86/3/3
f 88/3/3 84/3/3 83/3/3
f 89/2/3 85/2/3 84/2/3
f 89/3/3 84/3/3 88/3/3
f 90/3/3 86/3/3 85/3/3
f 90/2/3 85/2/3 89/2/3
f 91/3/3 86/3/3 90/3/3
f 92/3/3 90/3/3 89/3/3
f 93/3/3 90/3/3 92/3/3
f 94/1/4 95/1/4 96/1/4
f 96/1/4 95/1/4 97/1/4
f 97/1/4 98/1/4 102/1/4
f 102/1/4 98/1/4 103/1/4
f 103/1/4 98/1/4 104/1/4
f 98/3/4 99/3/4 105/3/4
f 104/1/4 98/1/4 105/1/4
f 105/3/4 99/3/4 106/3/4
f 100/3/4 101/3/4 108/3/4
f 108/3/4 101/3/4 109/3/4
f 103/3/4 104/3/4 111/3/4
f 104/2/4 105/2/4 112/2/4
f 111/3/4 104/3/4 112/3/4
f 105/1/4 106/1/4 113/1/4
f 112/2/4 105/2/4 113/2/4
f 106/3/4 107/3/4 114/3/4
f 113/1/4 106/1/4 114/1/4
f 114/3/4 107/3/4 115/3/4
f 108/2/4 109/2/4 116/2/4
f 112/3/4 113/3/4 117/3/4
f 115/2/4 116/2/4 118/2/4
f 117/3/4 113/3/4 118/3/4
f 114/2/4 115/2/4 118/2/4
f 113/2/4 114/2/4 118/2/4
f 118/2/4 116/2/4 119/2/4
f 116/2/4 109/2/4 120/2/4
f 119/2/4 116/2/4 120/2/4
f 109/3/4 110/3/4 121/3/4
f 120/2/4 109/2/4 121/2/4
f 121/3/4 110/3/4 122/3/4
f 118/3/4 119/3/4 123/3/4
f 119/2/4 120/2/4 124/2/4
f 123/3/4 119/3/4 124/3/4
f 120/3/4 121/3/4 125/3/4
f 124/2/4 120/2/4 125/2/4
f 125/3/4 121/3/4 126/3/4
f 124/3/4 125/3/4 127/3/4
f 127/3/4 125/3/4 128/3/4
f 131/1/5 130/1/5 129/1/5
f 132/1/5 130/1/5 131/1/5
f 135/1/5 134/1/5 133/1/5
f 136/1/5 134/1/5 135/1/5
f 139/3/5 138/3/5 137/3/5
f 140/3/5 138/3/5 139/3/5
f 143/3/5 142/3/5 141/3/5
f 144/3/5 142/3/5 143/3/5
f 147/3/5 146/3/5 145/3/5
f 148/3/5 146/3/5 147/3/5
f 151/3/5 150/3/5 149/3/5
f 152/3/5 150/3/5 151/3/5
f 156/3/5 154/3/5 153/3/5
f 157/2/5 155/2/5 154/2/5
f 157/3/5 154/3/5 156/3/5
f 158/2/5 155/2/5 157/2/5
f 159/1/6 160/1/6 161/1/6
f 161/1/6 160/1/6 162/1/6
f 163/3/6 164/3/6 165/3/6
f 165/3/6 164/3/6 166/3/6
f 167/3/6 168/3/6 169/3/6
f 169/3/6 168/3/6 170/3/6
f 171/3/6 172/3/6 173/3/6
f 173/3/6 172/3/6 174/3/6
f 175/3/6 176/3/6 179/3/6
f 179/3/6 176/3/6 180/3/6
f 177/3/6 178/3/6 181/3/6
f 181/3/6 178/3/6 182/3/6
f 183/3/6 184/3/6 185/3/6
f 185/3/6 184/3/6 186/3/6
